<?xml version="1.0" encoding="utf-8"?>
<!-- Generator: Adobe Illustrator 24.1.2, SVG Export Plug-In . SVG Version: 6.00 Build 0)  -->
<svg version="1.1" id="Layer_1" xmlns="http://www.w3.org/2000/svg" xmlns:xlink="http://www.w3.org/1999/xlink" x="0px" y="0px"
	 viewBox="0 0 767.1 284" style="enable-background:new 0 0 767.1 284;" xml:space="preserve">
<style type="text/css">
	.st0{fill:url(#SVGID_1_);}
</style>
<linearGradient id="SVGID_1_" gradientUnits="userSpaceOnUse" x1="0" y1="143.8122" x2="767.15" y2="143.8122" gradientTransform="matrix(1 0 0 -1 0 286)">
	<stop  offset="0" style="stop-color:#DFF0D7"/>
	<stop  offset="1" style="stop-color:#F5B95B"/>
</linearGradient>
<path class="st0" d="M765.5,137.6L659.7,3.1c-4.4-5.5-13.3-2.5-13.3,4.6v48.5H0v181h646.4v39.5c0,7,8.9,10.1,13.3,4.6l105.8-134.5
	C767.7,144.1,767.7,140.3,765.5,137.6z"/>
</svg>
