<?xml version="1.0" encoding="utf-8"?>
<!-- Generator: Adobe Illustrator 24.1.2, SVG Export Plug-In . SVG Version: 6.00 Build 0)  -->
<svg version="1.1" id="Layer_1" xmlns="http://www.w3.org/2000/svg" xmlns:xlink="http://www.w3.org/1999/xlink" x="0px" y="0px"
	 viewBox="0 0 100 100" style="enable-background:new 0 0 100 100;" xml:space="preserve">
<style type="text/css">
	.st0{fill:#3A8DDE;}
</style>
<g>
	<path class="st0" d="M50.14,98C23.59,98,1.98,76.4,1.98,49.84c0-26.56,21.61-48.16,48.16-48.16c26.55,0,48.16,21.61,48.16,48.16
		C98.3,76.4,76.69,98,50.14,98 M49.96,30.85c0.06,0,3.91,4.12,3.91,7.42c0,3.57-2.79,4.43-3.73,4.43c-0.05,0-0.1-0.01-0.16-0.01
		h-0.04c-0.06,0-0.12,0.01-0.16,0.01c-0.94,0-3.73-0.85-3.73-4.43C46.05,34.97,49.89,30.85,49.96,30.85 M13.69,52.52h4.39v-8.12
		h7.38v-3.4h-7.38V36.5h7.62v-3.39H13.69V52.52z M53.94,31.44h4.63l-5.38-19.41h-5.92l-5.58,19.41h4.29l1.23-4.34h5.62L53.94,31.44z
		 M52.01,23.81h-4.04l1.88-8.45h0.31L52.01,23.81z M72.36,42.82c0,5.7,2.64,10.04,8.23,10.04c5.6,0,8.27-4.34,8.27-10.04
		c0-5.71-2.67-10.04-8.27-10.04C75,32.78,72.36,37.11,72.36,42.82 M77.04,42.82c0-3.73,0.91-6.76,3.55-6.76
		c2.65,0,3.6,3.03,3.6,6.76c0,3.73-0.95,6.76-3.6,6.76C77.95,49.58,77.04,46.54,77.04,42.82 M48.09,92.63
		c0.26-1.88,0.51-4.89,0.51-8.43v-0.59c0-4.97-0.18-6.65-3.5-7.75c-5.13-1.7-7.22-7.42-6.1-14.54L21.85,17.7
		C12.93,25.57,7.31,37.06,7.31,49.84C7.31,72.78,25.43,91.56,48.09,92.63 M50.12,64.82c-6.82-1.59-9.36-7.81-9.36-13.33L25.75,14.64
		c-0.98,0.68-1.93,1.4-2.85,2.15c3.3,7.83,18.12,43,18.14,43.05c2.62,6.32,7.39,4.22,8.55,9.44c0.27,1.26,0.29,1.82,0.29,1.82h0.51
		c0,0,0.01-0.55,0.3-1.82c1.15-5.22,5.91-3.12,8.54-9.44c0.02-0.05,14.84-35.22,18.14-43.05c-0.92-0.75-1.86-1.48-2.85-2.15
		L59.51,51.49c0,5.52-2.54,11.74-9.36,13.33H50.12z M50.11,53.7c-2.89-0.65-6.5-3.52-6.97-7.22c-0.17-1.4-0.31-1.8-0.1-4.59
		L29.89,12.1c-1.06,0.57-2.09,1.19-3.1,1.85c3.93,8.84,15.96,35.85,15.97,35.88c1.9,4.01,5.24,4.09,6.39,6.48
		c0.7,1.42,0.76,2.68,0.77,2.79h0.44c0.01-0.1,0.08-1.37,0.77-2.79c1.16-2.39,4.5-2.47,6.4-6.48c0.01-0.03,12.04-27.04,15.97-35.88
		c-1-0.66-2.04-1.28-3.11-1.85L57.24,41.89c0.21,2.79,0.07,3.19-0.11,4.59c-0.47,3.7-4.08,6.57-6.95,7.22H50.11z M50.3,48.64
		l0.2-1.62c0.83-3.77,3.57-3.3,5.47-7C55.97,40,56,39.96,56,39.96c0.06-0.14,9.36-20.11,13.25-28.45C63.49,8.63,57.01,7,50.14,7
		c-6.86,0-13.35,1.63-19.11,4.51c3.88,8.34,13.19,28.31,13.26,28.45c0,0,0.02,0.04,0.03,0.06c1.89,3.7,4.62,3.23,5.45,7l0.2,1.62
		H50.3z M92.98,49.84c0-12.79-5.64-24.28-14.54-32.14L61.27,61.31c1.14,7.13-0.97,12.84-6.1,14.54c-3.32,1.1-3.5,2.78-3.5,7.75v0.59
		c0,3.53,0.27,6.55,0.51,8.43C74.86,91.56,92.98,72.78,92.98,49.84 M20.84,62.49c0,0,0.63,1.35,1.15,2.3
		c0.51,0.96,1.21,2.11,1.21,2.11l-1.13,0.66c0,0-0.86-1.43-1.64-3.08c-0.22,0.11-1.57,0.82-1.8,0.93c0.13,0.24,1.52,2.92,1.52,2.92
		L19,68.98c0,0-1.41-2.73-1.53-2.97c-0.24,0.12-3.16,1.63-3.16,1.63l-0.7-1.39l7.15-3.72L20.84,62.49z M25.36,69.82l0.99,1.2
		l-6.25,5.23l-1.01-1.2l6.2-5.18L25.36,69.82z M31.16,75.31l1.24,0.88l-1.6,8.62L29.37,84c0,0,0.36-1.76,0.4-1.93
		c-0.07-0.05-0.9-0.55-1.7-1.12c-0.82-0.58-1.61-1.24-1.68-1.29c-0.15,0.09-1.72,1.02-1.72,1.02l-1.21-1.04l7.63-4.3L31.16,75.31z
		 M27.54,78.97c0.15,0.12,0.68,0.55,1.22,0.94c0.56,0.39,1.12,0.76,1.28,0.83c0.08-0.36,0.65-3.2,0.77-3.72
		C30.35,77.3,27.87,78.78,27.54,78.97 M36.31,78.48c0,0,1.32,0.66,3.2,1.3c1.28,0.45,2.37,0.79,3.43,1.02l-0.37,1.24
		c0,0-1.02-0.18-2.67-0.69c-0.1,0.27-2.25,6.42-2.25,6.42l-1.47-0.51c0,0,2.14-6.16,2.24-6.42c-1.54-0.58-2.61-1.15-2.61-1.15
		L36.31,78.48z M62.07,80.13c0.53,0.28,0.92,0.78,1.13,1.49c0.09,0.3,0.15,0.58,0.15,0.86c0,1.14-0.8,2.04-2.24,2.49
		c0,0-0.73,0.23-0.94,0.29c0.08,0.26,0.94,3.02,0.94,3.02l-1.43,0.37l-2.42-7.86l2.17-0.67C60.51,79.77,61.41,79.78,62.07,80.13
		 M59.04,81.61c0.07,0.24,0.67,2.16,0.74,2.39c0.3-0.09,0.95-0.29,0.95-0.29c0.22-0.06,0.73-0.27,0.97-0.73
		c0.08-0.15,0.12-0.32,0.12-0.5c0-0.13-0.03-0.27-0.07-0.42c-0.09-0.28-0.26-0.5-0.52-0.63c-0.44-0.23-1.03-0.17-1.4-0.06
		C59.83,81.36,59.24,81.54,59.04,81.61 M66.93,76.7L74,81.88l-1.26,0.88c0,0-1.42-1.08-1.56-1.18c-0.08,0.04-0.81,0.56-1.6,1.03
		c-0.74,0.45-1.54,0.84-1.62,0.89c0.03,0.18,0.31,1.92,0.31,1.92l-1.35,0.65l-1.19-8.67L66.93,76.7z M67.74,82.19
		c0.21-0.1,0.76-0.4,1.3-0.73c0.49-0.3,0.88-0.54,1.07-0.7c-0.29-0.22-2.5-1.9-2.95-2.25C67.26,79.09,67.69,81.83,67.74,82.19
		 M75.01,69.56l6.17,5.5l-1.11,1.3c0,0-5.78-1.69-6.66-1.92c0.65,0.62,4.24,4.41,4.24,4.41l-1.08,0.98l-5.81-5.9l1.37-1.22
		c0,0,5.58,1.66,6.46,1.9c-0.65-0.62-4.5-3.93-4.5-3.93L75.01,69.56z M77.83,65.46l7.14,4.14l-0.73,1.25l-7.18-4.15L77.83,65.46z
		 M80.93,58.6l1.23,0.64l-0.12,0.14c-0.4,0.48-0.58,0.73-0.77,1.28c-0.09,0.25-0.2,0.72-0.02,1.08c0.09,0.19,0.25,0.33,0.49,0.4
		c0.54,0.19,1.01-0.29,1.55-0.84c0.75-0.76,1.69-1.71,3.2-1.2c1.53,0.52,2.05,1.88,1.42,3.74c-0.19,0.57-0.54,1.05-0.87,1.5
		l-0.08,0.1l-1.27-0.59l0.13-0.15c0.15-0.18,0.68-0.8,0.88-1.41c0.19-0.54,0.17-1.45-0.65-1.73c-0.68-0.24-1.19,0.29-1.79,0.9
		c-0.72,0.76-1.55,1.62-2.92,1.15c-0.6-0.2-1.05-0.59-1.3-1.09c-0.31-0.62-0.32-1.42-0.03-2.25c0.18-0.56,0.49-1.13,0.85-1.58
		L80.93,58.6z"/>
</g>
</svg>
