<?xml version="1.0" encoding="utf-8"?>
<!-- Generator: Adobe Illustrator 24.1.2, SVG Export Plug-In . SVG Version: 6.00 Build 0)  -->
<svg version="1.1" id="Layer_1" xmlns="http://www.w3.org/2000/svg" xmlns:xlink="http://www.w3.org/1999/xlink" x="0px" y="0px"
	 viewBox="0 0 257 317" style="enable-background:new 0 0 257 317;" xml:space="preserve">
<style type="text/css">
	.st0{fill:#5FB49C;}
</style>
<g>
	<path id="XMLID_10472_" class="st0" d="M188.9,226.6l-4.1-20.8c2.6-1.4,5.1-3.1,7.5-5l17.6,11.8l18.4-27.5l-17.6-11.8
		c0.8-2.9,1.4-5.9,1.7-8.8l20.8-4.1l-6.4-32.4l-20.8,4.1c-1.4-2.6-3.1-5.1-5-7.5l11.8-17.6l-27.5-18.4l-11.8,17.6
		c-2.9-0.8-5.9-1.4-8.8-1.7l-4.1-20.8l-32.4,6.4l4.1,20.8c-2.6,1.4-5.1,3.1-7.5,5l-17.6-11.8l-18.4,27.6l17.6,11.8
		c-0.8,2.9-1.4,5.9-1.7,8.8l-20.8,4.1l6.4,32.4l20.8-4.1c1.4,2.6,3.1,5.1,5,7.5l-11.8,17.6l27.5,18.4l11.8-17.6
		c2.9,0.8,5.9,1.4,8.8,1.7l4.1,20.8L188.9,226.6z M140.4,146.3c6.7-10,20.3-12.7,30.3-6s12.7,20.3,6,30.3s-20.3,12.7-30.3,6
		C136.4,169.9,133.7,156.3,140.4,146.3z"/>
	<path id="XMLID_10475_" class="st0" d="M214.7,307.1l-4.5-22.7c16.5-6.8,31.9-16.9,44.9-30l19.2,12.9l29-43.4L284.1,211
		c7.2-17.1,10.6-35.1,10.5-53l22.7-4.5l-10.2-51.2l-22.7,4.5c-6.8-16.5-16.9-31.9-30-44.9l12.9-19.2l-43.4-29L211,32.9
		c-17.1-7.2-35.1-10.6-53-10.5l-4.5-22.7L102.3,9.9l4.5,22.7c-16.5,6.8-31.9,16.9-44.9,30L42.7,49.7l-29,43.4L32.9,106
		c-7.2,17.1-10.6,35.1-10.5,53l-22.7,4.5l10.2,51.2l22.7-4.5c6.8,16.5,16.9,31.9,30,44.9l-12.9,19.2l43.4,29l12.9-19.2
		c17.1,7.2,35.1,10.6,53,10.5l4.5,22.7L214.7,307.1z M103.6,240.7C58.2,210.4,46,148.9,76.3,103.5s91.8-57.6,137.2-27.3
		c45.4,30.3,57.6,91.8,27.3,137.2C210.4,258.8,149,271,103.6,240.7z"/>
</g>
</svg>
