<?xml version="1.0" encoding="utf-8"?>
<!-- Generator: Adobe Illustrator 24.1.2, SVG Export Plug-In . SVG Version: 6.00 Build 0)  -->
<svg version="1.1" id="Layer_1" xmlns="http://www.w3.org/2000/svg" xmlns:xlink="http://www.w3.org/1999/xlink" x="0px" y="0px"
	 viewBox="0 0 341 218" style="enable-background:new 0 0 341 218;" xml:space="preserve">
<style type="text/css">
	.st0{fill:#B3B3B3;}
	.st1{fill:#AD7DD3;}
	.st2{fill:#4C286E;}
	.st3{fill:#C4538E;}
	.st4{fill:#412660;}
	.st5{fill:#293882;}
	.st6{fill:#AA1E50;}
	.st7{fill:#9B8170;}
	.st8{fill:#3A8DDE;}
	.st9{fill:#374C99;}
	.st10{fill:#B569B3;}
	.st11{fill:#D67CCF;}
	.st12{fill:none;stroke:#821642;stroke-width:2;stroke-linecap:round;stroke-linejoin:round;stroke-miterlimit:10;}
	.st13{fill:none;stroke:#B569B3;stroke-linecap:round;stroke-miterlimit:10;}
	.st14{fill:none;stroke:#4C286E;stroke-width:2;stroke-linecap:round;stroke-miterlimit:10;}
	.st15{fill:none;stroke:#172760;stroke-width:2;stroke-linecap:round;stroke-miterlimit:10;}
	.st16{fill:none;stroke:#FEC67C;stroke-width:2;stroke-linecap:round;stroke-miterlimit:10;}
</style>
<path class="st0" d="M330.8,184.8c0-6.2-41.9-11.2-93.5-11.2c-43.3,0-79.7,3.5-90.4,8.3c-0.5,0-1,0-1.5,0
	c-68.9,0-124.7,6.7-124.7,14.9c0,8.2,55.8,14.9,124.7,14.9s124.7-6.7,124.7-14.9c0-0.5-0.2-1-0.6-1.5
	C305.3,193.7,330.8,189.6,330.8,184.8z"/>
<path class="st1" d="M101.3,24.3c0,0,20.6-9.6,28.6-12.1c8-2.5,23,3.8,23,3.8s10.5,10.1,11.8,21s-4.1,25.2-4.1,25.2L101.3,24.3z"/>
<path class="st1" d="M134.4,35.8c0,0-73.6-38.7-106.6-27.3l168.4,101C196.2,109.5,207.4,91.9,134.4,35.8z"/>
<path class="st2" d="M194.6,105c0,0-33.9-34.5-67.8-55.2S36,9.8,36,9.8s-5.8-1.7-8.3-0.6s8.7,12.1,8.7,12.1s7.4,10.3,73.7,51.6
	s83.4,38.8,83.4,38.8S199.2,109.6,194.6,105z"/>
<path class="st3" d="M192.9,158.7c19-17.2-8.3-41.9-8.3-41.9c5.6-3.4,6.8-9.4,6.2-15.6c-9.8-9.5-36.9-34.8-64-51.4
	c-12-7.4-26.9-14.5-41.1-20.7C76.2,32.9,62,42.3,48.1,65.9c-24.2,40.9,51.5,38.9,51.5,38.9s-5.7,31.7,10.9,51.5
	c27.6,9.5,51.6,17.3,61.5,19.3C201.4,181.4,192.9,158.7,192.9,158.7z"/>
<path class="st3" d="M144.2,83.4c13.2,25.2,5.2,69.1,5.2,69.1s-44.2-3.9-90.7-21.6S53.8,82,53.8,82L144.2,83.4z"/>
<path class="st4" d="M289,82.7c0,0,20-14,21.3-25.7c1.3-11.7-37.4,7-39,20.4C269.6,90.8,289,82.7,289,82.7z"/>
<path class="st5" d="M229.7,134.6c1-4-5-38,21-55l37-8l15,59c0,0-30,23-34,21S229.7,134.6,229.7,134.6z"/>
<path class="st6" d="M64.2,115.1c-5.1,2.9-10.4,6.5-12.5,12.1c-1.5,3.9-1.1,8.4-3.2,12c-1,1.8-2.6,3.2-4,4.8
	c-3.7,4.3-5.9,9.8-6.1,15.4c0,1.3,0,2.6,0.7,3.7c0.5,0.9,1.4,1.6,2.3,2.2c6.6,4.5,14.7,7.1,22.7,6.7s15.9-3.8,21.5-9.5
	c4.6-4.7,7.5-10.8,10.2-16.8c1.4-2.9,2.7-5.9,3.9-8.9c2.1-5.7,3.4-11.6,4.6-17.6c0.3-1.4,0.6-2.9,0.3-4.3c-0.5-2.3-2.6-3.9-4.8-5.1
	C87.3,103.2,75.4,108.7,64.2,115.1z"/>
<ellipse transform="matrix(0.866 -0.5 0.5 0.866 6.822 154.1364)" class="st7" cx="291" cy="64.3" rx="21.2" ry="6"/>
<path class="st5" d="M149.7,112.6c0,0,25,15,31,14c0,0,8-5,12-1c0,0,13-17,41-8s23,9,23,9s-2-6,5-7c0,0-15-13-7-30c0,0-7-10,0-15
	s19-11,19-11s32-11,41,26c0,0,28,41,16,64c0,0-8,16-17,19c0,0-15,17-32,17c-4,0-25.7,15.4-63,3c-3-1-29,13-69-7c-2-1-41-6-41-6
	s-35,9-35-21S88.3,114,88.3,114l42.4,1.6L149.7,112.6z"/>
<path class="st6" d="M190.4,156.1c0.9-0.5,1.8-1.1,2.3-2.1c1-2-0.8-4.2-2.4-5.9c-5.2-5.5-9.1-12.1-14-17.8
	c-4.9-5.7-11.4-10.7-18.9-11.6c-7.5-0.8-15.9,3.9-17.1,11.4c-0.2,1.2-0.2,2.4,0.2,3.6c0.4,1.2,1.2,2.2,2,3.2c3,4.1,5,8.9,5.8,13.8
	c0.6,3.3,0.7,7.8,3.4,10.2c2.9,2.6,8.4,2.3,12.1,2.3C173.1,163.1,182.4,160.7,190.4,156.1z"/>
<path class="st6" d="M144.5,106.9c-2.7-0.9-5.4-1.7-8.2-1.8c-6.3-0.3-12.4,3.4-16.2,8.5c-3.8,5.1-5.6,11.3-6.6,17.6
	c-0.4,2.4-0.6,4.9-1.7,7.1c-0.9,1.8-2.3,3.4-3.5,5c-5.4,7.1-8.3,16.1-8,25c0.1,2.2,0.4,4.5,1.6,6.3c1.1,1.6,2.7,2.7,4.3,3.8
	c7.2,4.6,14.9,9,23.4,10.2c8.5,1.2,18-1.3,23-8.3c4.6-6.3,4.6-14.8,4.2-22.6c6.5-4.9,9.4-13.5,8.9-21.7c-0.4-7.2-3.2-14.2-6.6-20.5
	C155.8,109.2,151.1,109,144.5,106.9z"/>
<ellipse transform="matrix(0.2019 -0.9794 0.9794 0.2019 -76.6351 192.8577)" class="st8" cx="80" cy="143.5" rx="3.8" ry="3.2"/>
<path class="st9" d="M75.6,152.3c0,0,21,1.3,38.1-1.3v5.7c0,0-12.1,7-21.6,7s-18.4-7-18.4-7S74.3,152.3,75.6,152.3z"/>
<path class="st6" d="M91.8,114.2c0,0-7.1,11.5-6.1,26.5l19,1c0,0,10-29,8-29S91.8,114.2,91.8,114.2z"/>
<circle class="st10" cx="98.2" cy="117.1" r="7.5"/>
<path class="st11" d="M112.8,116.1c0,0,14.9-4.5,14.9-10.5c0-3.2-1-6-1-6s-9,0-18.7-5.1c0,0-3.4-9.4,3.5-23.5
	c0,0-31.9-7.5-16.5-31.6c0,0-20.8,6.5-28.1,22.8s-5.6,34.1-5.6,34.1s1.1,11.6,27.2,19.7C88.5,115.9,98,118.6,112.8,116.1"/>
<ellipse transform="matrix(0.3574 -0.934 0.934 0.3574 -3.5995 134.6649)" class="st2" cx="96.1" cy="69.9" rx="4.1" ry="1.5"/>
<ellipse transform="matrix(3.563305e-02 -0.9994 0.9994 3.563305e-02 8.1539 140.5625)" class="st2" cx="76.9" cy="66.1" rx="4.1" ry="1.5"/>
<path class="st3" d="M96.3,169.5c-1,0.8-2,1.6-2.3,2.8c-0.3,1,0,2.1,0,3.1c0,3.8-3.5,6.5-5.2,9.9c-2.8,5.4-0.8,12.4,3.6,16.7
	c4.3,4.3,10.5,6.3,16.5,7.2c8.7,1.3,18.1,0.4,25.2-4.7c1-0.7,2-1.6,2.7-2.6c1.3-1.8,1.9-4,2.4-6.2c0.9-3.8,1.9-7.9,0.5-11.6
	c-0.3-0.7-0.7-1.5-0.8-2.3c-0.1-0.8,0.1-1.6,0.3-2.4c0.6-2.6,0.9-5.4-0.1-7.9c-0.5-1.1-1.1-2.1-1.9-3
	C126.9,156.8,107.2,161.1,96.3,169.5z"/>
<path class="st3" d="M29.6,177.2c-1,4-0.7,8.5,1.9,11.7c1.6,1.9,3.9,3.2,6.3,3.5c0.2,2.9,0.6,6.2,2.8,8.1c1.5,1.2,3.5,1.6,5.3,1.9
	c7.3,1.2,15.4,1.7,21.7-2.3c3.3-2.1,5.8-5.2,8.2-8.3c1.8-2.2,3.6-4.5,4.9-7c1.6-2.9,2.6-6.2,2.9-9.6c0.2-1.9,0.1-3.8-0.6-5.5
	c-1.5-3.5-5.4-5.1-8.9-6.5c-3.1-1.2-6.4-2.4-9.6-1.7c-2.5-2.8-5.3-5.7-9-6.1c-2.2-0.3-4.4,0.5-6.5,1.3
	C39.7,160.3,32.2,167,29.6,177.2z"/>
<path class="st12" d="M102.7,135.6l-5.6,2.5L95,125.4l-5.3,12.8c0,0-3.7-2.7-2.7-11.2"/>
<g>
	<path class="st11" d="M108,113c-6.8,0.1-7.4,19.6-7.4,19.6c-1.8,61.8,5.5,69.7,5.5,69.7s5.7,13.9,13.9-5.7s-9.2-72.3-9.2-72.3
		s7.7-0.8,21.4-8.4c0,0-2.8-17.9-8-22.7c0,0-7.2-4.7-7.7,7.3c-0.5,12-1.5,12.1-1.5,12.1L108,113z"/>
	<path class="st13" d="M118.9,93.3c0,0,2.3,9.6,1.7,19.6"/>
	<path class="st13" d="M121.8,92.2c0,0,3.3,9.6,2.7,19.6"/>
	<path class="st13" d="M124.9,93c0,0,3.2,8.6,2.7,18.6"/>
</g>
<g>
	<path class="st11" d="M72.9,109.6c6.8-0.2,5.3,19.3,5.3,19.3c-3.5,57.8-20.4,69.9-20.4,69.9s-11,9.9-11.2-5.1
		c-0.2-21.3,24-72.6,24-72.6s-7.7-0.4-21.7-7.4c0,0,2-18,7-23c0,0,7-5,8,7s2,12,2,12L72.9,109.6z"/>
	<path class="st13" d="M61.1,90.4c0,0-1.8,9.7-0.8,19.7"/>
	<path class="st13" d="M58.1,89.4c0,0-2.8,9.7-1.8,19.7"/>
	<path class="st13" d="M55.1,90.4c0,0-2.8,8.7-1.8,18.7"/>
</g>
<path class="st14" d="M75.2,84.7c0,0,0,3,6,3s8.3-6,8.3-6"/>
<path class="st15" d="M231.1,116.9c0,0,21.6,5.8,25.6,9.8c0,0-2-6,5-7c0,0-17-8-8-33c0,0-1.5-5.7,0.2-8.4"/>
<path class="st1" d="M266.6,46.4c0,0,11.6-4.9,16.8,1.1c0,0,0.4,3.2,1.4,7c0,0,6.2,1,3.9,7.8s-15,17.8-25.7,18.3
	c-10.7,0.5-14.5-7.9-14.2-11.6C248.8,69,248.2,59.6,266.6,46.4z"/>
<path class="st4" d="M268.4,57.4c0,0,11.8-21.3,7.9-32.4s-31.6,23.2-26.1,35.4C258.9,79.8,268.4,57.4,268.4,57.4z"/>
<path class="st16" d="M73.7,84.6c0,0-32-4-57,18"/>
<line class="st16" x1="14.7" y1="99.6" x2="7.7" y2="99.6"/>
<line class="st16" x1="18.7" y1="95.6" x2="12.7" y2="94.6"/>
<line class="st16" x1="23.7" y1="92.6" x2="18.7" y2="90.6"/>
<line class="st16" x1="27.7" y1="90.6" x2="24.7" y2="87.6"/>
<line class="st16" x1="19.7" y1="103.6" x2="18.7" y2="110.6"/>
<line class="st16" x1="23.7" y1="101.6" x2="23.7" y2="106.6"/>
<line class="st16" x1="27.7" y1="98.6" x2="27.7" y2="103.6"/>
<line class="st16" x1="31.7" y1="96.6" x2="32.7" y2="99.6"/>
<path class="st12" d="M164.7,140.6c0,0-1,13-8,17c0,0,0.8,2.2,0.4,5.6"/>
<path class="st13" d="M103.5,117.1c0,0,2.2-6.5,11.2-4.5c0,0,0.2-7.7,2.1-14.9"/>
<ellipse transform="matrix(0.5545 -0.8322 0.8322 0.5545 83.1684 236.0316)" class="st7" cx="262" cy="40.3" rx="21.2" ry="6"/>
</svg>
