<?xml version="1.0" encoding="utf-8"?>
<!-- Generator: Adobe Illustrator 24.1.2, SVG Export Plug-In . SVG Version: 6.00 Build 0)  -->
<svg version="1.1" id="Layer_1" xmlns="http://www.w3.org/2000/svg" xmlns:xlink="http://www.w3.org/1999/xlink" x="0px" y="0px"
	 viewBox="0 0 198 215" style="enable-background:new 0 0 198 215;" xml:space="preserve">
<style type="text/css">
	.st0{fill:#AD7DD3;}
	.st1{fill:#4C286E;}
	.st2{fill:#C4538E;}
	.st3{fill:#D67CCF;}
	.st4{fill:#AA1E50;}
	.st5{fill:none;stroke:#4C286E;stroke-width:2;stroke-linecap:round;stroke-miterlimit:10;}
	.st6{fill:none;stroke:#821642;stroke-width:2;stroke-linecap:round;stroke-linejoin:round;stroke-miterlimit:10;}
	.st7{fill:#293882;}
	.st8{fill:#3A8DDE;}
	.st9{fill:#374C99;}
	.st10{fill:none;stroke:#B569B3;stroke-linecap:round;stroke-miterlimit:10;}
</style>
<path class="st0" d="M78.7,24c0,0,18.8-12.8,26.3-16.5c7.5-3.8,23.3,0,23.3,0s12,8.3,15,18.8s0,25.5,0,25.5L78.7,24z"/>
<path class="st0" d="M113.2,30c0,0-78.8-26.3-109.6-9.8l182.5,72.5C186.1,92.7,194.3,73.5,113.2,30z"/>
<path class="st1" d="M183.8,88.5c0,0-39-28.5-75.8-43.6S11.9,20.2,11.9,20.2s-6-0.8-8.3,0.8c-2.3,1.5,10.5,10.5,10.5,10.5
	s9,9,81.1,39s88.6,24.8,88.6,24.8S189.1,92.3,183.8,88.5z"/>
<path class="st2" d="M190.8,141.8c16-20-15-40-15-40c5-4.2,5.2-10.4,3.6-16.4C168.2,77.6,137.4,57,108,45c-13-5.3-28.9-10-43.9-13.8
	C55.3,36.4,42.8,48,32.9,73.5c-17.3,44.3,57.1,30,57.1,30s-0.5,32.2,19,49.1c28.7,4.9,53.7,8.8,63.8,9.1
	C202.8,162.8,190.8,141.8,190.8,141.8z"/>
<path class="st2" d="M150.8,102.8c9,27-6,69-6,69s-43-11-86-36s3-49,3-49L150.8,102.8z"/>
<path class="st3" d="M84.7,38.2c0,0-19.5,9.8-24,27s0,34.5,0,34.5s3,11.3,30,15c0,0,1.5,7.5,0.8,9.8s11.3,7.5,11.3,7.5l15-12
	c0,0-1.5-2.3-3-9c0,0,12.8-5.3,15.8-13.5s3.8-15,3.8-15s-10.5,6.8-18.8,7.5c0,0-4.5-6.8,0-21.8C115.5,68.3,73.4,64.5,84.7,38.2z"/>
<path class="st4" d="M88.8,119.8c0,0,4,5,12,6s18-11,18-11l4,9c0,0,4-5,14-4s22,12,20,23s-3,15-3,15s11,9,5,16s-4,10-4,10
	s2,24-16,17s-42-8-42-8l-25-9l-31-9l-17-2c0,0-9-28,17-36c0,0,6-18,18-15s17,4,17,4h11L88.8,119.8z"/>
<path class="st5" d="M79.6,91.7c0,0,0,3,6,3c6,0,8.3-6,8.3-6"/>
<ellipse transform="matrix(0.2019 -0.9794 0.9794 0.2019 6.8369 153.4458)" class="st1" cx="97.6" cy="72.5" rx="4.1" ry="1.5"/>
<ellipse transform="matrix(0.992 -0.1261 0.1261 0.992 -8.4285 10.4159)" class="st1" cx="78.1" cy="71.8" rx="1.5" ry="4.1"/>
<path class="st6" d="M114.2,140l-10.8,3.5l-3-16l-7.5,15c0,0-7.3-1.8-5.8-13.8"/>
<path class="st7" d="M101.8,181.8c0,0-8-7,9-18c0,0-3-10,6-25c0,0-8,5-12,18c0,0-8,2-22-2c0,0-1-17,4-29c0,0-17,10-24,40
	c0,0,1,11-4,12s33,11,33,11L101.8,181.8z"/>
<ellipse transform="matrix(0.2019 -0.9794 0.9794 0.2019 -92.1725 197.1336)" class="st8" cx="74.9" cy="155.1" rx="4.2" ry="3.5"/>
<path class="st2" d="M93.8,185.8c0,0-3-8,15-9c0,0,18-10,31,9s-7,23-7,23s-2,6-14,0S93.8,185.8,93.8,185.8z"/>
<path class="st2" d="M49.8,169.8c0,0,2,12-2,18s-15.6,4.4-15.6,4.4s-11.4-0.4-12.4-11.4c0,0-11-12,4-22s24-3,24-3L49.8,169.8z"/>
<path class="st3" d="M63.8,113.8c0,0-27,30-34,57s9,22,9,22s10-6,26-67c0,0,0,8,2,11c0,0-3,11,1,13s12-17,12-17s-3-17-4-20s-4-4-6-4
	S63.8,113.8,63.8,113.8z"/>
<path class="st3" d="M43.8,180.8h8c0,0,13,8,47,25s28-3,28-3s-12-17-45-21l-23-4c0,0-3-6-11-6S43.8,180.8,43.8,180.8z"/>
<path class="st9" d="M69.6,163c-1.4-0.1-2.6,4.6-2.6,4.6s9,8.6,19.4,9.6c4.4,0.4,9.3-0.4,13.6-1.6c0.6-2.6,2.6-5.9,7.8-9.8
	C89.7,166.2,69.6,163,69.6,163z"/>
<path class="st8" d="M110.8,154.1C110.8,154.1,110.7,154,110.8,154.1c-2-0.4-3.9,1.1-4.3,3.4c-0.5,2.3,0.7,4.4,2.6,4.8
	c0.5,0.1,1,0.1,1.4-0.1C110.3,160.5,110.1,157.8,110.8,154.1z"/>
<line class="st10" x1="70.8" y1="136.8" x2="66.8" y2="149.8"/>
<line class="st10" x1="74.8" y1="135.8" x2="70.8" y2="148.8"/>
</svg>
