<?xml version="1.0" encoding="utf-8"?>
<!-- Generator: Adobe Illustrator 24.1.2, SVG Export Plug-In . SVG Version: 6.00 Build 0)  -->
<svg version="1.1" id="Layer_1" xmlns="http://www.w3.org/2000/svg" xmlns:xlink="http://www.w3.org/1999/xlink" x="0px" y="0px"
	 viewBox="0 0 250 332" style="enable-background:new 0 0 250 332;" xml:space="preserve">
<style type="text/css">
	.st0{fill:url(#SVGID_1_);}
	.st1{fill:url(#SVGID_2_);}
	.st2{fill:#526625;}
	.st3{fill:#E6E6E6;}
	.st4{fill:#6D4020;}
	.st5{clip-path:url(#SVGID_4_);fill:#422914;}
	.st6{fill:#99C63E;}
	.st7{clip-path:url(#SVGID_6_);}
	.st8{fill:#B5E452;}
	.st9{fill:#779C32;}
	.st10{fill:url(#SVGID_7_);}
	.st11{fill:url(#SVGID_8_);}
	.st12{fill:url(#SVGID_9_);}
	.st13{fill:url(#SVGID_10_);}
	.st14{fill:#FFFFFF;}
	.st15{fill:url(#SVGID_11_);stroke:#422914;stroke-width:2;stroke-miterlimit:10;}
	.st16{fill:url(#SVGID_12_);stroke:#422914;stroke-width:2;stroke-miterlimit:10;}
	.st17{fill:none;stroke:#422914;stroke-width:2;stroke-miterlimit:10;}
	.st18{fill:#CCCCCC;}
	.st19{fill:#AEAFAE;}
	.st20{fill:#E2DB54;}
</style>
<linearGradient id="SVGID_1_" gradientUnits="userSpaceOnUse" x1="178.6873" y1="140.2817" x2="178.8756" y2="116.5035" gradientTransform="matrix(0.9942 -0.1075 0.1075 0.9942 -38.2369 53.6831)">
	<stop  offset="0" style="stop-color:#E6E6E6"/>
	<stop  offset="0.525" style="stop-color:#D6D6D6"/>
	<stop  offset="1" style="stop-color:#CCCCCC"/>
</linearGradient>
<path class="st0" d="M160.75,175.86l-10.63,0.83c-4.5,0.35-8.54-2-9.02-5.26l-2.54-17.03c-0.49-3.26,2.77-6.19,7.26-6.54l10.63-0.83
	c4.5-0.35,8.54,2,9.02,5.26l2.54,17.03C168.5,172.58,165.25,175.51,160.75,175.86z"/>
<linearGradient id="SVGID_2_" gradientUnits="userSpaceOnUse" x1="239.0511" y1="110.455" x2="239.2439" y2="86.1129" gradientTransform="matrix(0.9767 -0.2145 0.2145 0.9767 -70.1492 116.4035)">
	<stop  offset="0" style="stop-color:#E6E6E6"/>
	<stop  offset="0.525" style="stop-color:#D6D6D6"/>
	<stop  offset="1" style="stop-color:#CCCCCC"/>
</linearGradient>
<path class="st1" d="M193.97,174.2l-10.44,1.66c-4.42,0.7-8.79-1.32-9.76-4.52l-5.07-16.73c-0.97-3.2,1.83-6.37,6.24-7.07
	l10.44-1.66c4.42-0.7,8.79,1.32,9.76,4.52l5.07,16.73C201.19,170.33,198.39,173.49,193.97,174.2z"/>
<path class="st2" d="M89.41,226.36c0,0-5-41,37-60l-66,5l-12-3l-13,56l48,14L89.41,226.36z"/>
<ellipse class="st3" cx="130.41" cy="317.36" rx="70" ry="5"/>
<g>
	<path class="st4" d="M108.91,244.86c0,0-1,49,14,72c0,0,8,4,21,0c0,0-27-11-31-72H108.91z"/>
	<g>
		<defs>
			<path id="SVGID_3_" d="M108.91,244.86c0,0-1,49,14,72c0,0,8,4,21,0c0,0-27-11-31-72H108.91z"/>
		</defs>
		<clipPath id="SVGID_4_">
			<use xlink:href="#SVGID_3_"  style="overflow:visible;"/>
		</clipPath>
		<path class="st5" d="M111.41,237.36c0,0-1,53,15,73c0,0,2.08,5.84,16.04,6.92l-6.04,7.08l-25-3l-13-40l5-47L111.41,237.36z"/>
	</g>
</g>
<path class="st6" d="M49.91,219.86c56.5-80.5,172-58,172-58c-25-96-107-138-107-138c-7.06,3.21-19.42,12.3-33.29,25.04
	c5.22,5.36,6.82,13,3.38,18.96c-4.28,7.41-14.73,9.39-23.34,4.42c-0.7-0.4-1.35-0.85-1.98-1.31c-23.2,25.53-45.34,57.56-50.77,86.89
	c-20,108,103,112,103,112c76,2,91-38,91-38C99.41,214.36,49.91,219.86,49.91,219.86z"/>
<g>
	<defs>
		<path id="SVGID_5_" d="M111.91,269.86c0,0-123-4-103-112c10.54-56.9,84-124,106-134c0,0,82,42,107,138c0,0-119.5-20.5-171.5,58.5
			c0,0,54-6,152.5,11.5C202.91,231.86,187.91,271.86,111.91,269.86z"/>
	</defs>
	<clipPath id="SVGID_6_">
		<use xlink:href="#SVGID_5_"  style="overflow:visible;"/>
	</clipPath>
	<g class="st7">
		<path class="st8" d="M121.91,34.86c0,0,73.59,40.17,95.3,129.59l-2.3,30.41l-10.76-23.7C204.15,171.16,185.91,86.86,121.91,34.86z
			"/>
		<path class="st9" d="M113.91,31.86c0,0-47,146-2,233C111.91,264.86,44.91,212.86,113.91,31.86z"/>
		<path class="st9" d="M104.91,98.86c0,0,35,0,66-23C170.91,75.86,149.91,105.86,104.91,98.86z"/>
		<path class="st9" d="M100.91,133.86c0,0,66-5,88-36C188.91,97.86,168.91,139.86,100.91,133.86z"/>
		<path class="st9" d="M86.91,101.86c0,0-17-4-33-18C53.91,83.86,64.91,104.86,86.91,101.86z"/>
		<path class="st9" d="M79.91,138.86c0,0-15-3-46-26C33.91,112.86,47.91,135.86,79.91,138.86z"/>
		<path class="st9" d="M77.41,171.36c0,0-18.75-3.75-57.5-32.5C19.91,138.86,37.41,167.61,77.41,171.36z"/>
		<path class="st9" d="M82.41,219.36c0,0-22.66-5.6-69.5-48.5C12.91,170.86,34.06,213.77,82.41,219.36z"/>
	</g>
</g>
<g>
	<linearGradient id="SVGID_7_" gradientUnits="userSpaceOnUse" x1="90.2048" y1="105.5689" x2="129.1694" y2="94.2763">
		<stop  offset="0" style="stop-color:#32333D"/>
		<stop  offset="0.1993" style="stop-color:#313540"/>
		<stop  offset="1" style="stop-color:#303C4A"/>
	</linearGradient>
	<path class="st10" d="M92.45,102.86c2.89-0.73,5.71-1.55,8.49-2.38c2.78-0.83,5.52-1.7,8.27-2.6c2.77-0.91,5.37-1.8,8.04-2.8
		c2.67-0.97,5.34-2.05,8.16-3.17l0.05-0.02c0.27-0.11,0.57,0.02,0.68,0.29c0.06,0.15,0.04,0.31-0.03,0.44
		c-0.79,1.47-1.84,2.66-2.98,3.77c-1.15,1.1-2.4,2.07-3.74,2.92c-2.65,1.7-5.65,2.93-8.59,3.74c-2.96,0.85-6.01,1.45-9.11,1.64
		c-1.55,0.12-3.11,0.12-4.66-0.01c-1.56-0.13-3.1-0.33-4.65-0.84c-0.27-0.09-0.42-0.38-0.33-0.65c0.06-0.17,0.2-0.29,0.36-0.34
		L92.45,102.86z"/>
</g>
<ellipse transform="matrix(0.9767 -0.2145 0.2145 0.9767 -24.4903 26.6207)" class="st9" cx="110.44" cy="126.18" rx="9.74" ry="14.19"/>
<ellipse transform="matrix(0.9767 -0.2145 0.2145 0.9767 -22.7247 33.9156)" class="st9" cx="144.95" cy="121.69" rx="9.74" ry="14.19"/>
<g>
	<linearGradient id="SVGID_8_" gradientUnits="userSpaceOnUse" x1="168.3837" y1="82.9223" x2="132.7853" y2="81.9146">
		<stop  offset="0" style="stop-color:#32333D"/>
		<stop  offset="0.1993" style="stop-color:#313540"/>
		<stop  offset="1" style="stop-color:#303C4A"/>
	</linearGradient>
	<path class="st11" d="M165.11,87.34c-2.31-1.79-4.91-2.98-7.51-3.82c-2.61-0.86-5.32-1.31-8.08-1.58c-0.69-0.06-1.4-0.13-1.98-0.15
		c-0.61,0.01-1.21,0-1.8,0.08c-1.18,0.13-2.32,0.43-3.45,0.91c-2.25,0.97-4.44,2.75-6.46,4.98l-0.04,0.04
		c-0.19,0.21-0.52,0.23-0.73,0.04c-0.12-0.11-0.18-0.27-0.17-0.42c0.13-1.69,0.69-3.26,1.53-4.74c0.85-1.47,2.01-2.83,3.48-3.89
		c1.46-1.06,3.19-1.83,4.99-2.17c1.78-0.38,3.7-0.29,5.23-0.07c3.22,0.4,6.47,1.31,9.32,3.03c1.44,0.82,2.75,1.88,3.88,3.08
		c1.12,1.22,2.1,2.54,2.65,4.17c0.09,0.27-0.05,0.55-0.32,0.64c-0.17,0.06-0.34,0.02-0.47-0.08L165.11,87.34z"/>
</g>
<linearGradient id="SVGID_9_" gradientUnits="userSpaceOnUse" x1="104.1388" y1="125.2445" x2="119.8825" y2="121.2818">
	<stop  offset="0" style="stop-color:#32333D"/>
	<stop  offset="0.1993" style="stop-color:#313540"/>
	<stop  offset="1" style="stop-color:#303C4A"/>
</linearGradient>
<path class="st12" d="M120.42,121.43c1.68,7.66-0.87,14.72-5.7,15.78c-4.83,1.06-10.11-4.29-11.79-11.94
	c-1.68-7.66,0.87-14.72,5.7-15.78C113.46,108.43,118.73,113.77,120.42,121.43z"/>
<linearGradient id="SVGID_10_" gradientUnits="userSpaceOnUse" x1="137.6577" y1="121.9879" x2="155.4476" y2="116.8321">
	<stop  offset="0" style="stop-color:#32333D"/>
	<stop  offset="0.1993" style="stop-color:#313540"/>
	<stop  offset="1" style="stop-color:#303C4A"/>
</linearGradient>
<path class="st13" d="M154.94,117.59c1.68,7.66-0.87,14.72-5.7,15.78c-4.83,1.06-10.11-4.29-11.79-11.94
	c-1.68-7.66,0.87-14.72,5.7-15.78C147.99,104.59,153.26,109.94,154.94,117.59z"/>
<ellipse transform="matrix(0.9767 -0.2145 0.2145 0.9767 -23.1304 26.1266)" class="st14" cx="108.85" cy="119.66" rx="4.51" ry="7.16"/>
<ellipse transform="matrix(0.9767 -0.2145 0.2145 0.9767 -21.5042 33.4424)" class="st14" cx="143.37" cy="115.83" rx="4.51" ry="7.16"/>
<path class="st9" d="M202.41,231.36L202.41,231.36c0,0-66-5-153-12C49.41,219.36,92.41,213.36,202.41,231.36z"/>
<linearGradient id="SVGID_11_" gradientUnits="userSpaceOnUse" x1="112.984" y1="158.0647" x2="113.2829" y2="120.3174">
	<stop  offset="0" style="stop-color:#FFFFFF;stop-opacity:0.5"/>
	<stop  offset="1" style="stop-color:#FFFFFF;stop-opacity:0.3"/>
</linearGradient>
<path class="st15" d="M138.05,135.17c1.64,10.17-8.18,20.22-21.94,22.44c-13.76,2.22-26.25-4.22-27.89-14.39
	c-1.64-10.17,8.18-20.22,21.94-22.44S136.41,124.99,138.05,135.17z"/>
<linearGradient id="SVGID_12_" gradientUnits="userSpaceOnUse" x1="171.9475" y1="147.0915" x2="172.2464" y2="109.3442">
	<stop  offset="0" style="stop-color:#FFFFFF;stop-opacity:0.5"/>
	<stop  offset="1" style="stop-color:#FFFFFF;stop-opacity:0.3"/>
</linearGradient>
<path class="st16" d="M197.01,124.19c1.64,10.17-8.18,20.22-21.94,22.44c-13.76,2.22-26.25-4.22-27.89-14.39s8.18-20.22,21.94-22.44
	S195.37,114.02,197.01,124.19z"/>
<path class="st14" d="M123.31,147.34c-11.15,1.8-21.27-3.42-22.6-11.66c-0.47-2.94,0.24-5.86,1.85-8.49
	c-6.72,3.46-10.84,9.5-9.85,15.6c1.33,8.24,11.45,13.46,22.6,11.66c7.17-1.16,13.02-4.94,15.93-9.69
	C128.88,145.98,126.21,146.88,123.31,147.34z"/>
<path class="st14" d="M181.18,136.37c-11.15,1.8-21.27-3.42-22.6-11.66c-0.47-2.94,0.24-5.86,1.85-8.49
	c-6.72,3.46-10.84,9.5-9.85,15.6c1.33,8.24,11.45,13.46,22.6,11.66c7.17-1.16,13.02-4.94,15.93-9.69
	C186.75,135,184.07,135.9,181.18,136.37z"/>
<path class="st17" d="M137.55,133.11c0,0,5.47-2.52,9.86-1.74"/>
<g>
	<path class="st18" d="M209.67,80.12l-16.9-6.19c-1.55-0.57-2.35-2.3-1.78-3.85l0,0c0.57-1.55,2.3-2.35,3.85-1.78l16.9,6.19
		c1.55,0.57,2.35,2.3,1.78,3.85l0,0C212.95,79.89,211.22,80.69,209.67,80.12z"/>
	<path class="st19" d="M211.74,74.49l-16.9-6.19c-1.03-0.38-2.14-0.14-2.94,0.52c0.18,1.02,0.87,1.92,1.91,2.3l16.9,6.19
		c1.03,0.38,2.14,0.14,2.94-0.52C213.46,75.77,212.77,74.87,211.74,74.49z"/>
	<path class="st18" d="M211.39,75.43l-16.9-6.19c-1.55-0.57-2.35-2.3-1.78-3.85l0,0c0.57-1.55,2.3-2.35,3.85-1.78l16.9,6.19
		c1.55,0.57,2.35,2.3,1.78,3.85l0,0C214.67,75.19,212.94,75.99,211.39,75.43z"/>
	<path class="st19" d="M213.46,69.79l-16.9-6.19c-1.03-0.38-2.14-0.14-2.94,0.52c0.18,1.02,0.87,1.92,1.91,2.3l16.9,6.19
		c1.03,0.38,2.14,0.14,2.94-0.52C215.18,71.07,214.49,70.17,213.46,69.79z"/>
	<path class="st18" d="M213.11,70.73l-16.9-6.19c-1.55-0.57-2.35-2.3-1.78-3.85l0,0c0.57-1.55,2.3-2.35,3.85-1.78l16.9,6.19
		c1.55,0.57,2.35,2.3,1.78,3.85l0,0C216.39,70.5,214.66,71.3,213.11,70.73z"/>
	<path class="st20" d="M210.92,65.67l-9.76-3.58c-3.51-1.29-5.33-5.22-4.05-8.73l6.33-17.27c1.29-3.51,5.22-5.33,8.73-4.05
		l9.76,3.58c3.51,1.29,5.33,5.22,4.05,8.73l-6.33,17.27C218.36,65.13,214.43,66.95,210.92,65.67z"/>
	<circle class="st20" cx="218.04" cy="32.6" r="23.5"/>
	<ellipse transform="matrix(0.734 -0.6792 0.6792 0.734 39.7353 148.1701)" class="st14" cx="209" cy="23.36" rx="10.5" ry="6.41"/>
</g>
</svg>
