<?xml version="1.0" encoding="utf-8"?>
<!-- Generator: Adobe Illustrator 24.1.2, SVG Export Plug-In . SVG Version: 6.00 Build 0)  -->
<svg version="1.1" id="Layer_1" xmlns="http://www.w3.org/2000/svg" xmlns:xlink="http://www.w3.org/1999/xlink" x="0px" y="0px"
	 viewBox="0 0 720 49" style="enable-background:new 0 0 720 49;" xml:space="preserve">
<style type="text/css">
	.st0{fill:#009245;}
	.st1{fill:none;stroke:#009245;stroke-width:4;stroke-linecap:round;stroke-miterlimit:10;}
</style>
<g>
	<g>
		<path class="st0" d="M63,31.1L55.7,8.9h3.1l3.5,11c1,3,1.8,5.7,2.4,8.3h0.1c0.6-2.6,1.6-5.4,2.5-8.3l3.8-11h3.1l-8,22.2
			C66.2,31.1,63,31.1,63,31.1z"/>
		<path class="st0" d="M88,20.7h-8.6v8H89v2.4H76.5V8.9h12v2.4h-9.1v7H88V20.7z"/>
		<path class="st0" d="M92.7,31.1V8.9h3.1l7.1,11.3c1.7,2.6,2.9,5,4,7.2h0.1c-0.3-3-0.3-5.7-0.3-9.1V8.9h2.7v22.2h-2.9l-7.1-11.3
			c-1.6-2.5-3-5-4.2-7.4h-0.1c0.2,2.8,0.2,5.5,0.2,9.2v9.5C95.3,31.1,92.7,31.1,92.7,31.1z"/>
		<path class="st0" d="M118.7,11.3h-6.8V8.9h16.5v2.4h-6.8v19.8h-2.9C118.7,31.1,118.7,11.3,118.7,11.3z"/>
		<path class="st0" d="M132,24.1l-2.3,7h-3l7.6-22.2h3.5l7.6,22.2h-3.1l-2.4-7H132z M139.3,21.9l-2.2-6.4c-0.5-1.5-0.8-2.8-1.2-4.1
			h-0.1c-0.3,1.3-0.7,2.7-1.1,4l-2.2,6.4h6.8V21.9z"/>
		<path class="st0" d="M153.8,8.9h2.9v14.9c0,5.9-2.9,7.7-6.7,7.7c-1.1,0-2.3-0.2-3.1-0.5l0.4-2.3c0.6,0.2,1.5,0.4,2.4,0.4
			c2.6,0,4.1-1.2,4.1-5.5L153.8,8.9L153.8,8.9z"/>
		<path class="st0" d="M165,24.1l-2.3,7h-3l7.6-22.2h3.5l7.6,22.2h-3.1l-2.4-7H165z M172.3,21.9l-2.2-6.4c-0.5-1.5-0.8-2.8-1.2-4.1
			h-0.1c-0.3,1.3-0.7,2.7-1.1,4l-2.2,6.4h6.8V21.9z"/>
		<path class="st0" d="M181.2,27.6c1.3,0.8,3.2,1.5,5.1,1.5c2.9,0,4.7-1.6,4.7-3.8c0-2.1-1.2-3.3-4.2-4.4c-3.6-1.3-5.9-3.2-5.9-6.3
			c0-3.5,2.9-6,7.2-6c2.3,0,3.9,0.5,4.9,1.1l-0.8,2.3c-0.7-0.4-2.2-1.1-4.2-1.1c-3,0-4.2,1.8-4.2,3.3c0,2.1,1.4,3.1,4.4,4.3
			c3.8,1.5,5.7,3.3,5.7,6.5c0,3.4-2.5,6.4-7.8,6.4c-2.1,0-4.5-0.6-5.7-1.4L181.2,27.6z"/>
		<path class="st0" d="M204.9,9.2c1.7-0.3,3.8-0.5,6.1-0.5c4.1,0,7.1,1,9,2.8c2,1.8,3.1,4.4,3.1,8s-1.1,6.6-3.2,8.6
			c-2.1,2.1-5.5,3.2-9.8,3.2c-2,0-3.8-0.1-5.2-0.3L204.9,9.2L204.9,9.2z M207.7,28.9c0.7,0.1,1.8,0.2,2.9,0.2c6.1,0,9.5-3.4,9.5-9.4
			c0-5.2-2.9-8.6-9-8.6c-1.5,0-2.6,0.1-3.4,0.3V28.9z"/>
		<path class="st0" d="M238.4,20.7h-8.6v8h9.6v2.4h-12.5V8.9h12v2.4h-9.1v7h8.6V20.7z"/>
		<path class="st0" d="M250.1,8.9h2.9v19.8h9.5v2.4h-12.4V8.9z"/>
		<path class="st0" d="M283.4,19.8c0,7.7-4.7,11.7-10.3,11.7c-5.9,0-10-4.6-10-11.3c0-7.1,4.4-11.7,10.3-11.7
			C279.5,8.5,283.4,13.2,283.4,19.8z M266.1,20.1c0,4.8,2.6,9,7.1,9c4.6,0,7.1-4.2,7.1-9.2c0-4.4-2.3-9-7.1-9
			C268.5,10.9,266.1,15.3,266.1,20.1z"/>
		<path class="st0" d="M286.7,27.6c1.3,0.8,3.2,1.5,5.1,1.5c2.9,0,4.7-1.6,4.7-3.8c0-2.1-1.2-3.3-4.2-4.4c-3.6-1.3-5.9-3.2-5.9-6.3
			c0-3.5,2.9-6,7.2-6c2.3,0,3.9,0.5,4.9,1.1l-0.8,2.3c-0.7-0.4-2.2-1.1-4.2-1.1c-3,0-4.2,1.8-4.2,3.3c0,2.1,1.4,3.1,4.4,4.3
			c3.8,1.5,5.7,3.3,5.7,6.5c0,3.4-2.5,6.4-7.8,6.4c-2.1,0-4.5-0.6-5.7-1.4L286.7,27.6z"/>
		<path class="st0" d="M325.9,30.4c-1.1,0.5-3.2,1.1-5.9,1.1c-6.3,0-11-4-11-11.3c0-7,4.7-11.7,11.6-11.7c2.8,0,4.5,0.6,5.3,1
			l-0.7,2.3c-1.1-0.5-2.6-0.9-4.5-0.9c-5.2,0-8.7,3.3-8.7,9.2c0,5.4,3.1,8.9,8.5,8.9c1.8,0,3.5-0.4,4.7-0.9L325.9,30.4z"/>
		<path class="st0" d="M332.4,8.9v13.2c0,5,2.2,7.1,5.2,7.1c3.3,0,5.4-2.2,5.4-7.1V8.9h2.9v13c0,6.8-3.6,9.6-8.4,9.6
			c-4.6,0-8-2.6-8-9.5V8.9H332.4z"/>
		<path class="st0" d="M350.9,8.9h2.9v19.8h9.5v2.4h-12.4V8.9z"/>
		<path class="st0" d="M367.8,11.3H361V8.9h16.5v2.4h-6.8v19.8h-2.9L367.8,11.3L367.8,11.3z"/>
		<path class="st0" d="M382.8,8.9v22.2h-2.9V8.9H382.8z"/>
		<path class="st0" d="M392.7,31.1l-7.3-22.2h3.1l3.5,11c1,3,1.8,5.7,2.4,8.3h0.1c0.6-2.6,1.6-5.4,2.5-8.3l3.8-11h3.1l-8,22.2
			C395.9,31.1,392.7,31.1,392.7,31.1z"/>
		<path class="st0" d="M425.3,19.8c0,7.7-4.7,11.7-10.3,11.7c-5.9,0-10-4.6-10-11.3c0-7.1,4.4-11.7,10.3-11.7
			C421.3,8.5,425.3,13.2,425.3,19.8z M408,20.1c0,4.8,2.6,9,7.1,9c4.6,0,7.1-4.2,7.1-9.2c0-4.4-2.3-9-7.1-9
			C410.4,10.9,408,15.3,408,20.1z"/>
		<path class="st0" d="M428.6,27.6c1.3,0.8,3.2,1.5,5.1,1.5c2.9,0,4.7-1.6,4.7-3.8c0-2.1-1.2-3.3-4.2-4.4c-3.6-1.3-5.9-3.2-5.9-6.3
			c0-3.5,2.9-6,7.2-6c2.3,0,3.9,0.5,4.9,1.1l-0.8,2.3c-0.7-0.4-2.2-1.1-4.2-1.1c-3,0-4.2,1.8-4.2,3.3c0,2.1,1.4,3.1,4.4,4.3
			c3.8,1.5,5.7,3.3,5.7,6.5c0,3.4-2.5,6.4-7.8,6.4c-2.1,0-4.5-0.6-5.7-1.4L428.6,27.6z"/>
		<path class="st0" d="M452.2,9.2c1.7-0.3,3.8-0.5,6.1-0.5c4.1,0,7.1,1,9,2.8c2,1.8,3.1,4.4,3.1,8s-1.1,6.6-3.2,8.6
			c-2.1,2.1-5.5,3.2-9.8,3.2c-2,0-3.8-0.1-5.2-0.3V9.2z M455.1,28.9c0.7,0.1,1.8,0.2,2.9,0.2c6.1,0,9.5-3.4,9.5-9.4
			c0-5.2-2.9-8.6-9-8.6c-1.5,0-2.6,0.1-3.4,0.3V28.9z"/>
		<path class="st0" d="M485.7,20.7h-8.6v8h9.6v2.4h-12.5V8.9h12v2.4h-9.1v7h8.6V20.7z"/>
		<path class="st0" d="M513,30.4c-1.1,0.5-3.2,1.1-5.9,1.1c-6.3,0-11-4-11-11.3c0-7,4.7-11.7,11.6-11.7c2.8,0,4.5,0.6,5.3,1
			l-0.7,2.3c-1.1-0.5-2.6-0.9-4.5-0.9c-5.2,0-8.7,3.3-8.7,9.2c0,5.4,3.1,8.9,8.5,8.9c1.8,0,3.5-0.4,4.7-0.9L513,30.4z"/>
		<path class="st0" d="M534.9,19.8c0,7.7-4.7,11.7-10.3,11.7c-5.9,0-10-4.6-10-11.3c0-7.1,4.4-11.7,10.3-11.7
			C531,8.5,534.9,13.2,534.9,19.8z M517.6,20.1c0,4.8,2.6,9,7.1,9c4.6,0,7.1-4.2,7.1-9.2c0-4.4-2.3-9-7.1-9
			C520,10.9,517.6,15.3,517.6,20.1z"/>
		<path class="st0" d="M538.6,9.2c1.3-0.3,3.2-0.5,5.2-0.5c2.9,0,4.7,0.5,6.1,1.6c1.2,0.9,1.8,2.2,1.8,3.9c0,2.1-1.4,4-3.8,4.9v0.1
			c2.1,0.5,4.6,2.3,4.6,5.6c0,1.9-0.8,3.4-1.9,4.5c-1.6,1.4-4.1,2.1-7.7,2.1c-2,0-3.5-0.1-4.5-0.3V9.2H538.6z M541.5,18.3h2.6
			c3,0,4.8-1.6,4.8-3.7c0-2.6-2-3.6-4.9-3.6c-1.3,0-2.1,0.1-2.5,0.2L541.5,18.3L541.5,18.3z M541.5,29c0.6,0.1,1.4,0.1,2.4,0.1
			c3,0,5.7-1.1,5.7-4.3c0-3-2.6-4.3-5.7-4.3h-2.4V29z"/>
		<path class="st0" d="M568,20.7h-8.6v8h9.6v2.4h-12.5V8.9h12v2.4h-9.1v7h8.6V20.7z"/>
		<path class="st0" d="M572.8,9.2c1.5-0.3,3.5-0.5,5.5-0.5c3.1,0,5,0.6,6.4,1.8c1.1,1,1.7,2.5,1.7,4.2c0,2.9-1.8,4.9-4.2,5.7v0.1
			c1.7,0.6,2.7,2.2,3.3,4.5c0.7,3.1,1.3,5.2,1.7,6.1h-3c-0.4-0.6-0.9-2.5-1.5-5.3c-0.7-3.1-1.8-4.2-4.5-4.3h-2.7v9.6h-2.9V9.2H572.8
			z M575.6,19.3h2.9c3.1,0,5-1.7,5-4.2c0-2.9-2.1-4.1-5.1-4.2c-1.4,0-2.4,0.1-2.8,0.3L575.6,19.3L575.6,19.3z"/>
		<path class="st0" d="M595,11.3h-6.8V8.9h16.5v2.4h-6.8v19.8H595V11.3z"/>
		<path class="st0" d="M610.1,8.9v13.2c0,5,2.2,7.1,5.2,7.1c3.3,0,5.4-2.2,5.4-7.1V8.9h2.9v13c0,6.8-3.6,9.6-8.4,9.6
			c-4.6,0-8-2.6-8-9.5V8.9H610.1z"/>
		<path class="st0" d="M628.6,9.2c1.5-0.3,3.5-0.5,5.5-0.5c3.1,0,5,0.6,6.4,1.8c1.1,1,1.7,2.5,1.7,4.2c0,2.9-1.8,4.9-4.2,5.7v0.1
			c1.7,0.6,2.7,2.2,3.3,4.5c0.7,3.1,1.3,5.2,1.7,6.1h-3c-0.4-0.6-0.9-2.5-1.5-5.3c-0.7-3.1-1.8-4.2-4.5-4.3h-2.7v9.6h-2.9V9.2H628.6
			z M631.4,19.3h2.9c3.1,0,5-1.7,5-4.2c0-2.9-2.1-4.1-5.1-4.2c-1.4,0-2.4,0.1-2.8,0.3L631.4,19.3L631.4,19.3z"/>
		<path class="st0" d="M650.1,24.1l-2.3,7h-3l7.6-22.2h3.5l7.6,22.2h-3.1l-2.4-7H650.1z M657.4,21.9l-2.2-6.4
			c-0.5-1.5-0.8-2.8-1.2-4.1l0,0c-0.3,1.3-0.7,2.7-1.1,4l-2.2,6.4h6.7V21.9z"/>
	</g>
	<line class="st1" x1="7.7" y1="41.9" x2="711.7" y2="41.9"/>
</g>
</svg>
