<?xml version="1.0" encoding="utf-8"?>
<!-- Generator: Adobe Illustrator 24.1.2, SVG Export Plug-In . SVG Version: 6.00 Build 0)  -->
<svg version="1.1" id="Layer_1" xmlns="http://www.w3.org/2000/svg" xmlns:xlink="http://www.w3.org/1999/xlink" x="0px" y="0px"
	 viewBox="0 0 162 273" style="enable-background:new 0 0 162 273;" xml:space="preserve">
<style type="text/css">
	.st0{fill:#193F1A;}
	.st1{fill:#6A8D55;}
	.st2{fill:#839A56;}
	.st3{fill:#764B29;}
	.st4{clip-path:url(#SVGID_2_);}
	.st5{fill:none;stroke:#976645;stroke-width:6;stroke-linecap:round;stroke-miterlimit:10;}
	.st6{fill:none;stroke:#FFFFFF;stroke-width:6;stroke-linecap:round;stroke-miterlimit:10;}
	.st7{fill:#009245;}
</style>
<g>
	<g>
		<path class="st0" d="M38.7,160c0,0-1-8.6-12-7.9c0,0,0.7,8.3,10.3,9.6v17.2h3.4v-16.5c0,0,5.5,0.7,8.3-4.8
			C48.7,157.6,43.5,155.2,38.7,160z"/>
		<path class="st0" d="M72.7,159c0,0-1-8.6-12-7.9c0,0,0.7,8.3,10.3,9.6v17.2h3.4v-16.5c0,0,5.5,0.7,8.3-4.8
			C82.7,156.6,77.5,154.2,72.7,159z"/>
		<path class="st0" d="M100.7,160c0,0-1-8.6-12-7.9c0,0,0.7,8.3,10.3,9.6v17.2h3.4v-16.5c0,0,5.5,0.7,8.3-4.8
			C110.7,157.6,105.5,155.2,100.7,160z"/>
		<path class="st0" d="M129.7,160c0,0-1-8.6-12-7.9c0,0,0.7,8.3,10.3,9.6v17.2h3.4v-16.5c0,0,5.5,0.7,8.3-4.8
			C139.7,157.6,134.5,155.2,129.7,160z"/>
		<path class="st1" d="M142.4,155.9c0,0,1.3-10.9,15.3-10.1c0,0-0.9,10.5-13.1,12.3V180h-4.4v-21c0,0-7,0.9-10.5-6.1
			C129.7,152.8,136.3,149.7,142.4,155.9z"/>
		<path class="st1" d="M84.4,158.9c0,0,1.3-10.9,15.3-10.1c0,0-0.9,10.5-13.1,12.3V183h-4.4v-21c0,0-7,0.9-10.5-6.1
			C71.7,155.8,78.3,152.7,84.4,158.9z"/>
		<path class="st1" d="M17.4,157.9c0,0,1.3-10.9,15.3-10.1c0,0-0.9,10.5-13.1,12.3V182h-4.4v-21c0,0-7,0.9-10.5-6.1
			C4.7,154.8,11.3,151.7,17.4,157.9z"/>
		<path class="st2" d="M54.7,154.9c0,0-1.5-12.5-17.5-11.5c0,0,1,12,15,14v25h5v-24c0,0,8,1,12-7C69.2,151.4,61.7,147.9,54.7,154.9z
			"/>
		<path class="st2" d="M115.2,152.4c0,0-1.5-12.5-17.5-11.5c0,0,1,12,15,14v25h5v-24c0,0,8,1,12-7
			C129.7,148.9,122.2,145.4,115.2,152.4z"/>
	</g>
	<path class="st3" d="M7.4,173.9c-1.1,5.2-1.7,10.5-1.7,16c0,42,34,76,76,76s76-34,76-76c0-5.5-0.6-10.8-1.7-16H7.4z"/>
	<g>
		<g>
			<defs>
				<path id="SVGID_1_" d="M7.4,173.9c-1.1,5.2-1.7,10.5-1.7,16c0,42,34,76,76,76s76-34,76-76c0-5.5-0.6-10.8-1.7-16H7.4z"/>
			</defs>
			<clipPath id="SVGID_2_">
				<use xlink:href="#SVGID_1_"  style="overflow:visible;"/>
			</clipPath>
			<g class="st4">
				<line class="st5" x1="115.7" y1="236.9" x2="70.7" y2="232.9"/>
				<line class="st5" x1="102.7" y1="168.9" x2="102.7" y2="193.9"/>
				<line class="st5" x1="81.7" y1="202.9" x2="102.7" y2="193.9"/>
				<line class="st5" x1="128.7" y1="197.9" x2="102.7" y2="193.9"/>
				<line class="st5" x1="115.7" y1="236.9" x2="128.7" y2="197.9"/>
				<line class="st5" x1="164.7" y1="168.9" x2="128.7" y2="197.9"/>
				<line class="st5" x1="159.7" y1="227.9" x2="128.7" y2="197.9"/>
				<line class="st5" x1="131.7" y1="260.9" x2="115.7" y2="236.9"/>
				<line class="st6" x1="4.2" y1="243.4" x2="28.2" y2="223.4"/>
				<line class="st6" x1="70.7" y1="232.9" x2="27.7" y2="222.9"/>
				<line class="st6" x1="60.7" y1="273.9" x2="70.7" y2="232.9"/>
				<line class="st6" x1="81.7" y1="202.9" x2="70.7" y2="232.9"/>
				<line class="st6" x1="65.7" y1="188.9" x2="81.7" y2="202.9"/>
				<line class="st6" x1="78.7" y1="168.9" x2="65.7" y2="188.9"/>
				<line class="st6" x1="26.7" y1="167.9" x2="38.7" y2="192.9"/>
				<line class="st6" x1="65.7" y1="188.9" x2="38.7" y2="192.9"/>
				<line class="st6" x1="27.7" y1="222.9" x2="38.7" y2="192.9"/>
				<line class="st6" x1="-2.3" y1="204.9" x2="27.7" y2="222.9"/>
			</g>
		</g>
	</g>
	<g>
		<path class="st7" d="M20.3,5.3C21.2,5.1,22.4,5,23.6,5c1.7,0,3.1,0.2,4.1,1.1C28.6,7,28.9,8,28.9,9.3c0,1.7-0.8,3.2-2.4,3.9l0,0
			c1.1,0.4,1.6,1.4,1.9,3.1s0.7,3.6,1,4.2h-3.2c-0.2-0.4-0.5-2-0.8-3.7c-0.3-1.9-0.8-2.5-1.8-2.5h-0.4v6.2h-3L20.3,5.3L20.3,5.3z
			 M23.3,12h0.5c1.3,0,2.1-1.1,2.1-2.4S25.4,7.3,24,7.3c-0.3,0-0.6,0-0.7,0.1V12z"/>
		<path class="st7" d="M33.2,16c0,1.7,1.1,2.4,2.4,2.4c0.9,0,1.6-0.2,2.1-0.4l0.4,2.2c-0.8,0.3-2,0.5-3.1,0.5c-3.1,0-4.7-2-4.7-5.5
			c0-3.8,2-6,4.5-6c2.4,0,3.8,1.9,3.8,5.3c0,0.8,0,1.2-0.1,1.6h-5.3V16z M35.9,13.9c0-1.4-0.4-2.6-1.3-2.6c-1,0-1.4,1.4-1.4,2.6
			H35.9z"/>
		<path class="st7" d="M48.5,4.6v12.6c0,1.1,0,2.3,0.1,3.3H46l-0.2-1.3l0,0c-0.4,0.8-1.3,1.4-2.3,1.4c-2.4,0-3.5-2.6-3.5-5.8
			c0-3.9,1.7-5.8,3.6-5.8c1,0,1.6,0.5,1.9,1.1l0,0V4.6H48.5z M45.5,13.6c0-0.2,0-0.4,0-0.7c-0.1-0.7-0.5-1.3-1.1-1.3
			c-1.1,0-1.4,1.5-1.4,3.4c0,2.1,0.6,3.3,1.4,3.3c0.4,0,0.8-0.2,1-1c0.1-0.2,0.1-0.4,0.1-0.7V13.6z"/>
		<path class="st7" d="M58.9,17.1c0,1.2,0,2.4,0.1,3.4h-2.6l-0.2-1.2l0,0c-0.5,0.8-1.4,1.4-2.6,1.4c-2.1,0-3-1.6-3-4.6V9.3h3v6.5
			c0,1.5,0.3,2.4,1.1,2.4c0.5,0,0.8-0.4,1-0.8c0.1-0.2,0.2-0.6,0.2-1V9.3h3V17.1z"/>
		<path class="st7" d="M67.3,20.3c-0.3,0.1-1.1,0.3-1.9,0.3c-2.9,0-4.7-2-4.7-5.7c0-3.5,2-5.9,5.2-5.9c0.7,0,1.4,0.2,1.7,0.3
			l-0.4,2.4c-0.3-0.1-0.6-0.2-1.1-0.2c-1.4,0-2.3,1.4-2.3,3.3c0,2,0.9,3.3,2.3,3.3c0.4,0,0.8-0.1,1.1-0.2L67.3,20.3z"/>
		<path class="st7" d="M74.7,20.3c-0.3,0.1-1.1,0.3-1.9,0.3c-2.9,0-4.7-2-4.7-5.7c0-3.5,2-5.9,5.2-5.9C74,9,74.7,9.2,75,9.3
			l-0.4,2.4c-0.3-0.1-0.6-0.2-1.1-0.2c-1.4,0-2.3,1.4-2.3,3.3c0,2,0.9,3.3,2.3,3.3c0.4,0,0.8-0.1,1.1-0.2L74.7,20.3z"/>
		<path class="st7" d="M78.9,6.3c0,1-0.7,1.6-1.6,1.6c-0.8,0-1.5-0.7-1.5-1.6c0-1,0.7-1.6,1.5-1.6C78.3,4.7,78.9,5.3,78.9,6.3z
			 M75.9,20.5V9.3h3v11.2H75.9z"/>
		<path class="st7" d="M89.3,14.9c0,4.7-2.6,5.8-4.3,5.8c-2.7,0-4.3-2.1-4.3-5.8c0-4,2.1-5.8,4.3-5.8C87.6,9.1,89.3,11.3,89.3,14.9z
			 M83.6,14.9c0,1.9,0.3,3.5,1.4,3.5c1,0,1.2-1.9,1.2-3.5c0-1.5-0.3-3.5-1.3-3.5C83.9,11.4,83.6,13.3,83.6,14.9z M88.2,4.7l-2.3,3.2
			H84l1.6-3.2H88.2z"/>
		<path class="st7" d="M91,12.7c0-1.2-0.1-2.3-0.1-3.4h2.6l0.1,1.3l0,0c0.6-0.9,1.6-1.5,2.7-1.5c2.1,0,3,1.7,3,4.2v7.2h-3v-7
			c0-1-0.2-1.9-1.1-1.9c-0.5,0-0.9,0.3-1.1,1c-0.1,0.2-0.2,0.6-0.2,1v6.9h-3L91,12.7L91,12.7z"/>
		<path class="st7" d="M113.3,4.6v12.6c0,1.1,0,2.3,0.1,3.3h-2.6l-0.2-1.3l0,0c-0.4,0.8-1.3,1.4-2.3,1.4c-2.4,0-3.5-2.6-3.5-5.8
			c0-3.9,1.7-5.8,3.6-5.8c1,0,1.6,0.5,1.9,1.1l0,0V4.6H113.3z M110.3,13.6c0-0.2,0-0.4,0-0.7c-0.1-0.7-0.5-1.3-1.1-1.3
			c-1.1,0-1.4,1.5-1.4,3.4c0,2.1,0.6,3.3,1.4,3.3c0.4,0,0.8-0.2,1-1c0.1-0.2,0.1-0.4,0.1-0.7V13.6z"/>
		<path class="st7" d="M117.9,16c0,1.7,1.1,2.4,2.4,2.4c0.9,0,1.6-0.2,2.1-0.4l0.4,2.2c-0.8,0.3-2,0.5-3.1,0.5c-3.1,0-4.7-2-4.7-5.5
			c0-3.8,2-6,4.5-6c2.4,0,3.8,1.9,3.8,5.3c0,0.8,0,1.2-0.1,1.6h-5.3V16z M120.6,13.9c0-1.4-0.4-2.6-1.3-2.6c-1,0-1.4,1.4-1.4,2.6
			H120.6z"/>
		<path class="st7" d="M128.7,4.6h3v15.9h-3V4.6z"/>
		<path class="st7" d="M138.9,20.5l-0.2-1.1l0,0c-0.6,0.9-1.5,1.3-2.5,1.3c-1.7,0-3-1.4-3-3.4c0-2.9,2.6-4.2,5.2-4.2v-0.3
			c0-0.9-0.5-1.5-1.6-1.5c-0.9,0-1.6,0.2-2.3,0.6l-0.6-2c0.6-0.4,1.9-0.9,3.5-0.9c3.4,0,4,2.4,4,4.7V18c0,0.9,0,1.8,0.2,2.6h-2.7
			V20.5z M138.5,15.1c-1,0-2.4,0.3-2.4,1.9c0,1.1,0.6,1.5,1.1,1.5s1-0.3,1.2-1c0-0.2,0.1-0.3,0.1-0.5L138.5,15.1L138.5,15.1z"/>
		<path class="st7" d="M52.9,37.7c0-1.2-0.1-2.3-0.1-3.4h2.6l0.1,1.3l0,0c0.6-0.9,1.5-1.5,2.7-1.5c1.3,0,2.1,0.6,2.5,1.5l0,0
			c0.3-0.4,0.7-0.9,1.1-1.1c0.5-0.3,1-0.4,1.6-0.4c2,0,2.9,1.6,2.9,4.3v7.1h-3v-6.6c0-1.3-0.1-2.3-1.1-2.3c-0.5,0-0.9,0.4-1.1,1
			c0,0.2-0.1,0.5-0.1,0.8v7.1h-3v-7.1c0-0.8-0.1-1.9-1-1.9c-0.5,0-0.9,0.3-1.1,1c-0.1,0.2-0.1,0.5-0.1,0.9v7.1h-3L52.9,37.7
			L52.9,37.7z"/>
		<path class="st7" d="M73.6,45.5l-0.2-1.1l0,0c-0.6,0.9-1.5,1.3-2.5,1.3c-1.7,0-3-1.4-3-3.4c0-2.9,2.6-4.2,5.2-4.2v-0.3
			c0-0.9-0.5-1.5-1.6-1.5c-0.9,0-1.6,0.2-2.3,0.6l-0.6-2c0.6-0.4,1.9-0.9,3.5-0.9c3.4,0,4,2.4,4,4.7V43c0,0.9,0,1.8,0.2,2.6
			L73.6,45.5L73.6,45.5z M73.2,40.1c-1,0-2.4,0.3-2.4,1.9c0,1.1,0.6,1.5,1.1,1.5s1-0.3,1.2-1c0-0.2,0.1-0.3,0.1-0.5
			C73.2,42,73.2,40.1,73.2,40.1z"/>
		<path class="st7" d="M78.2,29.6h3v15.9h-3V29.6z"/>
		<path class="st7" d="M85.9,41c0,1.7,1.1,2.4,2.4,2.4c0.9,0,1.6-0.2,2.1-0.4l0.4,2.2c-0.8,0.3-2,0.5-3.1,0.5c-3.1,0-4.7-2-4.7-5.5
			c0-3.8,2-6,4.5-6c2.4,0,3.8,1.9,3.8,5.3c0,0.8,0,1.2-0.1,1.6L85.9,41L85.9,41z M88.6,38.9c0-1.4-0.4-2.6-1.3-2.6
			c-1,0-1.4,1.4-1.4,2.6H88.6z"/>
		<path class="st7" d="M92.3,43.6l2.8-5c0.4-0.6,0.9-1.4,1.1-1.8v-0.1h-3.5v-2.5h6.8v2L96.8,41c-0.4,0.7-0.8,1.4-1.1,1.8v0.1h3.9
			v2.5h-7.2v-1.8H92.3z"/>
		<path class="st7" d="M106,45.5l-0.2-1.1l0,0c-0.6,0.9-1.5,1.3-2.5,1.3c-1.7,0-3-1.4-3-3.4c0-2.9,2.6-4.2,5.2-4.2v-0.3
			c0-0.9-0.5-1.5-1.6-1.5c-0.9,0-1.6,0.2-2.3,0.6l-0.6-2c0.6-0.4,1.9-0.9,3.5-0.9c3.4,0,4,2.4,4,4.7V43c0,0.9,0,1.8,0.2,2.6
			L106,45.5L106,45.5z M105.6,40.1c-1,0-2.4,0.3-2.4,1.9c0,1.1,0.6,1.5,1.1,1.5s1-0.3,1.2-1c0-0.2,0.1-0.3,0.1-0.5
			C105.6,42,105.6,40.1,105.6,40.1z"/>
	</g>
</g>
</svg>
