<?xml version="1.0" encoding="utf-8"?>
<!-- Generator: Adobe Illustrator 24.1.2, SVG Export Plug-In . SVG Version: 6.00 Build 0)  -->
<svg version="1.1" id="Layer_1" xmlns="http://www.w3.org/2000/svg" xmlns:xlink="http://www.w3.org/1999/xlink" x="0px" y="0px"
	 viewBox="0 0 935 49" style="enable-background:new 0 0 935 49;" xml:space="preserve">
<style type="text/css">
	.st0{fill:url(#SVGID_1_);}
	.st1{fill:#FFFFFF;}
	.st2{fill:#61934C;}
</style>
<linearGradient id="SVGID_1_" gradientUnits="userSpaceOnUse" x1="31.9" y1="25.35" x2="855.9" y2="25.35" gradientTransform="matrix(1 0 0 -1 0 50)">
	<stop  offset="0" style="stop-color:#8DC945"/>
	<stop  offset="1" style="stop-color:#61934C"/>
</linearGradient>
<polygon class="st0" points="855.9,24.6 836.9,0.4 836.9,11.6 31.9,11.6 31.9,37.6 836.9,37.6 836.9,48.9 "/>
<g>
	<path class="st1" d="M249.5,19.3c0.8-0.1,1.9-0.3,3.3-0.3c1.7,0,3,0.4,3.8,1.1c0.7,0.6,1.2,1.6,1.2,2.8c0,1.2-0.4,2.2-1,2.9
		c-0.9,1-2.4,1.5-4.1,1.5c-0.5,0-1,0-1.4-0.1v5.4h-1.7V19.3H249.5z M251.3,25.8c0.4,0.1,0.9,0.1,1.4,0.1c2.1,0,3.4-1,3.4-2.9
		c0-1.8-1.3-2.6-3.2-2.6c-0.8,0-1.3,0.1-1.6,0.1V25.8z"/>
	<path class="st1" d="M262.2,19.3c0.9-0.2,2.1-0.3,3.3-0.3c1.9,0,3.1,0.3,3.9,1.1c0.7,0.6,1.1,1.5,1.1,2.6c0,1.8-1.1,3-2.5,3.4v0.1
		c1,0.4,1.7,1.3,2,2.7c0.4,1.9,0.8,3.2,1,3.7h-1.8c-0.2-0.4-0.5-1.5-0.9-3.2c-0.4-1.9-1.1-2.6-2.7-2.6H264v5.8h-1.7L262.2,19.3
		L262.2,19.3z M263.9,25.4h1.8c1.9,0,3-1,3-2.6c0-1.7-1.3-2.5-3.1-2.5c-0.8,0-1.4,0.1-1.7,0.2L263.9,25.4L263.9,25.4z"/>
	<path class="st1" d="M277.2,28.4l-1.4,4.2H274l4.6-13.5h2.1l4.6,13.5h-1.9l-1.4-4.2C282,28.4,277.2,28.4,277.2,28.4z M281.6,27
		l-1.3-3.9c-0.3-0.9-0.5-1.7-0.7-2.5l0,0c-0.2,0.8-0.4,1.6-0.7,2.4l-1.3,3.9h4V27z M282.6,16.1l-2.5,2.3h-1.4l1.9-2.3H282.6z"/>
	<path class="st1" d="M298.4,32.2c-0.6,0.3-1.9,0.6-3.6,0.6c-3.8,0-6.7-2.4-6.7-6.8c0-4.2,2.9-7.1,7-7.1c1.7,0,2.7,0.4,3.2,0.6
		l-0.4,1.4c-0.7-0.3-1.6-0.6-2.7-0.6c-3.2,0-5.3,2-5.3,5.6c0,3.3,1.9,5.4,5.2,5.4c1.1,0,2.1-0.2,2.8-0.6L298.4,32.2z"/>
	<path class="st1" d="M305.7,20.6h-4.1v-1.5h10v1.5h-4.1v12h-1.8V20.6z"/>
	<path class="st1" d="M316.8,19.1v13.5h-1.7V19.1H316.8z"/>
	<path class="st1" d="M331.3,32.2c-0.6,0.3-1.9,0.6-3.6,0.6c-3.8,0-6.7-2.4-6.7-6.8c0-4.2,2.9-7.1,7-7.1c1.7,0,2.7,0.4,3.2,0.6
		l-0.4,1.4c-0.7-0.3-1.6-0.6-2.7-0.6c-3.2,0-5.3,2-5.3,5.6c0,3.3,1.9,5.4,5.2,5.4c1.1,0,2.1-0.2,2.8-0.6L331.3,32.2z"/>
	<path class="st1" d="M337.7,28.4l-1.4,4.2h-1.8l4.6-13.5h2.1l4.6,13.5h-1.9l-1.4-4.2C342.5,28.4,337.7,28.4,337.7,28.4z M342.1,27
		l-1.3-3.9c-0.3-0.9-0.5-1.7-0.7-2.5l0,0c-0.2,0.8-0.4,1.6-0.7,2.4l-1.3,3.9h4V27z"/>
	<path class="st1" d="M349.5,30.5c0.8,0.5,1.9,0.9,3.1,0.9c1.8,0,2.8-0.9,2.8-2.3c0-1.3-0.7-2-2.5-2.7c-2.2-0.8-3.6-1.9-3.6-3.8
		c0-2.1,1.7-3.7,4.4-3.7c1.4,0,2.4,0.3,3,0.7l-0.5,1.4c-0.4-0.2-1.3-0.6-2.6-0.6c-1.8,0-2.5,1.1-2.5,2c0,1.3,0.8,1.9,2.7,2.6
		c2.3,0.9,3.4,2,3.4,4c0,2.1-1.5,3.9-4.7,3.9c-1.3,0-2.7-0.4-3.4-0.9L349.5,30.5z"/>
	<path class="st1" d="M370,32.6v-5.7l-4.3-7.8h2l1.9,3.7c0.5,1,0.9,1.8,1.3,2.8l0,0c0.4-0.9,0.8-1.8,1.4-2.8l1.9-3.7h2l-4.5,7.7v5.7
		L370,32.6L370,32.6z"/>
	<path class="st1" d="M386,19.3c0.8-0.1,1.9-0.3,3.3-0.3c1.7,0,3,0.4,3.8,1.1c0.7,0.6,1.2,1.6,1.2,2.8c0,1.2-0.4,2.2-1,2.9
		c-0.9,1-2.4,1.5-4.1,1.5c-0.5,0-1,0-1.4-0.1v5.4H386V19.3z M387.8,25.8c0.4,0.1,0.9,0.1,1.4,0.1c2.1,0,3.4-1,3.4-2.9
		c0-1.8-1.3-2.6-3.2-2.6c-0.8,0-1.3,0.1-1.6,0.1L387.8,25.8L387.8,25.8z"/>
	<path class="st1" d="M398.7,19.3c0.9-0.2,2.1-0.3,3.3-0.3c1.9,0,3.1,0.3,3.9,1.1c0.7,0.6,1.1,1.5,1.1,2.6c0,1.8-1.1,3-2.5,3.4v0.1
		c1,0.4,1.7,1.3,2,2.7c0.4,1.9,0.8,3.2,1,3.7h-1.8c-0.2-0.4-0.5-1.5-0.9-3.2c-0.4-1.9-1.1-2.6-2.7-2.6h-1.6v5.8h-1.7L398.7,19.3
		L398.7,19.3z M400.4,25.4h1.8c1.9,0,3-1,3-2.6c0-1.7-1.3-2.5-3.1-2.5c-0.8,0-1.4,0.1-1.7,0.2L400.4,25.4L400.4,25.4z"/>
	<path class="st1" d="M423,25.7c0,4.6-2.8,7.1-6.3,7.1c-3.6,0-6.1-2.8-6.1-6.8c0-4.3,2.7-7.1,6.3-7.1C420.6,18.9,423,21.7,423,25.7z
		 M412.5,25.9c0,2.9,1.6,5.5,4.3,5.5c2.8,0,4.3-2.5,4.3-5.6c0-2.7-1.4-5.5-4.3-5.5C414,20.3,412.5,23,412.5,25.9z"/>
	<path class="st1" d="M436.7,32.2c-0.6,0.3-1.9,0.6-3.6,0.6c-3.8,0-6.7-2.4-6.7-6.8c0-4.2,2.9-7.1,7-7.1c1.7,0,2.7,0.4,3.2,0.6
		l-0.4,1.4c-0.7-0.3-1.6-0.6-2.7-0.6c-3.2,0-5.3,2-5.3,5.6c0,3.3,1.9,5.4,5.2,5.4c1.1,0,2.1-0.2,2.8-0.6L436.7,32.2z"/>
	<path class="st1" d="M447.8,26.3h-5.2v4.9h5.8v1.5h-7.6V19.1h7.3v1.5h-5.5v4.3h5.2L447.8,26.3L447.8,26.3z"/>
	<path class="st1" d="M452.5,30.5c0.8,0.5,1.9,0.9,3.1,0.9c1.8,0,2.8-0.9,2.8-2.3c0-1.3-0.7-2-2.5-2.7c-2.2-0.8-3.6-1.9-3.6-3.8
		c0-2.1,1.7-3.7,4.4-3.7c1.4,0,2.4,0.3,3,0.7l-0.5,1.4c-0.4-0.2-1.3-0.6-2.6-0.6c-1.8,0-2.5,1.1-2.5,2c0,1.3,0.8,1.9,2.7,2.6
		c2.3,0.9,3.4,2,3.4,4c0,2.1-1.5,3.9-4.7,3.9c-1.3,0-2.7-0.4-3.4-0.9L452.5,30.5z"/>
	<path class="st1" d="M476.1,25.7c0,4.6-2.8,7.1-6.3,7.1c-3.6,0-6.1-2.8-6.1-6.8c0-4.3,2.7-7.1,6.3-7.1
		C473.7,18.9,476.1,21.7,476.1,25.7z M465.6,25.9c0,2.9,1.6,5.5,4.3,5.5c2.8,0,4.3-2.5,4.3-5.6c0-2.7-1.4-5.5-4.3-5.5
		C467.1,20.3,465.6,23,465.6,25.9z"/>
	<path class="st1" d="M480.1,30.5c0.8,0.5,1.9,0.9,3.1,0.9c1.8,0,2.8-0.9,2.8-2.3c0-1.3-0.7-2-2.5-2.7c-2.2-0.8-3.6-1.9-3.6-3.8
		c0-2.1,1.7-3.7,4.4-3.7c1.4,0,2.4,0.3,3,0.7l-0.5,1.4c-0.4-0.2-1.3-0.6-2.6-0.6c-1.8,0-2.5,1.1-2.5,2c0,1.3,0.8,1.9,2.7,2.6
		c2.3,0.9,3.4,2,3.4,4c0,2.1-1.5,3.9-4.7,3.9c-1.3,0-2.7-0.4-3.4-0.9L480.1,30.5z"/>
	<path class="st1" d="M500.6,28.4l-1.4,4.2h-1.8l4.6-13.5h2.1l4.6,13.5h-1.9l-1.4-4.2C505.4,28.4,500.6,28.4,500.6,28.4z M505,27
		l-1.3-3.9c-0.3-0.9-0.5-1.7-0.7-2.5l0,0c-0.2,0.8-0.4,1.6-0.7,2.4l-1.3,4H505z"/>
	<path class="st1" d="M522.6,32c-0.8,0.3-2.3,0.7-4.1,0.7c-2,0-3.7-0.5-5-1.8c-1.2-1.1-1.9-2.9-1.9-5c0-4,2.8-7,7.3-7
		c1.6,0,2.8,0.3,3.4,0.6l-0.4,1.4c-0.7-0.3-1.6-0.6-3-0.6c-3.3,0-5.4,2-5.4,5.4s2.1,5.4,5.2,5.4c1.1,0,1.9-0.2,2.3-0.4v-4h-2.7v-1.4
		h4.4V32H522.6z"/>
	<path class="st1" d="M527.3,19.3c0.9-0.2,2.1-0.3,3.3-0.3c1.9,0,3.1,0.3,3.9,1.1c0.7,0.6,1.1,1.5,1.1,2.6c0,1.8-1.1,3-2.5,3.4v0.1
		c1,0.4,1.7,1.3,2,2.7c0.4,1.9,0.8,3.2,1,3.7h-1.8c-0.2-0.4-0.5-1.5-0.9-3.2c-0.4-1.9-1.1-2.6-2.7-2.6H529v5.8h-1.7V19.3z M529,25.4
		h1.8c1.9,0,3-1,3-2.6c0-1.7-1.3-2.5-3.1-2.5c-0.8,0-1.4,0.1-1.7,0.2V25.4z"/>
	<path class="st1" d="M551.6,25.7c0,4.6-2.8,7.1-6.3,7.1c-3.6,0-6.1-2.8-6.1-6.8c0-4.3,2.7-7.1,6.3-7.1
		C549.3,18.9,551.6,21.7,551.6,25.7z M541.2,25.9c0,2.9,1.6,5.5,4.3,5.5c2.8,0,4.3-2.5,4.3-5.6c0-2.7-1.4-5.5-4.3-5.5
		C542.6,20.3,541.2,23,541.2,25.9z"/>
	<path class="st1" d="M562.9,26.3h-5.2v4.9h5.8v1.5h-7.6V19.1h7.3v1.5h-5.5v4.3h5.2V26.3z"/>
	<path class="st1" d="M577.2,32.2c-0.6,0.3-1.9,0.6-3.6,0.6c-3.8,0-6.7-2.4-6.7-6.8c0-4.2,2.9-7.1,7-7.1c1.7,0,2.7,0.4,3.2,0.6
		l-0.4,1.4c-0.7-0.3-1.6-0.6-2.7-0.6c-3.2,0-5.3,2-5.3,5.6c0,3.3,1.9,5.4,5.2,5.4c1.1,0,2.1-0.2,2.8-0.6L577.2,32.2z"/>
	<path class="st1" d="M592.4,25.7c0,4.6-2.8,7.1-6.3,7.1c-3.6,0-6.1-2.8-6.1-6.8c0-4.3,2.7-7.1,6.3-7.1
		C590.1,18.9,592.4,21.7,592.4,25.7z M582,25.9c0,2.9,1.6,5.5,4.3,5.5c2.8,0,4.3-2.5,4.3-5.6c0-2.7-1.4-5.5-4.3-5.5S582,23,582,25.9
		z"/>
	<path class="st1" d="M596.7,19.1h1.7v12h5.8v1.5h-7.5V19.1z"/>
	<path class="st1" d="M618.9,25.7c0,4.6-2.8,7.1-6.3,7.1c-3.6,0-6.1-2.8-6.1-6.8c0-4.3,2.7-7.1,6.3-7.1
		C616.5,18.9,618.9,21.7,618.9,25.7z M608.4,25.9c0,2.9,1.6,5.5,4.3,5.5c2.8,0,4.3-2.5,4.3-5.6c0-2.7-1.4-5.5-4.3-5.5
		C609.9,20.3,608.4,23,608.4,25.9z M615.6,16l-2.5,2.3h-1.4l1.9-2.3C613.6,16,615.6,16,615.6,16z"/>
	<path class="st1" d="M633.4,32c-0.8,0.3-2.3,0.7-4.1,0.7c-2,0-3.7-0.5-5-1.8c-1.2-1.1-1.9-2.9-1.9-5c0-4,2.8-7,7.3-7
		c1.6,0,2.8,0.3,3.4,0.6l-0.4,1.4c-0.7-0.3-1.6-0.6-3-0.6c-3.3,0-5.4,2-5.4,5.4s2.1,5.4,5.2,5.4c1.1,0,1.9-0.2,2.3-0.4v-4H629v-1.4
		h4.4V32z"/>
	<path class="st1" d="M639.8,19.1v13.5h-1.7V19.1H639.8z"/>
	<path class="st1" d="M654.3,32.2c-0.6,0.3-1.9,0.6-3.6,0.6c-3.8,0-6.7-2.4-6.7-6.8c0-4.2,2.9-7.1,7-7.1c1.7,0,2.7,0.4,3.2,0.6
		l-0.4,1.4c-0.7-0.3-1.6-0.6-2.7-0.6c-3.2,0-5.3,2-5.3,5.6c0,3.3,1.9,5.4,5.2,5.4c1.1,0,2.1-0.2,2.8-0.6L654.3,32.2z"/>
	<path class="st1" d="M669.5,25.7c0,4.6-2.8,7.1-6.3,7.1c-3.6,0-6.1-2.8-6.1-6.8c0-4.3,2.7-7.1,6.3-7.1
		C667.2,18.9,669.5,21.7,669.5,25.7z M659.1,25.9c0,2.9,1.6,5.5,4.3,5.5c2.8,0,4.3-2.5,4.3-5.6c0-2.7-1.4-5.5-4.3-5.5
		S659.1,23,659.1,25.9z"/>
	<path class="st1" d="M673.6,30.5c0.8,0.5,1.9,0.9,3.1,0.9c1.8,0,2.8-0.9,2.8-2.3c0-1.3-0.7-2-2.5-2.7c-2.2-0.8-3.6-1.9-3.6-3.8
		c0-2.1,1.7-3.7,4.4-3.7c1.4,0,2.4,0.3,3,0.7l-0.5,1.4c-0.4-0.2-1.3-0.6-2.6-0.6c-1.8,0-2.5,1.1-2.5,2c0,1.3,0.8,1.9,2.7,2.6
		c2.3,0.9,3.4,2,3.4,4c0,2.1-1.5,3.9-4.7,3.9c-1.3,0-2.7-0.4-3.4-0.9L673.6,30.5z"/>
</g>
<g>
	<path class="st2" d="M877.5,19.3l24.2,8.8l-5.7,5.7l8.6,8.6l-4,4l-8.6-8.6l-5.7,5.7L877.5,19.3 M877.5,17.1c-0.6,0-1.2,0.2-1.6,0.7
		c-0.6,0.6-0.8,1.5-0.5,2.4l8.8,24.2c0.3,0.7,0.9,1.3,1.6,1.4c0.2,0,0.3,0.1,0.5,0.1c0.6,0,1.2-0.2,1.6-0.7L892,41l7,7
		c0.4,0.4,1,0.7,1.6,0.7s1.1-0.2,1.6-0.7l4-4c0.4-0.4,0.7-1,0.7-1.6s-0.2-1.2-0.7-1.6l-7-7l4.1-4.1c0.5-0.5,0.8-1.3,0.6-2.1
		c-0.2-0.7-0.7-1.4-1.4-1.6l-24.2-8.8C878,17.1,877.8,17.1,877.5,17.1L877.5,17.1z"/>
	<path class="st2" d="M870.6,13.6c-0.3,0-0.6-0.1-0.8-0.3l-5.7-5.7c-0.4-0.4-0.4-1.1,0-1.6c0.4-0.4,1.1-0.4,1.6,0l5.7,5.7
		c0.4,0.4,0.4,1.1,0,1.6C871.2,13.5,870.9,13.6,870.6,13.6z"/>
	<path class="st2" d="M868.2,19.2h-8.1c-0.6,0-1.1-0.5-1.1-1.1s0.5-1.1,1.1-1.1h8.1c0.6,0,1.1,0.5,1.1,1.1
		C869.4,18.7,868.9,19.2,868.2,19.2z"/>
	<path class="st2" d="M865,30.5c-0.3,0-0.6-0.1-0.8-0.3c-0.4-0.4-0.4-1.1,0-1.6l5.7-5.7c0.4-0.4,1.1-0.4,1.6,0
		c0.4,0.4,0.4,1.1,0,1.6l-5.7,5.7C865.6,30.3,865.3,30.5,865,30.5z"/>
	<path class="st2" d="M876.3,11.2c-0.6,0-1.1-0.5-1.1-1.1V2c0-0.6,0.5-1.1,1.1-1.1s1.1,0.5,1.1,1.1v8.1
		C877.4,10.7,876.9,11.2,876.3,11.2z"/>
	<path class="st2" d="M882,13.4c-0.3,0-0.6-0.1-0.8-0.3c-0.4-0.4-0.4-1.1,0-1.6l5.7-5.7c0.4-0.4,1.1-0.4,1.6,0
		c0.4,0.4,0.4,1.1,0,1.6l-5.7,5.7C882.6,13.3,882.3,13.4,882,13.4z"/>
</g>
</svg>
