<?xml version="1.0" encoding="utf-8"?>
<!-- Generator: Adobe Illustrator 24.1.2, SVG Export Plug-In . SVG Version: 6.00 Build 0)  -->
<svg version="1.1" id="Layer_1" xmlns="http://www.w3.org/2000/svg" xmlns:xlink="http://www.w3.org/1999/xlink" x="0px" y="0px"
	 viewBox="0 0 886 158" style="enable-background:new 0 0 886 158;" xml:space="preserve">
<style type="text/css">
	.st0{fill:#27A03E;}
	.st1{fill:#4FAE38;}
	.st2{fill:#76BD31;}
	.st3{fill:#009245;}
</style>
<path class="st0" d="M413,8.2H225.8c-2.4,0-6.4,0.9-5.1,4.6l33.7,62.6c1.7,2.3,1.7,5.1,0,7.4l-33.7,62.6c-2.2,3.7,2.6,4.6,5.1,4.6
	H413c2.4,0,4.7-1.4,5.9-3.7l33.8-63.6c1.2-2.3,1.2-5.1,0-7.4l-33.8-63.6C417.7,9.6,415.5,8.2,413,8.2z"/>
<path class="st1" d="M626.6,8.2H439.4c-2.4,0-6.4,0.9-5.1,4.6l33.7,62.6c1.7,2.3,1.7,5.1,0,7.4l-33.7,62.6c-2.2,3.7,2.6,4.6,5.1,4.6
	h187.2c2.4,0,4.7-1.4,5.9-3.7l33.8-63.6c1.2-2.3,1.2-5.1,0-7.4l-33.8-63.6C631.3,9.6,629.1,8.2,626.6,8.2z"/>
<path class="st2" d="M840.2,8.2H653c-2.4,0-6.4,0.9-5.1,4.6l33.7,62.6c1.7,2.3,1.7,5.1,0,7.4L648,145.6c-2.2,3.7,2.6,4.6,5.1,4.6
	h187.2c2.4,0,4.7-1.4,5.9-3.7l33.8-63.6c1.2-2.3,1.2-5.1,0-7.4l-33.8-63.6C844.9,9.6,842.7,8.2,840.2,8.2z"/>
<path class="st3" d="M199.4,8.5H12.2c-2.4,0-6.4,0.9-5.1,4.6l33.7,62.6c1.7,2.3,1.7,5.1,0,7.4L7.2,145.9c-2.2,3.7,2.6,4.6,5.1,4.6
	h187.2c2.4,0,4.7-1.4,5.9-3.7l33.8-63.6c1.2-2.3,1.2-5.1,0-7.4l-33.8-63.6C204.1,10,201.9,8.5,199.4,8.5z"/>
</svg>
