<?xml version="1.0" encoding="utf-8"?>
<!-- Generator: Adobe Illustrator 24.1.2, SVG Export Plug-In . SVG Version: 6.00 Build 0)  -->
<svg version="1.1" id="Layer_1" xmlns="http://www.w3.org/2000/svg" xmlns:xlink="http://www.w3.org/1999/xlink" x="0px" y="0px"
	 viewBox="0 0 886 158" style="enable-background:new 0 0 886 158;" xml:space="preserve">
<style type="text/css">
	.st0{fill:url(#SVGID_1_);}
</style>
<linearGradient id="SVGID_1_" gradientUnits="userSpaceOnUse" x1="13.0879" y1="78.9783" x2="876.5227" y2="78.9783">
	<stop  offset="0" style="stop-color:#D9E021"/>
	<stop  offset="1" style="stop-color:#22B573"/>
</linearGradient>
<path class="st0" d="M835.9,8H18.7c-2.4,0-6.4,0.9-5.1,4.6l33.7,62.6c1.7,2.3,1.7,5.1,0,7.4l-33.7,62.6c-2.2,3.7,2.6,4.6,5.1,4.6
	h817.2c2.4,0,4.7-1.4,5.9-3.7l33.8-63.6c1.2-2.3,1.2-5.1,0-7.4l-33.8-63.6C840.6,9.4,838.3,8,835.9,8z"/>
</svg>
