<?xml version="1.0" encoding="utf-8"?>
<!-- Generator: Adobe Illustrator 24.1.2, SVG Export Plug-In . SVG Version: 6.00 Build 0)  -->
<svg version="1.1" id="Layer_1" xmlns="http://www.w3.org/2000/svg" xmlns:xlink="http://www.w3.org/1999/xlink" x="0px" y="0px"
	 viewBox="0 0 441 683" style="enable-background:new 0 0 441 683;" xml:space="preserve">
<style type="text/css">
	.st0{fill:#B3B3B3;}
	.st1{fill:#AD7DD3;}
	.st2{fill:#4C286E;}
	.st3{fill:#C4538E;}
	.st4{fill:#D67CCF;}
	.st5{fill:none;stroke:#4C286E;stroke-width:2;stroke-linecap:round;stroke-miterlimit:10;}
	.st6{fill:#AA1E50;}
	.st7{fill:#412660;}
	.st8{fill:#293882;}
	.st9{fill:none;stroke:#821642;stroke-width:2;stroke-linecap:round;stroke-linejoin:round;stroke-miterlimit:10;}
	.st10{fill:#D1A9ED;}
	.st11{fill:none;stroke:#9268BA;stroke-width:2;stroke-linecap:round;stroke-miterlimit:10;}
	.st12{fill:#294B6D;}
	.st13{fill:#3A8DDE;}
	.st14{fill:#374C99;}
	.st15{fill:none;stroke:#172760;stroke-width:2;stroke-linecap:round;stroke-miterlimit:10;}
	.st16{fill:none;stroke:#AA1E50;stroke-width:2;stroke-linecap:round;stroke-miterlimit:10;}
</style>
<path class="st0" d="M385.5,639.5c0-7.5-50.7-13.5-113.3-13.5c-52.4,0-96.5,4.2-109.4,10c-0.6,0-1.2,0-1.8,0c-83.4,0-151,8.1-151,18
	c0,9.9,67.6,18,151,18s151-8.1,151-18c0-0.6-0.3-1.2-0.8-1.8C354.6,650.3,385.5,645.4,385.5,639.5z"/>
<path class="st1" d="M201,35c0,0,25-17,35-22s31,0,31,0s16,11,20,25s0,34,0,34L201,35z"/>
<path class="st1" d="M247,43c0,0-105-35-146-13l243,96.5C344,126.5,355,101,247,43z"/>
<path class="st2" d="M341,121c0,0-52-38-101-58S112,30,112,30s-8-1-11,1s14,14,14,14s12,12,108,52s118,33,118,33S348,126,341,121z"
	/>
<path class="st3" d="M381,159c0,0,20.8-20.8-36.4-32.9l-0.7,0.4c0-0.2,0.1-0.3,0.1-0.5c0,0,0,0-0.1,0c0,0-0.3-1.4-1.5-3.7
	c-0.4-0.4-0.9-0.8-1.5-1.3c0,0-52-38-101-58c-17.4-7.1-38.5-13.3-58.5-18.3C169.8,51.6,153.2,67,140,101c-23,59,76,40,76,40
	s-1,41,51,51c0,0,83,57,115,34c0,0,71,3,37-47C419,179,410,160,381,159z"/>
<path class="st4" d="M209,54c0,0-26,13-32,36s0,46,0,46s4,15,40,20c0,0,2,10,1,13s15,10,15,10l20-16c0,0-2-3-4-12c0,0,17-7,21-18
	s5-20,5-20s-14,9-25,10c0,0-6-9,0-29C250,94,194,89,209,54z"/>
<path class="st5" d="M191.5,122.5c0,0,0,4,8,4s11-8,11-8"/>
<ellipse transform="matrix(0.2019 -0.9794 0.9794 0.2019 76.9332 288.4723)" class="st2" cx="215.5" cy="97" rx="5.5" ry="2"/>
<ellipse transform="matrix(0.992 -0.1261 0.1261 0.992 -10.5973 24.6612)" class="st2" cx="189.5" cy="96" rx="2" ry="5.5"/>
<path class="st6" d="M210,166c0,0,6,4,12,4s37-10,37-10l3,12c0,0,12-4,20,0s20,18,21,24c0,0,16,5,19,16c0,0,28,4,34,17
	c0,0,1,20-7,37c0,0-39,11-40,11s-22-6-23-21c0,0-31-16-33-23l-79,17c0,0-8,18-25,17s-18-16-18-16s-10,7-18,5c-8-2-8-18-8-18
	s-12-9-6-17s46-35,46-35s16,6,24,3c0,0,5-11,17-14s20,0,20,0L210,166z"/>
<path class="st7" d="M349.5,574.5c0,0-5,32,5,44s27.6-42.2,16.3-56.1C359.5,548.5,349.5,574.5,349.5,574.5z"/>
<path class="st1" d="M359.5,528.5c0,0,11-3,14,17s-17,34-17,34s-14,11-28-8S359.5,528.5,359.5,528.5z"/>
<path class="st8" d="M270.5,268.5c0,0,8-6-3-12v-11.1c0,0-34-18.9-6-73.9c0,0-20,0-35,35c0,0-18,4-31,1c0,0,2-18,10-33
	c0,0-34,29-38,55s16,36,16,36s-8,6-3,13c0,0-27,28-11,86c0,0-22,52-28,62s0,27,0,27s-35,72-48,85s-9,40-9,40l26,47c0,0,30,18,59-13
	s22-40,22-40s36-12,39-44c0,0,22,25,55,34s33,13,33,13s9,10,17-4c0,0,10,3,19-14s19-29-6-66s-37-31-37-31s6-13-10-21s-12-29-12-29
	s28-51,12-103C301.5,307.5,292.5,284.5,270.5,268.5z"/>
<path class="st9" d="M234.9,190.9l-10.4,4.7l-4-24l-10,24c0,0-7-5-5-21"/>
<path class="st1" d="M358,279c0.9-12.9-2.2-18.8-5.8-21.4c-0.9,2.8-1.9,5.6-3.2,8.4c0,0-39,11-40,11c-0.9,0-17-4.6-21.7-15.7
	c-38.1,3.7-83,8.5-90.3,10.7c-13,4-11,7-11,7s-1,11,0,19s6,9,6,9s1,25,23,43s49,9,49,9s40-13,71-15S358,279,358,279z"/>
<path class="st10" d="M256,255.4c0,0-0.8-11.4,6.1-13.7c6.8-2.3,12.2-3.8,15.2-1.5c3,2.3,6.8,3,8.4,10.6c1.5,7.6,3,15.2,2.3,15.2
	s-22,3-22,3L256,255.4z"/>
<path class="st11" d="M194.3,282.1c0,0,62.6-13.5,96.1-15.8"/>
<path class="st11" d="M209.3,307.1c0,0,62.6-13.5,96.1-15.8"/>
<path class="st12" d="M264.9,241c0,0,2.8-3.5,8.3,0.1c5.5,3.6,19.9,35.7,19.9,35.7s25.6,24.4,15.2,53.2s-8.8,30.7-8.8,30.7
	s-12.4-19.2-13.8-44.3s4.8-39,4.8-39s-12.4-30.6-21.6-34.6C263.9,240.6,264.9,241,264.9,241z"/>
<path class="st3" d="M133.5,176.5c0,0,8-3,12,7c0,0,9-1,6,8s-13,20-27,27s-38,10-41-6S114.5,179.5,133.5,176.5z"/>
<path class="st3" d="M315.5,286.5c0,0-15-3-17-9s5-13,5-13s-6-5,8-13c14-8,41-16,45,0c0,0,17,6,8,19c0,0,1,10-24,13
	S315.5,286.5,315.5,286.5z"/>
<path class="st4" d="M132.5,183.5l-13-65c0,0,10-4,15-13s11.1-17.4,11.1-17.4s-5.1-2.6-13.1,7.4c0,0,7-23,4-31c0,0,0-6-4-7
	c0,0-3,16-8,25c-5,9-18,27-18,27s-2,6-2,13c0,7,7,68,0,78C104.5,200.5,123.5,206.5,132.5,183.5z"/>
<path class="st4" d="M320.5,277.5c0,0-6,48-20,59c0,0-13,2-18,7s-6,11-4,11s-1,12,4,14s11-4,11-4s11.1,0.3,11-0.3
	c0-0.7,11-5.7,8-23.7c0,0,27-41,32-66C344.5,274.5,340.5,270.5,320.5,277.5z"/>
<path class="st1" d="M69.5,614.5c0,0-9-18,0-27c0,0,5-1,11-3c0,0,1-10,12-7s30,22,32,39s-11,24-17,24
	C107.5,640.5,92.5,642.5,69.5,614.5z"/>
<path class="st7" d="M35.5,604.5c0,0,16-3,38,7c0,0,14,1,20,7s9,12,9,12s-2,20-10,23S28.5,619.5,35.5,604.5z"/>
<ellipse transform="matrix(0.2019 -0.9794 0.9794 0.2019 -14.9844 401.668)" class="st13" cx="239" cy="210" rx="6" ry="5"/>
<ellipse transform="matrix(0.2019 -0.9794 0.9794 0.2019 -57.2811 349.76)" class="st13" cx="186" cy="210" rx="6" ry="5"/>
<path class="st14" d="M184,409c0,0-13.8-10.4-31.9-4.6c-4.4,9.8-8.5,18.6-10.6,22.1c-6,10,0,27,0,27s-3.5,7.2-8.7,17.5
	c8.9,0.3,23.3,1.7,31.2,7c0,0,15-11,15-35S184,409,184,409z"/>
<path class="st14" d="M179,224c0,0,33,2,60-2v9c0,0-19,11-34,11s-29-11-29-11S177,224,179,224z"/>
<path class="st15" d="M285.5,414.5c0,0-16,52-47,72c0,0,3,10-7,15c0,0,5,13,0,23"/>
<path class="st16" d="M312,280c0,0,26-13,40-3"/>
<path class="st16" d="M134,181c0,0-8,30-38,18"/>
<path class="st10" d="M203,279l-11-23c0,0-7-9,0-17s19-9,19-9s13-5,17,11s9,31,9,31L203,279z"/>
<path class="st10" d="M224,254c0,0-1-15,8-18s16-5,20-2s9,4,11,14c2,10,4,20,3,20s-29,4-29,4L224,254z"/>
<path class="st12" d="M208,231c0,0-5-3-10,4s-7.4,52.5-7.4,52.5S171,329,197,359s25,33,25,33s6-29-4-60s-24-45-24-45s0.8-42.8,10-52
	C209,230,208,231,208,231z"/>
<path class="st12" d="M241.4,232.9c0,0-4.9-2.4-9,4.4c-4.1,6.9-3,49.3-3,49.3s-15.1,40,11.3,65.9c26.3,25.9,25.6,28.8,25.6,28.8
	s3.4-27.4-8.1-55.4c-11.6-28-25.6-40-25.6-40s-2.4-39.8,5.4-49C242.2,231.9,241.4,232.9,241.4,232.9z"/>
<path class="st12" d="M210.4,229.9c0,0-4.9-2.4-9,4.4c-4.1,6.9-3,49.3-3,49.3s-15.1,40,11.3,65.9c26.3,25.9,25.6,28.8,25.6,28.8
	s3.4-27.4-8.1-55.4c-11.6-28-25.6-40-25.6-40s-2.4-39.8,5.4-49C211.2,228.9,210.4,229.9,210.4,229.9z"/>
<path class="st11" d="M351,301c0,0,0,14-4,28"/>
<path class="st11" d="M343,307c0,0,0,17-3,23"/>
<path class="st11" d="M351,323c0,0-10,4-20,4"/>
<path class="st11" d="M352,317c0,0-10,2-16,2"/>
<line class="st11" x1="247" y1="277" x2="250" y2="298"/>
<line class="st11" x1="254" y1="276" x2="257" y2="297"/>
<line class="st11" x1="259" y1="275" x2="262" y2="296"/>
<line class="st11" x1="266" y1="273" x2="269" y2="294"/>
<line class="st11" x1="276" y1="272" x2="279" y2="293"/>
<line class="st11" x1="219" y1="282" x2="222" y2="303"/>
</svg>
