<?xml version="1.0" encoding="utf-8"?>
<!-- Generator: Adobe Illustrator 24.1.2, SVG Export Plug-In . SVG Version: 6.00 Build 0)  -->
<svg version="1.1" id="Layer_1" xmlns="http://www.w3.org/2000/svg" xmlns:xlink="http://www.w3.org/1999/xlink" x="0px" y="0px"
	 viewBox="0 0 236 240" style="enable-background:new 0 0 236 240;" xml:space="preserve">
<style type="text/css">
	.st0{opacity:0.1;}
	.st1{fill:url(#SVGID_1_);}
	.st2{fill:url(#SVGID_2_);}
	.st3{fill:#FFFFFF;}
</style>
<g class="st0">
	<path d="M233.2,17.7c0,0-33.3,2.9-56.3,2.8c-28.5-0.2-76.5,5.6-106,31.9s-47.7,62.3-51.2,105.2S17,204.5,17,204.5L6.4,234
		c0,0,3.3,2.7,9.4,2.2c0.3,0,0.5,0.1,0.6-0.2l6.4-26.1c0,0,5.2-2.7,19.1-1.9s89.6,9.2,136.6-24.1s48.9-83.3,51.9-118.2
		S232.1,19.7,233.2,17.7z"/>
</g>
<g>
	
		<linearGradient id="SVGID_1_" gradientUnits="userSpaceOnUse" x1="191.8564" y1="202.3117" x2="34.9104" y2="55.9572" gradientTransform="matrix(1 0 0 -1 0 240)">
		<stop  offset="0" style="stop-color:#8DC945"/>
		<stop  offset="1" style="stop-color:#61934C"/>
	</linearGradient>
	<path class="st1" d="M216.7,3.4c0,0-33,4.8-56,6c-28.5,1.5-76,10-104,38s-44,65-45,108s0,47,0,47l-9,30c0,0,3.5,2.5,9.5,1.6
		c0.3,0,0.5,0,0.6-0.2l4.9-26.4c0,0,5-3,19-3s90,4,135-32s44-86,45-121S215.7,5.4,216.7,3.4z"/>
</g>
<linearGradient id="SVGID_2_" gradientUnits="userSpaceOnUse" x1="243.1986" y1="208.1837" x2="14.5635" y2="-5.022" gradientTransform="matrix(1 0 0 -1 0 240)">
	<stop  offset="0" style="stop-color:#8DC945"/>
	<stop  offset="1" style="stop-color:#4B804C"/>
</linearGradient>
<path class="st2" d="M216.7,3.4c0,0-0.2,0-0.5,0.1c-17.7,11.5-90,59.6-124,95.4C68,124.3,28.8,159.4,11.6,201
	c0.1,1.1,0.1,1.3,0.1,1.3l-9,30c0,0,3.5,2.5,9.5,1.6c0.3,0,0.5,0,0.6-0.2l4.9-26.4c0,0,5-3,19-3s90,4,135-32s44-86,45-121
	S215.7,5.4,216.7,3.4z"/>
<g>
	<path class="st3" d="M151.6,65.2v14.4l-40.2,83.1H87.2l40.2-78.4V84H82.7V65.2H151.6z"/>
</g>
</svg>
