<?xml version="1.0" encoding="utf-8"?>
<!-- Generator: Adobe Illustrator 24.1.2, SVG Export Plug-In . SVG Version: 6.00 Build 0)  -->
<svg version="1.1" id="Layer_1" xmlns="http://www.w3.org/2000/svg" xmlns:xlink="http://www.w3.org/1999/xlink" x="0px" y="0px"
	 viewBox="0 0 531 535" style="enable-background:new 0 0 531 535;" xml:space="preserve">
<style type="text/css">
	.st0{fill:#88D3BC;}
</style>
<g>
	<path class="st0" d="M449.1,44.8l-5.8-4.3c-0.3-1.7-0.6-3.3-1.1-4.9l3.1-7c0.2-0.3,0.2-0.8-0.1-1.1s-0.6-0.6-0.9-0.6l-7-0.8
		c-1.1-1.4-2.3-2.8-3.7-4.1l-0.8-7.3c-0.1-0.4-0.3-0.8-0.6-0.9s-0.8-0.3-1.1-0.1l-6.1,2.7c-2.4-1-4.8-1.8-7.4-2.2l-4.3-5.9
		c-0.5-0.7-1.5-0.7-2,0l-4.4,6c-1.7,0.3-3.3,0.8-5,1.3l-6.9-3c-0.3-0.2-0.8-0.2-1.1,0.1c-0.3,0.2-0.6,0.6-0.6,0.9l-0.8,7.5
		c-1.3,1.1-2.5,2.2-3.6,3.6l-7.5,0.8c-0.4,0.1-0.8,0.3-0.9,0.6s-0.3,0.8-0.1,1.1l3,6.8c-0.6,1.7-1.1,3.4-1.4,5.2l-6.1,4.5
		c-0.3,0.3-0.5,0.6-0.5,1s0.2,0.8,0.5,1l6,4.4c0.3,1.8,0.8,3.6,1.4,5.2l-3,6.8c-0.2,0.3-0.2,0.8,0.1,1.1s0.6,0.6,0.9,0.6l7.3,0.8
		c1.2,1.4,2.5,2.7,3.8,3.9l0.8,7.4c0.1,0.4,0.3,0.8,0.6,0.9c0.3,0.2,0.8,0.3,1.1,0.1l6.7-2.9c1.8,0.7,3.5,1.2,5.3,1.4l4.4,6
		c0.3,0.3,0.6,0.5,1,0.5s0.8-0.2,1-0.5l4.4-5.9c1.7-0.3,3.3-0.8,4.9-1.3l7.1,3.1c0.3,0.2,0.8,0.2,1.1-0.1c0.3-0.2,0.6-0.6,0.6-0.9
		l0.8-7.5c1.3-1,2.4-2.2,3.5-3.4l7.7-0.9c0.4-0.1,0.8-0.3,0.9-0.6s0.3-0.8,0.1-1.1l-3-6.9c0.6-1.6,1.1-3.2,1.4-4.7l6.2-4.6
		c0.3-0.3,0.5-0.6,0.5-1S449.5,45,449.1,44.8z M441,49.6c-0.3,0.2-0.4,0.5-0.5,0.8c-0.3,1.8-0.9,3.6-1.6,5.3c-0.2,0.3-0.1,0.7,0,1
		l2.5,5.8l-6.6,0.8c-0.3,0-0.6,0.2-0.8,0.4c-1.2,1.3-2.5,2.7-3.9,3.7c-0.3,0.2-0.4,0.5-0.5,0.8l-0.8,6.3l-6-2.6
		c-0.3-0.2-0.7-0.2-0.9,0c-1.8,0.7-3.6,1.1-5.4,1.4c-0.3,0.1-0.6,0.3-0.8,0.5l-3.7,5l-3.7-5c-0.2-0.3-0.5-0.4-0.8-0.5
		c-2-0.3-3.9-0.8-5.8-1.6c-0.2-0.1-0.3-0.1-0.4-0.1c-0.2,0-0.3,0-0.5,0.1l-5.6,2.5l-0.7-6.2c0-0.3-0.2-0.6-0.4-0.8
		c-1.5-1.3-2.9-2.7-4.2-4.2c-0.2-0.3-0.5-0.4-0.8-0.5l-6.1-0.7l2.5-5.7c0.2-0.3,0.2-0.7,0-0.9c-0.7-1.8-1.3-3.8-1.5-5.7
		c-0.1-0.3-0.3-0.6-0.5-0.8l-5-3.7l5.1-3.7c0.3-0.2,0.4-0.5,0.5-0.8c0.3-1.9,0.8-3.8,1.6-5.7c0.1-0.3,0.1-0.7,0-0.9l-2.5-5.7
		l6.3-0.8c0.3,0,0.6-0.2,0.8-0.4c1.2-1.4,2.5-2.7,3.9-3.9c0.3-0.2,0.4-0.5,0.4-0.8l0.8-6.3l5.8,2.5c0.3,0.2,0.7,0.2,0.9,0
		c1.8-0.7,3.6-1.2,5.5-1.5c0.3-0.1,0.6-0.3,0.8-0.5l3.7-5.1l3.7,4.9c0.2,0.3,0.5,0.4,0.8,0.5c2.7,0.4,5.3,1.2,7.7,2.3
		c0.3,0.2,0.7,0.2,1,0l5.1-2.2l0.7,6.1c0,0.3,0.2,0.6,0.4,0.8c1.5,1.3,2.8,2.8,4,4.4c0.2,0.3,0.5,0.5,0.8,0.5l5.8,0.7l-2.6,5.9
		c-0.1,0.3-0.2,0.6,0,0.9c0.6,1.8,1,3.6,1.3,5.4c0.1,0.3,0.3,0.7,0.5,0.8l4.9,3.7L441,49.6z"/>
	<path class="st0" d="M412.5,20.8c-13.3,0-24.1,10.8-24.1,24.1S399.2,69,412.5,69s24.1-10.8,24.1-24.1S425.8,20.8,412.5,20.8z
		 M412.5,66.5c-11.9,0-21.6-9.7-21.6-21.6s9.7-21.6,21.6-21.6c11.9,0,21.6,9.7,21.6,21.6S424.4,66.5,412.5,66.5z"/>
</g>
<path class="st0" d="M340.2,40.3c-0.3-1.4-1.3-2.7-2.7-3.7c-2.8-1.8-10-1.4-10.8-1.4c-0.4,0-0.7,0.2-0.9,0.5c-0.2,0.3-0.2,0.7-0.1,1
	c0.3,0.8,3,7.3,5.9,9.1c1.1,0.7,2.3,1,3.4,1c0.4,0,0.8-0.1,1.1-0.2c1-0.2,2-0.8,2.7-1.7c2.5,1.7,5.5,5.9,7.1,8.3
	c1,10.1,0.8,19.3,0.8,19.5c0,0.6,0.5,1.1,1.1,1.1l0,0c0.6,0,1.1-0.4,1.1-1.1s0.1-7.7-0.5-16.2c0.5-3.5,2.3-11.8,4.6-15.5
	c1,0.5,2.1,0.8,3.1,0.8c2.3,0,4.4-1.2,6-3.5c2.4-3.7,2.1-13.2,2.1-14.3c0-0.4-0.2-0.7-0.5-0.9c-0.3-0.2-0.7-0.2-1-0.1
	c-1,0.4-9.9,3.8-12.4,7.5c-2.2,3.3-1.8,6.9,0.8,9.3c-1.6,2.4-2.8,6.1-3.6,9.4c-1-7.9-2.9-15.8-6.3-20.2c2.7-2.9,2.8-6.8,0.1-10.2
	c-3-3.8-13-6.6-14.2-6.9c-0.4-0.1-0.8,0-1,0.2s-0.5,0.6-0.5,0.9c0.1,1.2,0.7,11.6,3.7,15.3c1.7,2.2,3.9,3.3,6.1,3.3
	c1.4,0,2.6-0.4,3.9-1.2c2.9,3.9,4.6,11,5.7,18.2c-1.6-2-3.5-4.2-5.3-5.5C340.3,42.3,340.5,41.3,340.2,40.3z M352.2,32
	c1.4-2.2,6.7-4.7,9.8-6c0,3.4-0.3,9.1-1.7,11.3c-1.7,2.6-4,2.9-5.9,2.2l6-9.1c0.4-0.5,0.2-1.2-0.3-1.6s-1.2-0.2-1.6,0.3l-6,9.1
	C351.2,36.8,350.5,34.7,352.2,32z M331.2,27.1c-1.8-2.3-2.8-8.7-3.1-12.4c3.5,1.1,9.6,3.4,11.5,5.7c2.3,2.9,1.7,5.4,0.2,7.1
	l-7.6-9.5c-0.4-0.5-1.1-0.5-1.6-0.1c-0.5,0.4-0.5,1.1-0.1,1.6l7.6,9.5C336.1,29.9,333.6,30,331.2,27.1z M335.5,44.7
	c-0.8,0.2-1.8,0-2.8-0.6l0,0c-1.4-0.9-3.1-4-4.3-6.6c2.8,0,6.5,0.2,7.8,1.1c1,0.6,1.6,1.3,1.7,2.3c0.1,0.5,0.1,0.9-0.1,1.3l-5.6-3.6
	c-0.5-0.3-1.2-0.2-1.6,0.4c-0.3,0.5-0.1,1.2,0.4,1.6l5.6,3.6C336.4,44.3,336,44.6,335.5,44.7z"/>
<g>
	<path class="st0" d="M62.6,454.9c10.4,0,18.2-3.9,18.2-9v-34.5c0-5.1-7.8-9-18.2-9s-18.2,3.9-18.2,9v34.5
		C44.4,451,52.2,454.9,62.6,454.9z M47.7,446v-29.1c1.5,1,3.4,2,5.7,2.5V435c0,0.9,0.8,1.7,1.7,1.7c0.9,0,1.7-0.8,1.7-1.7v-14.9
		c1.8,0.2,3.7,0.3,5.6,0.3c3,0,5.8-0.3,8.2-0.9v30.9c-1.5,0.5-3.2,0.8-5.2,0.9v-17.1c0-0.9-0.8-1.7-1.7-1.7s-1.7,0.8-1.7,1.7v17.2
		C53.2,451.4,47.8,448.2,47.7,446z M77.2,411.3c0,1.4-1.8,3-5.2,4.1c-0.1,0-0.2,0.1-0.3,0.1c-2.4,0.8-5.6,1.4-9.3,1.4
		c-2.6,0-4.9-0.2-6.9-0.7c-0.1,0-0.1,0-0.2,0c-4.8-1-7.7-3.2-7.7-4.8c0-2.4,5.6-5.6,14.8-5.6S77.2,409.1,77.2,411.3z M74.2,449.1
		v-30.7c1.1-0.5,2.2-1,3.1-1.6v29.1C77.2,446.9,76.2,448.1,74.2,449.1z"/>
	<path class="st0" d="M70.4,411.4c0-3-4-4.5-7.9-4.5s-7.9,1.5-7.9,4.5c0,3,4,4.5,7.9,4.5C66.5,415.9,70.4,414.4,70.4,411.4z
		 M66.8,411.4c-0.6,0.5-2.1,1-4.3,1s-3.8-0.7-4.3-1c0.6-0.5,2.1-1,4.3-1C64.9,410.4,66.4,411,66.8,411.4z"/>
	<path class="st0" d="M1.2,398.4v47.5c0,5.1,7.8,9,18.2,9c0.3,0,0.7,0,1,0c0.1,0,0.1,0,0.2,0c0.1,0,0.2,0,0.3,0
		c9.5-0.3,16.5-4.1,16.5-8.9v-47.5c0-5.1-7.8-9-18.2-9C8.9,389.5,1.1,393.2,1.2,398.4z M4.4,446v-42.1c1.5,1,3.4,2,5.7,2.5v36.2
		c0,0.9,0.8,1.7,1.7,1.7s1.7-0.8,1.7-1.7v-35.5c1.8,0.2,3.7,0.3,5.6,0.3c3,0,5.8-0.3,8.2-0.9v31.9c0,0.9,0.8,1.7,1.7,1.7
		s1.7-0.8,1.7-1.7v-33c1.1-0.5,2.2-1,3.1-1.6V446c0,2-4.4,4.8-11.7,5.4v-16.9c0-0.9-0.8-1.7-1.7-1.7s-1.7,0.8-1.7,1.7v17.1
		C9.9,451.4,4.6,448.2,4.4,446z M4.6,398.3c0-2.4,5.6-5.6,14.8-5.6s14.8,3.3,14.8,5.6c0,1.4-1.8,3-5.1,4.1c-0.1,0-0.2,0.1-0.3,0.1
		c-2.4,0.8-5.6,1.4-9.3,1.4c-2.6,0-4.9-0.2-6.9-0.7c-0.1,0-0.1,0-0.2,0C7.3,402.2,4.6,400.1,4.6,398.3z"/>
	<path class="st0" d="M11.4,398.4c0,3,4,4.5,7.9,4.5s7.9-1.5,7.9-4.5c0-3-4-4.5-7.9-4.5C15.3,393.9,11.4,395.4,11.4,398.4z
		 M15,398.4c0.6-0.5,2.1-1,4.3-1s3.8,0.7,4.4,1c-0.6,0.5-2.1,1-4.4,1S15.5,398.9,15,398.4z"/>
</g>
<path class="st0" d="M342.4,500.2c0-13-10.6-23.5-23.5-23.5s-23.5,10.6-23.5,23.5s10.6,23.5,23.5,23.5S342.4,513.1,342.4,500.2z
	 M307,500.2c0-2.6,0.3-5.1,0.7-7.4h10.2v15.4h-10C307.3,505.6,307,503,307,500.2z M330.8,500.2c0,2.8-0.3,5.5-0.9,8h-10v-15.4H330
	C330.5,495,330.8,497.6,330.8,500.2z M319.9,521.2v-11h9.5C327.5,516.3,323.9,520.6,319.9,521.2z M319.9,490.7v-11.6
	c4.2,0.6,7.8,5.2,9.6,11.6H319.9z M317.8,479.1v11.6h-9.6C310,484.3,313.6,479.7,317.8,479.1z M317.8,510.1v11
	c-4.1-0.6-7.6-5-9.5-11L317.8,510.1L317.8,510.1z M325.2,520.7c2.7-2.3,4.8-6,6.1-10.6h6.5C335.2,515.1,330.7,519,325.2,520.7z
	 M338.8,508.1h-7c0.5-2.5,0.9-5.2,0.9-8c0-2.6-0.3-5.1-0.7-7.4h7c0.9,2.3,1.3,4.8,1.3,7.4C340.4,503,339.8,505.6,338.8,508.1z
	 M338.2,490.7h-6.6c-1.3-4.8-3.5-8.7-6.3-11.1C330.9,481.4,335.6,485.5,338.2,490.7z M312.4,479.6c-2.8,2.4-5,6.4-6.3,11.1h-6.7
	C302.1,485.5,306.8,481.4,312.4,479.6z M298.7,492.7h7c-0.5,2.3-0.7,4.8-0.7,7.4c0,2.8,0.3,5.5,0.9,8h-7c-1-2.5-1.5-5.1-1.5-8
	C297.3,497.6,297.8,495,298.7,492.7z M299.8,510.1h6.5c1.3,4.5,3.5,8.2,6.1,10.6C307,519,302.4,515.1,299.8,510.1z"/>
<path class="st0" d="M196.8,71.5c-2.5,0-5.1,0.4-7.4,1.2c-2.2,0.8-4.6,0.8-6.9,0c-2.4-0.8-4.9-1.2-7.4-1.2c-13.1,0-23,18.3-23,30.1
	c0,12.7,10.3,23,23,23c3.3,0,6.5-0.7,9.6-2.1v34.3c0,0.7,0.6,1.3,1.3,1.3c0.7,0,1.3-0.6,1.3-1.3v-34.3c3,1.4,6.3,2.1,9.6,2.1
	c12.6,0,23-10.3,23-23C219.8,89.7,210,71.5,196.8,71.5z M196.8,122c-3.4,0-6.6-0.9-9.6-2.4v-2.4l13.8-13.8c0.5-0.5,0.5-1.3,0-1.8
	s-1.3-0.5-1.8,0l-12,12V95.2c0-0.7-0.6-1.3-1.3-1.3c-0.7,0-1.3,0.6-1.3,1.3v10.4l-8.4-8.4c-0.5-0.5-1.3-0.5-1.8,0s-0.5,1.3,0,1.8
	l10.3,10.3v10.4c-2.9,1.6-6.2,2.4-9.6,2.4c-11.3,0-20.4-9.1-20.4-20.4c0-10.9,9.1-27.5,20.4-27.5c2.2,0,4.5,0.3,6.6,1.1
	c2.8,0.9,5.8,0.9,8.5,0c2.1-0.7,4.3-1.1,6.6-1.1c11.3,0,20.4,16.7,20.4,27.5C217.2,112.8,208.1,122,196.8,122z"/>
<g>
	<path class="st0" d="M342.2,437h-2.4c-0.6-14.8-12.8-26.5-27.7-26.5c-10.1,0-19.4,5.5-24.3,14.4c-0.2,0.4-0.1,0.8,0,1.1
		c0.2,0.4,0.6,0.5,1,0.5h9.8c0.3,0,0.6-0.1,0.8-0.4c3.3-3.5,7.8-5.5,12.6-5.5c9.2,0,16.8,7.2,17.4,16.3h-2.3c-0.5,0-0.9,0.3-1.1,0.7
		s-0.1,0.9,0.3,1.2l7.5,7.2c0.2,0.2,0.5,0.3,0.8,0.3s0.5-0.1,0.8-0.3l7.5-7.2c0.3-0.3,0.5-0.8,0.3-1.2
		C343.1,437.2,342.7,437,342.2,437z M334.8,443.7l-4.6-4.5h0.6c0.6,0,1.1-0.5,1.1-1.1c0-10.8-8.9-19.7-19.7-19.7
		c-5.2,0-10.1,2-13.9,5.8H291c4.7-7.1,12.6-11.5,21.3-11.5c14,0,25.4,11.4,25.4,25.4c0,0.6,0.5,1.1,1.1,1.1h0.6L334.8,443.7z"/>
	<path class="st0" d="M312.3,465.8c10.1,0,19.4-5.5,24.3-14.4c0.2-0.4,0.1-0.8,0-1.1c-0.1-0.4-0.6-0.5-1-0.5h-9.8
		c-0.3,0-0.6,0.1-0.8,0.4c-3.3,3.5-7.8,5.5-12.6,5.5c-9.2,0-16.8-7.2-17.4-16.3h2.3c0.5,0,0.9-0.3,1.1-0.7s0.1-0.9-0.3-1.2l-7.5-7.2
		c-0.5-0.5-1.1-0.5-1.6,0l-7.5,7.2c-0.3,0.3-0.5,0.8-0.3,1.2c0.1,0.4,0.6,0.7,1.1,0.7h2.4C285.2,454,297.4,465.8,312.3,465.8z
		 M289.6,432.5l4.6,4.5h-0.6c-0.6,0-1.1,0.5-1.1,1.1c0,10.8,8.9,19.7,19.7,19.7c5.3,0,10.2-2,13.9-5.8h7.4
		c-4.7,7.2-12.6,11.5-21.3,11.5c-14,0-25.4-11.4-25.4-25.4c0-0.6-0.5-1.1-1.1-1.1h-0.6L289.6,432.5z"/>
</g>
<g>
	<path class="st0" d="M28.4,11.3H16.3c-0.8,0-1.4,0.7-1.4,1.4v43.1C10.7,58.5,8.1,63,8.1,68c0,7.8,6.4,14.2,14.2,14.2
		S36.5,75.8,36.5,68c0-4.9-2.5-9.5-6.8-12.1V12.8C29.8,11.9,29.1,11.3,28.4,11.3z M33.6,67.9c0,6.2-5,11.3-11.3,11.3
		c-6.2,0-11.3-5-11.3-11.3c0-4.2,2.3-8,6-10c0.5-0.3,0.8-0.8,0.8-1.3V14.2h9.2v42.5c0,0.6,0.3,1.1,0.8,1.3
		C31.4,59.9,33.6,63.7,33.6,67.9z"/>
	<path class="st0" d="M23.7,62.9V22c0-0.8-0.7-1.5-1.5-1.5s-1.5,0.7-1.5,1.5v40.9c-2.1,0.7-3.8,2.6-3.8,4.9c0,2.9,2.3,5.2,5.2,5.2
		s5.2-2.3,5.2-5.2C27.5,65.6,26,63.5,23.7,62.9z"/>
	<path class="st0" d="M38,50.2h7.3c0.8,0,1.5-0.7,1.5-1.5V34h1.5c0.5,0,1-0.3,1.3-0.8c0.3-0.5,0.3-1.1,0-1.5l-6.6-10.6
		c-0.3-0.4-0.8-0.7-1.3-0.7s-1,0.3-1.3,0.7l-6.6,10.6c-0.3,0.5-0.3,1,0,1.5S34.5,34,35,34h1.5v14.7C36.6,49.5,37.2,50.2,38,50.2z
		 M41.6,24.7l4,6.4h-0.3c-0.8,0-1.5,0.7-1.5,1.5v14.7h-4.3V32.6c0-0.8-0.7-1.5-1.5-1.5h-0.3L41.6,24.7z"/>
</g>
<g>
	<path class="st0" d="M169.9,15.3c-0.2-0.2-0.5-0.3-0.8-0.2c-0.8,0.1-18.6,2.2-28.9,14.9c-1.3,1.5-2.4,3.3-3.4,5.1
		c-1.1-2.4-2.5-4.6-4.3-6.8c-10.3-12.6-28.1-14.7-28.9-14.9c-0.3,0-0.6,0.1-0.8,0.2c-0.2,0.2-0.4,0.5-0.4,0.8
		c-0.1,0.8-1.5,18.7,8.8,31.3s28.1,14.7,28.9,14.9c0.1,0,0.1,0,0.1,0l0,0l0,0c0,0,0,0,0.1,0c0,0,0,0,0.1,0s0.2,0,0.3-0.1
		c6.3-1.9,15-5.7,21.1-13.1c10.3-12.6,8.8-30.5,8.8-31.3C170.3,15.9,170.1,15.5,169.9,15.3z M112.8,44.2
		c-8.2-10.1-8.4-24.2-8.3-28.4c4.1,0.7,17.9,3.7,26.2,13.8c7.2,8.9,8.2,21,8.3,26.6l-23.8-29.2c-0.4-0.5-1.1-0.5-1.6-0.1
		s-0.5,1.1-0.2,1.6l23.9,29.2C131.8,56.6,120.1,53.1,112.8,44.2z M159.8,46c-5.3,6.4-12.7,10-18.4,11.9c0.1-1.3,0.1-3.2-0.1-5.5
		l18.1-22.1c0.4-0.5,0.3-1.2-0.1-1.6c-0.5-0.4-1.2-0.3-1.6,0.1l-16.6,20.4c-0.5-3.4-1.3-7.4-2.9-11.4c1.1-2.4,2.4-4.5,4-6.3
		c8.2-10.1,22-13.1,26.2-13.8C168.2,21.7,168,35.9,159.8,46z"/>
</g>
<g>
	<path class="st0" d="M38.9,134.1c1.5-1.5,3-3.2,4.3-5l-0.8,45.7h11.1L52.8,129c1.4,1.8,2.9,3.6,4.3,5c3.4,3.4,9.5,8.2,13.5,8.2
		c1,0,1.9-0.3,2.6-1c3.6-3.6-2.9-11.8-7.2-16.1c-3.3-3.3-8-7-11.7-7.9c0.1-0.7,0.1-1.5,0-2.2l0,0c3.7-1,8.4-4.6,11.7-7.9
		c4.3-4.3,10.8-12.6,7.2-16.1c-1-1-3.1-1.8-7.4,0.5C63.1,93,60,95.4,57,98.3c-3.3,3.3-7,8-7.9,11.7c-0.7-0.1-1.5-0.1-2.2,0l0,0
		c-1-3.7-4.6-8.4-7.9-11.7c-3-3-6.1-5.3-8.8-6.8C26,89.3,23.8,90,22.8,91s-1.8,3.1,0.5,7.4c1.5,2.8,3.9,5.8,6.8,8.8
		c3.3,3.3,8,7,11.7,7.9c-0.1,0.7-0.1,1.5,0,2.2l0,0c-3.7,1-8.4,4.6-11.7,7.9c-3,3-5.3,6.1-6.8,8.8c-2.3,4.2-1.5,6.4-0.5,7.4
		c0.7,0.7,1.6,1,2.6,1C29.4,142.3,35.4,137.6,38.9,134.1z M50,171.3h-4.1l0.9-48.8v-0.1c0.3,0.1,0.7,0.1,1.1,0.1
		c0.3,0,0.7,0,1.1-0.1l0,0v0.1L50,171.3z M70.8,138.9c-0.9,0.2-5.5-1.4-11.3-7.2c-4-4-6.2-7.6-6.9-9.7v-1.4l0.2-0.2
		c1.8,0.2,6.1,2.4,10.8,7.2C69.4,133.4,71,138,70.8,138.9z M59.4,100.5c5.8-5.8,10.3-7.4,11.3-7.2c0.2,0.9-1.4,5.5-7.2,11.3
		c-4.8,4.8-9,7-10.8,7.2l-0.5-0.5C52.5,109.5,54.6,105.2,59.4,100.5z M48,113.1c0.6,0,1.3,0.2,1.7,0.6c0.7,0.5,1.1,1.1,1.3,1.9
		c0.2,1.6-0.8,3.2-2.4,3.4c-0.8,0.1-1.6,0-2.3-0.5c-0.7-0.5-1.1-1.1-1.3-1.9c-0.1-0.8,0-1.6,0.5-2.3s1.1-1.1,2-1.3
		C47.6,113.1,47.8,113.1,48,113.1z M25.2,93.3c0.9-0.2,5.5,1.4,11.3,7.2c4.8,4.8,7,9,7.2,10.8l-0.5,0.5c-1.8-0.2-6.1-2.4-10.8-7.2
		C26.6,98.8,24.9,94.2,25.2,93.3z M25.2,138.9c-0.2-0.9,1.4-5.5,7.2-11.3c4.8-4.8,9-7,10.8-7.2l0.2,0.2v1.4
		c-0.7,2.2-2.9,5.7-6.9,9.7C30.7,137.5,26.1,139.1,25.2,138.9z"/>
	<path class="st0" d="M120.6,83.5c2.3-4.2,1.5-6.4,0.5-7.4c-1-1-3.1-1.8-7.4,0.5c-2.8,1.5-5.8,3.9-8.8,6.8c-3.3,3.3-7,8-7.9,11.7
		l0,0c-0.7-0.1-1.5-0.1-2.2,0c-1-3.7-4.6-8.4-7.9-11.7c-3-3-6.1-5.3-8.8-6.8c-4.2-2.2-6.4-1.5-7.4-0.5c-1,1-1.8,3.1,0.5,7.4
		c1.5,2.8,3.9,5.8,6.8,8.8c3.3,3.3,8,7,11.7,7.9l0,0c-0.1,0.8-0.1,1.5,0,2.2c-3.7,1-8.4,4.6-11.7,7.9c-3,3-5.3,6.1-6.8,8.8
		c-2.3,4.2-1.5,6.4-0.5,7.4c0.6,0.6,1.4,1,2.6,1c1.1,0,2.8-0.3,4.7-1.5c2.8-1.5,5.8-3.9,8.8-6.8c1.5-1.5,3.1-3.2,4.3-5l-0.9,60.6
		h11.1l-0.9-60.6c1.4,1.8,2.9,3.6,4.3,5c3,3,6.1,5.3,8.8,6.8c2.1,1,3.6,1.5,4.7,1.5c1.3,0,2.1-0.5,2.6-1c1-1,1.8-3.1-0.5-7.4
		c-1.5-2.8-3.9-5.8-6.8-8.8c-3.3-3.3-8-7-11.7-7.9l0,0c0.1-0.8,0.1-1.5,0-2.2c3.7-1,8.4-4.6,11.7-7.9
		C116.7,89.3,119.1,86.2,120.6,83.5z M95.7,98.3c0.2,0,0.3,0,0.6,0c0.8,0.1,1.5,0.6,1.9,1.3s0.7,1.5,0.5,2.3
		c-0.1,0.8-0.6,1.5-1.3,1.9s-1.5,0.7-2.3,0.5c-0.8-0.1-1.5-0.6-1.9-1.3s-0.7-1.5-0.5-2.3c0.1-0.8,0.6-1.5,1.3-1.9
		C94.6,98.5,95.1,98.3,95.7,98.3z M72.9,78.4c0.9-0.2,5.5,1.4,11.3,7.2c4.8,4.8,7,9,7.2,10.8L91,96.9c-1.8-0.2-6.1-2.4-10.8-7.2
		C74.3,83.9,72.7,79.5,72.9,78.4z M84.3,116.9c-5.8,5.8-10.3,7.4-11.3,7.2c-0.2-0.9,1.4-5.5,7.2-11.3c4.8-4.8,9-7,10.8-7.2l0.2,0.2
		v1.4C90.4,109.2,88.3,112.9,84.3,116.9z M97.8,171.3h-4.1l0.9-63.7v-0.1l0,0c0.3,0.1,0.7,0.1,1.1,0.1c0.3,0,0.8,0,1.1-0.1
		c0,0,0,0,0,0.1L97.8,171.3z M118.6,124.1c-0.9,0.2-5.5-1.4-11.3-7.2c-4-4-6.2-7.7-6.9-9.7v-1.4l0.2-0.2c1.8,0.2,6.1,2.4,10.8,7.2
		C117.2,118.6,118.8,123.1,118.6,124.1z M100.5,97l-0.5-0.5c0.2-1.8,2.4-6.1,7.2-10.8c5.8-5.8,10.3-7.4,11.3-7.2
		c0.2,0.9-1.4,5.5-7.2,11.3C106.6,94.6,102.4,96.8,100.5,97z"/>
</g>
<path class="st0" d="M225.7,483.3c-0.1,0-0.1,0.1-0.1,0.2c0.2-4.2,1.2-9.2,2.1-14.1c1.8-9.3,3.5-18,0.8-23.3
	c-1.9-3.6-4.1-5.4-6.5-5.4c0,0,0,0-0.1,0c-3.1,0-5.3,2.8-6.2,4.2c-6.4-6.1-16.6-5.4-30-4.4c-4.1,0.3-8.4,0.6-13.1,0.8
	c-12.8,0.5-17-2-18.4-3.5c-0.9-0.9-0.8-1.7-0.8-1.8c0.1-0.3,0-0.5-0.1-0.8c2.1-1.7,3.2-4.1,3.3-6.4c0.2-3.7-1.9-6.7-5.1-7.2
	c-2.3-0.4-4.6,0.5-6.5,1.7c-1.3-0.8-5.6-2.9-9.6-0.2c-1,0.7-3.3,1.6-5.7,2.6c-6.6,2.7-15.6,6.4-18,11.8c-1.3,3-3.2,8.5-0.8,12.1
	c0.8,1.2,2.5,2.7,5.8,2.7c2,0,3.4-0.8,4.7-1.5c1.8-1,3.7-2,8.5-1.2c1.2,1.7,5,8.6,3.9,23.5c-1,13.9,3.4,19.5,6.1,21.5
	c1.7,1.3,3.6,2,5.6,2c0.8,0,1.6-0.1,2.4-0.4c0.9,2.4,1.8,5.4,2.2,8.8c0.4,2.5,0.7,4.7,0.9,6.6c0.7,4.9,1.1,7.9,1.7,9.9
	c0.5,1.4,1.6,2.4,3.2,2.8c0.5,0.1,0.9,0.2,1.4,0.2c2,0,4.1-0.8,5.5-2.3c1.5-1.5,1.7-3.5,1.8-5.9c0.2-2.2,0.4-5,1.6-8.9
	c1.3-4.2,2-8.4,2.1-12.5c3.3-1,14-4,23.5-3c1.1,1.9,2.3,3.7,3.9,5.8c3.1,4.1,3.3,11.6,3.4,16.5c0.1,3.3,0.1,5.2,0.7,6.3
	c1.1,2.2,3.7,3.1,5.9,3.1c0.2,0,0.4,0,0.5,0c2.2-0.2,3.8-1.2,4.4-2.9c0.3-0.8,0.3-2.4,0.3-6.1c0-8.2,0.1-25.4,5.8-32.7
	c8.5-10.7,9.1-21.4,1.8-33.6c-0.2-0.4-0.4-0.7-0.7-1c0.1-0.1,0.2-0.2,0.3-0.3c0.6-1,2.2-3.2,3.7-3.2c0,0,0,0,0,0
	c1.1,0,2.4,1.3,3.5,3.6c2.2,4.2,0.5,12.8-1.1,21.1c-2,10.1-3.8,19.6-0.1,24.9c1.9,2.7,3.7,4,5.3,4c0.2,0,0.3,0,0.5,0
	c1.1-0.2,2-1,2.4-2.4c0.9-3-0.6-8.5-4.3-12C227.4,482.6,226.3,482.6,225.7,483.3z M214,480c-6.5,8.2-6.5,25.5-6.6,34.8
	c0,2.2,0,4.6-0.1,5c-0.1,0.2-0.6,0.5-1.4,0.5c-1.3,0.1-2.8-0.5-3.2-1.2c-0.3-0.5-0.3-2.9-0.4-4.8c-0.1-5.7-0.3-13.5-4.1-18.5
	c-5-6.6-7.2-11.3-5.7-18.3c0.2-0.9-0.4-1.8-1.3-2c-0.9-0.2-1.8,0.4-2,1.3c-1,4.5-0.7,8.1,0.7,11.7c-8.9-0.4-18,1.9-21.9,3
	c-0.2-2.4-0.5-4.8-1.1-7.1c-0.2-0.9-1.2-1.5-2.1-1.2c-0.9,0.2-1.5,1.2-1.2,2.1c1.8,7,1.5,14-0.8,21.3c-1.3,4.3-1.6,7.4-1.7,9.7
	c-0.1,2.1-0.3,3.1-0.8,3.7c-0.9,0.9-2.6,1.5-3.7,1.2c-0.6-0.1-0.7-0.4-0.7-0.5c-0.6-1.7-0.9-4.5-1.6-9.3c-0.3-1.9-0.6-4.1-0.9-6.7
	c-1.3-9.2-5.2-15.8-5.4-16c-0.5-0.8-1.5-1.1-2.3-0.6s-1.1,1.5-0.6,2.3c0,0,0.6,1,1.4,2.7c-1.5,0.4-3.1,0-4.6-1.1
	c-3.6-2.8-5.4-9.6-4.7-18.6c0.9-12.1-1.4-19.5-3.2-23.2c7.7,0.4,11.4-2.8,11.6-3c0.7-0.6,0.8-1.7,0.1-2.4c-0.6-0.7-1.7-0.8-2.4-0.1
	c0,0-3.9,3.2-12.2,1.7c-6.5-1.2-9.2,0.3-11.4,1.5c-1.1,0.6-1.8,1-3,1c-2.2,0-2.8-0.9-3-1.2c-1-1.6-0.6-4.9,1.1-8.8
	c1.8-4.2,10.4-7.7,16.1-10c2.8-1.1,5-2,6.3-2.9c1.7-1.1,3.6-0.8,4.8-0.3c-1.8,1.8-3.1,3.5-3.3,3.9c-0.5,0.8-0.3,1.8,0.4,2.4
	c0.8,0.5,1.8,0.3,2.4-0.4c1.4-2,5.8-7.1,9.4-6.5c1.6,0.3,2.3,2,2.2,3.6c-0.1,2.5-2.2,5.6-7.6,5.8c-0.9,0-1.7,0.8-1.6,1.8
	c0,0.9,0.8,1.6,1.7,1.6c0,0,0,0,0.1,0c1.6-0.1,3-0.4,4.3-0.8c0.1,0.8,0.5,1.8,1.4,2.8c3,3.6,10.2,5.2,21.3,4.8
	c4.7-0.2,9.2-0.5,13.2-0.8c15-1.1,24.9-1.9,29.7,6.4C222.1,461.3,221.6,470.5,214,480z M229.2,494c-0.4-0.3-1.1-0.9-2.2-2.4
	c-1.1-1.5-1.5-3.6-1.5-6.2c0.1,0.1,0.2,0.2,0.3,0.3C228.7,488.5,229.5,492.6,229.2,494z"/>
<path class="st0" d="M190.4,38.4c0.9,0.7,20.5,17.8,33.9,20.4c0.7,4.8,1.2,11.6,0,18.3c-0.1,0.7,0.2,1.4,0.7,1.8
	c1.6,1.1,4.3,2.4,6.9,2.4c1.6,0,3.1-0.5,4.4-1.7c2-2,2.2-5.2,2.4-8.6c0.2-2.9,0.3-6,1.8-7.6c0.1-0.1,0.2-0.2,0.3-0.3
	c1.2,0.2,7.6,1.5,13.8,1.5c2.3,0,4.6-0.2,6.5-0.7c0,0.6,0.1,1.2,0.1,1.8c0,3.7-0.3,6.6-0.6,9c-0.4,3.4-0.6,5.7,0.5,7.3
	c1.1,1.5,4.1,2.2,7,2.2c0.8,0,1.6-0.1,2.3-0.2c2.9-0.5,4.9-1.9,5.5-3.9c0.6-2,0.4-4.8,0.1-8c-0.4-3.9-0.8-8.8,0.9-10.6
	c0.6-0.7,1.9-1.1,3.5-1.6c5.3-1.8,13.3-4.4,14-23.3c0.1-3.7-0.3-7.3-1.4-10.6c0,0,0,0,0,0c0.8-0.5,2.3-1.3,4.1-1.7
	c-0.8,2-0.8,4.2,0,6.2c1.6,4,4.8,6.8,7.6,6.8c0.4,0,0.8-0.1,1.2-0.2c1.6-0.5,4-2.4,2.3-9.5c-0.7-2.6-1.9-4.6-3.6-5.8
	c1.8-0.6,4-0.6,6.2,1c0.8,0.6,1.9,0.4,2.5-0.4s0.4-1.9-0.4-2.5c-4.4-3.2-9.5-2.2-12.6,0.2c-0.1,0.1-0.2,0.2-0.3,0.3
	c-3.5-0.1-6.9,1.6-8.3,2.3c-2.3-5.3-6.1-9.8-11.1-13.1c-8-5.4-26.1-12.2-57.4,2.1c-5.4-9.4-14.9-9.6-15-9.6c-1,0-1.8,0.8-1.8,1.8
	c0,4.6,0.9,9.7,1.8,13.7c-0.4,0.2-0.7,0.5-0.8,1c-0.1,0.2-2.3,5.9-15.2,5.1c-0.9-0.1-1.7,0.6-1.9,1.5c-0.1,0.3-1.4,7.6-0.4,12.3
	C189.9,37.8,190.1,38.1,190.4,38.4z M301.3,24.1c0.1,0,0.3,0.1,0.4,0.1c1.5,0.6,2.5,2,3,4.2c1,4,0.3,5.2,0.1,5.2
	c-0.6,0.2-3-1.1-4.3-4.5C299.7,27.2,300.3,25.5,301.3,24.1z M193.6,27.2c9.4,0.2,13.8-2.9,15.8-5.2c0.4,1.5,0.7,2.4,0.7,2.5
	c0.2,0.8,0.9,1.3,1.7,1.3c0.2,0,0.4,0,0.6-0.1c0.9-0.3,1.5-1.3,1.2-2.3c0-0.1-3-9.4-3.4-17.6c3.4,0.7,10.4,3.5,12.5,14.5
	c0.2,1,1.1,1.6,2.1,1.4c1-0.2,1.6-1.1,1.4-2.1c-0.4-1.8-0.8-3.4-1.4-4.8C246.4,4.9,266,4,278.6,12.5c8.1,5.4,12.5,14.2,12.1,24
	c-0.6,16.4-6.7,18.4-11.6,20c-1.9,0.6-3.8,1.2-5,2.6c-2.7,3-2.2,8.5-1.8,13.3c0.2,2.6,0.5,5.3,0.1,6.6c-0.3,0.8-1.2,1.2-2,1.3
	c-2.7,0.7-6,0-6.5-0.5c-0.3-0.5,0-2.8,0.2-4.7c0.3-2.5,0.6-5.6,0.6-9.4c0-8.9-4.1-16.3-4.3-16.6c-0.5-0.9-1.6-1.2-2.4-0.7
	c-0.9,0.5-1.2,1.6-0.7,2.4c0,0,2.2,4,3.3,9.5c-0.1,0-0.2,0-0.4,0c-5.4,1.4-14.5-0.1-17.7-0.7c0.6-2.4-0.2-4.8-1-7.2
	c-0.4-1.1-0.8-2.2-1.1-3.4c-0.2-1-1.2-1.5-2.2-1.3c-1,0.2-1.6,1.2-1.3,2.2c0.4,1.4,0.8,2.6,1.2,3.7c1.2,3.5,1.6,5-0.3,7.2
	c-2.3,2.5-2.5,6.4-2.6,9.8c-0.1,2.6-0.3,5.2-1.3,6.3c-1.4,1.4-4.1,0.3-5.7-0.5c1.9-12.4-1.4-24.6-1.6-25.1c-0.3-1-1.3-1.5-2.2-1.3
	c-0.9,0.3-1.5,1.3-1.3,2.2c0,0,0.3,1,0.6,2.7c-11.3-3-27.4-16.4-30.4-18.9C192.9,33.2,193.3,29.3,193.6,27.2z"/>
<path class="st0" d="M89.3,223.1c-2.9,4.3-2.9,8.8-1.5,11.3c0.8,1.4,1.9,2.2,3.2,2.2c0,0,0.1,0,0.1,0c0.8,0,2.2-0.4,3.3-2.6
	c1.4-3.1,0.8-9.1,0-15.4c-0.6-4.9-1.2-10-0.7-13.4c0.2-1.4,0.8-3.3,2.1-4.1c1.2-0.7,2.7-0.2,2.8-0.2c-0.1,0.4-0.1,0.7-0.2,1.1
	c-2,15.2,2.2,19.8,5.2,23.2c1.1,1.3,1.9,2.1,2.2,3.3c0.7,3.3,0.8,11.4,0.9,17.3c0.1,4.1,0.1,6.4,0.3,7.2c0.5,2.5,4.6,3.2,7.2,3
	c3.7-0.4,4-2.6,4-3.3c0-0.6-0.1-1.6-0.3-3.1c-0.8-5.3-2.5-17.6,2.4-20.8c3.1-2.1,7.8-2.4,11.9-0.7c3.1,1.2,5.3,3.3,5.9,5.6
	c1.5,6.3,2.3,17.8,2.3,19.4c0,2,2.5,3,5,3c3.1,0,5-1.6,5-4.2v-1c-0.1-20,2.1-22.9,2.7-23.3c0.9-0.5,2-1,3.2-1.5
	c3.9-1.6,9.3-3.7,9.9-10.2c0.1-1.3,0.3-2.8,0.4-4.3c0.5-6.8,1.2-15.2,4.7-19.3c0.2-0.2,0.3-0.4,0.3-0.6c0.4,0.1,0.9,0.1,1.3,0.1
	c0.4,0,0.8,0,1.2-0.1c3.1-0.3,5.3-0.4,6.9-0.4c3.1-0.1,4.7-0.2,6.3-1.5c1.6-1.3,1.8-2.8,1.9-3.9c0.1-0.7,0.1-1.1,0.3-1.4
	c1.4-1.9-0.6-3.6-2-4.7c-1.4-1.1-3.1-2.6-3.6-4.4c-1.3-4.6-6.6-10.4-10.1-12.2c-3.4-1.7-9.4-2.1-13.1,1.8
	c-4.5-3.1-10.7-6.5-17.2-7.4c-5-0.7-6.1,1.5-6.3,2.8c-0.6,3.6,5.2,9.7,12.8,13.4c-0.1,0.2-0.1,0.5-0.1,0.8c0,0.1,1.1,6.6-2,10.9
	c-1.5,2-3.8,3.2-6.8,3.6c-3.3,0.4-7.6-0.1-12.3-0.5c-11.5-1.2-25.6-2.7-29.7,9.4c-0.9-0.3-3.1-0.7-5.1,0.5c-1.9,1.1-3.1,3.2-3.6,6.3
	c-0.6,3.8,0.1,9.1,0.7,14.2c0.2,1.3,0.3,2.7,0.4,4c-0.1-0.1-0.2-0.1-0.2-0.2C90.8,222.2,89.8,222.4,89.3,223.1z M101.5,202.4
	c1.7-12.5,12.3-12.4,27.2-10.8c4.8,0.5,9.3,1,12.9,0.5c3.9-0.5,6.9-2.1,8.9-4.8c3.1-4.2,2.9-9.8,2.7-12.1c1.6,0.6,3.3,1.1,5,1.4
	c0.1,0,0.2,0,0.3,0c0.7,0,1.4-0.5,1.5-1.3c0.2-0.8-0.4-1.6-1.2-1.8c-8.7-1.6-16.4-7.8-18.2-11.5c-0.3-0.7-0.3-1.1-0.3-1.1
	c0,0,0.5-0.5,2.8-0.2c11,1.5,21.9,11.5,22,11.6c0.6,0.6,1.6,0.6,2.2-0.1s0.6-1.6-0.1-2.2c-0.2-0.1-1.6-1.5-3.9-3.2
	c2.7-2.4,6.8-2,9.1-0.8c2.9,1.5,7.5,6.6,8.5,10.3c0.8,2.8,3,4.6,4.6,5.9c0.4,0.3,0.9,0.7,1.2,1c-0.5,0.9-0.5,1.7-0.6,2.4
	c-0.1,1-0.1,1.4-0.7,1.8c-0.8,0.6-1.6,0.7-4.5,0.8c-1.7,0.1-3.9,0.1-7.1,0.4c-7.1,0.6-9.1-6.3-9.2-6.6c-0.2-0.8-1.1-1.3-1.9-1.1
	c-0.8,0.2-1.3,1.1-1.1,1.9c0.7,2.4,2.8,6.3,6.9,8.1c-3.8,4.9-4.4,13.5-5,20.5c-0.1,1.5-0.2,2.9-0.4,4.2c-0.5,4.6-4.3,6.1-8,7.6
	c-1.3,0.5-2.6,1-3.7,1.7c-3.1,1.8-4.3,9.6-4.3,25.9v1c0,0.4-0.1,0.6-0.6,0.8c-1,0.5-2.7,0.2-3.3-0.1c-0.1-2.8-0.9-13.4-2.4-19.7
	c-0.8-3.3-3.6-6.1-7.7-7.8c-5.1-2-10.8-1.6-14.8,1c-6.5,4.3-4.6,17.5-3.7,23.9c0.2,1,0.3,2,0.3,2.5c-0.2,0.1-0.9,0.4-2,0.3
	c-1.5,0-2.7-0.4-3.1-0.7c-0.1-0.9-0.1-3.8-0.2-6.4c-0.1-6-0.2-14.3-1-17.9c-0.4-2-1.6-3.4-2.9-4.8
	C103.1,220.1,99.7,216.2,101.5,202.4z M91.9,224.8C91.9,224.8,91.9,224.8,91.9,224.8c0.3,3.4,0.3,6.3-0.4,7.8
	c-0.3,0.7-0.6,0.8-0.6,0.8c0,0-0.4-0.3-0.7-1.2C89.7,230.6,89.9,227.8,91.9,224.8z"/>
<path class="st0" d="M525.1,328.5c-0.9,0.6-1,1.8-0.4,2.7c1.3,1.8,1.3,4.2,0.9,5.8c-0.3,1.2-0.8,1.8-0.8,1.8c0,0-0.5-0.2-1.2-1.5
	c-1.5-2.9-0.2-7,1.5-12.1c1.8-5.5,4-12.4,3.5-20.7c-0.8-13.5-7.8-16.4-11-17c-3.8-13.5-12.2-12.7-24.8-11.3c-4.4,0.5-9.4,1-15.1,1.1
	c-14.5,0.3-25.2-3.7-28.9-5.4c2.8-2.4,5-5.1,5.1-7.8c0.1-1.9-0.8-4.6-5.2-6.3c-4.3-1.7-8-1.8-11.1-0.1c-1.4,0.7-2.5,1.7-3.4,2.7
	c-13-3.7-19.3,7.9-21.4,11.7c-1.6,3-4.4,5-6.8,6.7c-1.5,1.1-2.8,2-3.6,3.1c-2.1,2.6,0.6,7.5,2.8,10.2c2.1,2.5,4.4,3.8,6.4,3.8
	c0.8,0,1.6-0.2,2.3-0.6c3-1.7,4.6-2,9.7-2.1c1.4,2.3,8.4,13.7,10,22.4c1.8,9.7,5.2,19.4,16.1,19.4c0.3,0,0.6,0,0.9,0
	c1,4.1,1.8,8.8,1.7,13.3c-0.2,6.4-1.1,9.5-1.6,11.3c-0.6,2.2-0.9,3.7,1.4,5.6c1.1,0.9,3.6,2.7,6.5,2.7c0.5,0,0.9,0,1.4-0.2
	c1.3-0.3,3.1-1.2,4.2-3.8c1-2.3,1.2-9.2,1.4-20.2c0.1-3.7,0.1-7.5,0.3-11.1c14.9-9.2,25.6-1,26.1-0.6c0.1,0.1,0.3,0.1,0.4,0.2
	c0.1,0.5,0.3,1,0.3,1.5c0.9,4.6,0.4,13.6,0.1,20.2c-0.2,4.8-0.3,7.6-0.1,9c0.3,2.3,2.5,4.1,5.7,4.8c0.8,0.2,1.8,0.3,2.7,0.3
	c2.2,0,4.4-0.6,5.6-2.4c2.3-3.5,3.7-14.1,2.7-21.5c-0.1-1.1-0.3-2.2-0.5-3.3c-1-5.7-1.7-9.8,3.3-14.8c7.5-7.5,9.6-19,6.5-34.3
	c2.3,1.1,5.6,4.2,6.1,12.9c0.5,7.5-1.6,13.8-3.4,19.3c-1.9,5.8-3.5,10.8-1.2,15.1c1.5,2.9,3.3,3.5,4.5,3.5c0,0,0,0,0,0
	c1.5,0,3-1,3.8-2.8c1.4-2.8,1.6-7.5-0.8-10.9C527.2,328.1,526,327.9,525.1,328.5z M509.6,323.4c-6.4,6.4-5.4,12.4-4.4,18.1
	c0.2,1,0.4,2.1,0.5,3.1c1,7.1-0.6,16.6-2.1,18.8c-0.3,0.5-2.1,1-4.3,0.5c-1.9-0.4-2.7-1.3-2.8-1.6c-0.1-1.1,0-4.6,0.2-8.3
	c0.3-7.1,0.8-16-0.2-21.1c-1.5-7.9-8.1-20.2-8.4-20.7c-0.5-0.9-1.7-1.3-2.6-0.8s-1.3,1.7-0.8,2.6c0,0.1,3.4,6.4,5.9,12.7
	c-4.8-2.2-13.7-4.5-24.5,1.2c0.2-3.9,0.6-7.2,1.1-9c0.3-1-0.3-2.1-1.3-2.4c-1-0.3-2.1,0.3-2.4,1.3c-1.3,4.5-1.5,15.3-1.7,25.7
	c-0.1,7.6-0.3,17-1.1,18.7c-0.6,1.4-1.3,1.5-1.6,1.6c-1.1,0.3-2.9-0.4-4.5-1.8c-0.3-0.2-0.4-0.4-0.5-0.4c0-0.2,0.2-0.7,0.3-1.2
	c0.5-1.9,1.5-5.3,1.8-12.2c0.5-13.8-6.6-28.1-6.9-28.8c-0.5-1-1.6-1.3-2.6-0.9s-1.3,1.6-0.9,2.6c0,0.1,2,4.1,3.8,9.8
	c-6.5-0.1-10-4.8-12.2-16.3c-1.5-7.8-6.7-17.3-9.3-21.7c0.4,0,0.8,0,1.2,0c9.2,0,13.1-7,13.9-10.6c0.2-1-0.5-2-1.5-2.3
	s-2.1,0.5-2.3,1.5c-0.1,0.3-1.7,7.6-10.1,7.6c-10.1,0-12.5,0-17.2,2.6c-0.7,0.4-1.9-0.4-2.3-0.8c-2.6-2-4.4-5.9-4.3-7
	c0.6-0.6,1.6-1.4,2.8-2.3c2.6-1.9,5.8-4.2,7.9-8c3.1-5.7,7.7-11.9,15.9-10.2c-0.5,1.1-0.7,2-0.8,2.1c-0.3,1,0.4,2.1,1.4,2.3
	c1,0.3,2.1-0.4,2.3-1.4c0,0,1.1-4,4.4-5.7c2.1-1.1,4.8-1,7.9,0.3c1.9,0.8,2.9,1.6,2.8,2.6c-0.2,3.7-9.9,9.9-13.7,11
	c-1,0.3-1.6,1.4-1.3,2.4c0.3,0.8,1,1.4,1.8,1.4c0.2,0,0.4,0,0.5-0.1c1.4-0.4,4.7-2,7.9-4.1c0.1,0,0.1,0.1,0.2,0.2
	c0.5,0.3,13,6.8,32.1,6.5c6-0.1,11-0.7,15.5-1.1c13.2-1.4,18.2-1.9,21,9.7C518.1,305.2,516.5,316.5,509.6,323.4z"/>
<path class="st0" d="M112.8,302.9c-0.5-1.8-1.1-3.5-1.9-5.4c-7.7-16.9-28.4-20.1-37.3-19c-2.4,0.3-4.2,0-5.3-0.9
	c-2.1-1.7-2.7-5.7-3.3-11.2c-1.1-9.9-13.6-18.4-14.1-18.7c-0.6-0.4-1.4-0.3-1.9,0.1c-2.8,2.5-2.5,7.2-2.1,11
	c0.1,1.2,0.2,2.8,0.1,3.6c-4.1,0.1-12.7,0.9-15,7.2c-1.1,2.9-2.4,4.5-3.4,5.7c-1,1.1-1.8,2.2-1.8,3.6c0,3.1,4.6,6.6,7.6,8.1
	c2.1,1,4.9,1,7.7,0.9c1.8,0,3.5-0.1,5,0.1c0,0.8-0.1,2.3-0.2,3.5c-0.4,4-1,9.6,1.5,13c1.2,1.7,2.7,3.2,4.2,4.6
	c3.1,3,5.8,5.5,4.9,9.7c-1.2,5.6-2.1,8.8-2.4,9.8c-4.4,3.9-6.3,6.8-5.7,8.6c0.2,0.6,0.9,1.6,2.8,1.6h19.7c0.6,0,1.1-0.3,1.4-0.8
	c7.9,0.6,22.5-0.6,28.3-3.5c5-2.5,11.2-10.6,12.2-21c7.9,1,12.1,3.9,12.6,6.1c0.3,1.4-0.9,2.6-2.1,3.3c-1.6,1-3.4,2-5.2,3
	c-6.3,3.6-10.1,5.9-10,8.8c0.1,1.4,1.1,2.5,2.9,3.3c0.7,0.3,1.9,0.5,3.3,0.5c4.2,0,10.8-1.5,15.6-4.7c5-3.3,7.6-7.9,7.6-13.3
	C138.4,306.4,116.7,303.4,112.8,302.9z M99.9,332c-7.1,3.5-27.7,3.8-30.2,2.6c-0.8-0.4-0.7-1.2-0.6-1.5c0.3-1.4,2-2.8,5.1-2.8
	c0.5,0,1-0.3,1.3-0.7s0.3-1,0.2-1.4c0-0.1-3.1-8.4,0.4-14.9c2.1-3.8,6.1-6.2,11.8-7.4c0.8-0.2,1.4-1,1.2-1.8c-0.2-0.8-1-1.4-1.8-1.2
	c-6.7,1.3-11.4,4.3-14,8.9c-3.2,5.7-2.1,12.3-1.2,15.5c-3.5,0.6-5.6,2.8-6.1,5c-0.3,1.3-0.1,2.6,0.6,3.6H52.4c0.7-1.2,2.7-3.3,4.7-5
	c0.2-0.2,0.4-0.4,0.5-0.7c0-0.1,1.1-3.3,2.6-10.5c1.3-5.9-2.5-9.5-5.8-12.6c-1.4-1.3-2.8-2.7-3.8-4.1c-1.8-2.5-1.3-7.4-0.9-11
	c0.4-3.6,0.6-6.2-1.5-6.7c-1.9-0.5-4.2-0.4-6.4-0.4c-2.4,0.1-4.9,0.1-6.2-0.6c-3.3-1.7-5.9-4.4-5.9-5.3c0-0.3,0.5-0.9,1.1-1.6
	c1.1-1.3,2.7-3.2,4-6.6c1.8-4.8,10-5.2,12.5-5.2c0.7,0,1.4-0.3,1.8-0.8c1.1-1.2,0.9-3.3,0.7-6.2c-0.2-2.4-0.5-5.6,0.4-7.5
	c3,2.3,10.8,8.7,11.6,15.6c0.7,6.3,1.4,10.9,4.5,13.3c1.8,1.4,4.3,1.9,7.6,1.5c7.8-1,27.2,2,34.1,17.2
	C115,314.2,106.3,328.8,99.9,332z M129.1,331.7c-6.3,4.1-14.5,4.5-15.9,3.9c-0.8-0.4-1-0.6-1.1-0.6l0,0c0.2-1.3,5.3-4.2,8.4-5.9
	c1.8-1,3.7-2.1,5.3-3.1c3.8-2.4,3.8-5.2,3.4-6.6c-1-4.2-6.9-7.5-15.5-8.5c0-1.5-0.1-3-0.3-4.6c5.2,0.7,21.9,3.9,21.9,14.8
	C135.3,325.3,133.2,328.9,129.1,331.7z"/>
<path class="st0" d="M398.2,146.6c-3.8,5.6-3.8,11.4-2,14.7c1,1.8,2.5,2.8,4.1,2.8c0,0,0.1,0,0.1,0c1,0,2.9-0.5,4.2-3.4
	c1.9-4.1,1-11.8,0-20c-0.8-6.4-1.5-13-0.9-17.4c0.3-1.9,1-4.3,2.7-5.3c1.6-0.9,3.6-0.2,3.6-0.2c-0.1,0.5-0.2,0.9-0.2,1.4
	c-2.6,19.8,2.8,25.8,6.8,30.2c1.5,1.6,2.5,2.8,2.9,4.4c0.9,4.3,1.1,14.8,1.2,22.5c0.1,5.4,0.1,8.3,0.3,9.3c0.6,3.2,6,4.2,9.4,3.9
	c4.8-0.5,5.2-3.4,5.2-4.3c0-0.8-0.2-2.1-0.5-4c-1-6.9-3.3-22.9,3.1-27.1c4-2.7,10.1-3.1,15.5-0.9c4.1,1.6,6.9,4.3,7.6,7.3
	c1.9,8.3,3,23.2,3,25.3c0,2.6,3.3,3.9,6.6,3.9c4,0,6.6-2.1,6.6-5.4v-1.3c-0.1-26,2.7-29.8,3.6-30.3c1.1-0.7,2.6-1.3,4.2-1.9
	c5.1-2,12-4.8,12.9-13.3c0.2-1.7,0.3-3.6,0.5-5.6c0.7-8.8,1.5-19.8,6.1-25.1c0.2-0.3,0.3-0.5,0.4-0.8c0.6,0.1,1.1,0.1,1.7,0.1
	c0.5,0,1,0,1.6-0.1c4-0.4,6.9-0.5,9-0.5c4.1-0.1,6.1-0.2,8.3-1.9c2.1-1.7,2.3-3.7,2.4-5.2c0.1-0.9,0.1-1.4,0.4-1.8
	c1.9-2.5-0.7-4.6-2.6-6.2c-1.8-1.5-4-3.3-4.6-5.7c-1.6-6-8.5-13.6-13.2-15.9c-4.4-2.2-12.2-2.7-17.1,2.3c-5.8-4-14-8.5-22.5-9.6
	c-6.5-0.9-7.9,1.9-8.2,3.7c-0.8,4.8,6.8,12.6,16.7,17.4c-0.1,0.3-0.2,0.6-0.1,1c0,0.1,1.5,8.6-2.6,14.2c-1.9,2.6-4.9,4.2-8.8,4.7
	c-4.3,0.5-10-0.1-16-0.7c-15-1.6-33.3-3.5-38.6,12.3c-1.1-0.3-4-0.9-6.6,0.6c-2.5,1.4-4.1,4.2-4.7,8.2c-0.7,4.9,0.1,11.8,0.9,18.5
	c0.2,1.7,0.4,3.5,0.6,5.2c-0.1-0.1-0.2-0.2-0.3-0.3C400.1,145.5,398.8,145.7,398.2,146.6z M414,119.7c2.1-16.3,16-16.1,35.4-14.1
	c6.2,0.7,12.1,1.3,16.9,0.7c5.1-0.6,9-2.7,11.6-6.3c4-5.5,3.8-12.7,3.5-15.8c2.1,0.8,4.3,1.5,6.5,1.9c0.1,0,0.3,0,0.4,0
	c1,0,1.8-0.7,2-1.6c0.2-1.1-0.5-2.2-1.6-2.4C477.3,80,467.2,72,465,67.2c-0.5-0.9-0.4-1.4-0.4-1.5c0,0,0.6-0.7,3.7-0.3
	c14.3,1.9,28.5,15,28.7,15.1c0.8,0.8,2.1,0.7,2.9-0.1c0.8-0.8,0.7-2.1-0.1-2.8c-0.2-0.2-2.1-1.9-5.1-4.2c3.5-3.1,8.8-2.6,11.9-1.1
	c3.8,1.9,9.8,8.6,11.1,13.4c1,3.6,3.9,6,6,7.7c0.5,0.4,1.1,0.9,1.5,1.3c-0.6,1.1-0.7,2.2-0.8,3.2c-0.1,1.3-0.2,1.8-0.9,2.4
	c-1,0.8-2.1,0.9-5.9,1c-2.2,0.1-5.1,0.2-9.2,0.6c-9.3,0.8-11.9-8.2-12-8.6c-0.3-1.1-1.4-1.7-2.5-1.4c-1.1,0.3-1.7,1.4-1.4,2.5
	c0.9,3.2,3.7,8.2,8.9,10.5c-4.9,6.4-5.8,17.6-6.5,26.7c-0.1,2-0.3,3.8-0.5,5.5c-0.6,6-5.6,8-10.4,9.9c-1.7,0.7-3.4,1.4-4.8,2.2
	c-4,2.4-5.6,12.5-5.5,33.8v1.3c0,0.5-0.1,0.8-0.7,1.1c-1.4,0.6-3.5,0.2-4.4-0.2c-0.1-3.6-1.2-17.5-3.1-25.6c-1-4.3-4.7-8-10.1-10.1
	c-6.7-2.6-14.1-2.1-19.3,1.3c-8.5,5.6-6,22.8-4.9,31.1c0.2,1.4,0.4,2.6,0.4,3.3c-0.3,0.2-1.1,0.4-2.6,0.4c-2,0-3.6-0.6-4.1-0.9
	c-0.1-1.2-0.2-5-0.2-8.4c-0.1-7.8-0.3-18.6-1.3-23.3c-0.6-2.6-2.1-4.4-3.8-6.2C416.1,142.7,411.6,137.7,414,119.7z M401.5,148.9
	C401.5,148.9,401.5,148.9,401.5,148.9c0.4,4.4,0.4,8.2-0.5,10.1c-0.4,0.9-0.8,1.1-0.8,1.1c0,0-0.5-0.4-0.9-1.5
	C398.7,156.4,398.9,152.8,401.5,148.9z"/>
<path class="st0" d="M331.5,401.5c0.8,0.7,18.9,16.4,31.3,18.8c0.6,4.4,1.1,10.7,0,16.9c-0.1,0.6,0.1,1.3,0.7,1.6
	c1.5,1,4,2.2,6.4,2.2c1.5,0,2.9-0.4,4-1.6c1.9-1.9,2-4.8,2.2-8c0.1-2.7,0.3-5.5,1.6-7c0.1-0.1,0.1-0.2,0.2-0.3
	c1.1,0.2,7,1.4,12.7,1.4c2.1,0,4.2-0.2,6-0.6c0,0.6,0.1,1.1,0.1,1.7c0,3.4-0.3,6.1-0.6,8.3c-0.4,3.2-0.6,5.3,0.5,6.7
	c1,1.4,3.8,2.1,6.4,2.1c0.7,0,1.5,0,2.1-0.2c2.7-0.4,4.5-1.7,5.1-3.6c0.6-1.8,0.4-4.4,0.1-7.4c-0.3-3.6-0.7-8.1,0.8-9.8
	c0.6-0.6,1.8-1,3.2-1.5c4.9-1.6,12.3-4.1,13-21.5c0.1-3.4-0.3-6.7-1.3-9.8c0,0,0,0,0,0c0.7-0.4,2.1-1.2,3.8-1.6
	c-0.7,1.8-0.7,3.9,0,5.8c1.5,3.7,4.4,6.3,7,6.3c0.4,0,0.7,0,1.1-0.2c1.5-0.5,3.7-2.3,2.1-8.8c-0.6-2.5-1.7-4.3-3.3-5.4
	c1.7-0.6,3.7-0.5,5.7,0.9c0.7,0.5,1.8,0.4,2.3-0.4c0.5-0.7,0.4-1.8-0.4-2.3c-4-3-8.7-2-11.6,0.2c-0.1,0.1-0.2,0.2-0.3,0.2
	c-3.2-0.1-6.4,1.4-7.6,2.1c-2.1-4.8-5.6-9-10.3-12.1c-7.4-5-24.1-11.3-52.9,2c-5-8.7-13.8-8.8-13.9-8.8c-0.9,0-1.7,0.7-1.7,1.7
	c0,4.3,0.8,9,1.7,12.7c-0.3,0.2-0.6,0.5-0.8,0.9c-0.1,0.2-2.1,5.4-14.1,4.7c-0.9-0.1-1.6,0.5-1.7,1.4c0,0.3-1.3,7-0.4,11.4
	C331.1,400.9,331.3,401.3,331.5,401.5z M433.8,388.4c0.1,0,0.3,0.1,0.4,0.1c1.4,0.5,2.3,1.8,2.8,3.9c0.9,3.6,0.2,4.8,0.1,4.8
	c-0.5,0.2-2.8-1-4-4.2C432.4,391.2,432.9,389.6,433.8,388.4z M334.4,391.2c8.7,0.2,12.7-2.6,14.5-4.8c0.4,1.4,0.6,2.2,0.7,2.3
	c0.2,0.7,0.9,1.1,1.6,1.1c0.2,0,0.3,0,0.5-0.1c0.9-0.3,1.4-1.2,1.1-2.1c0-0.1-2.8-8.7-3.2-16.2c3.1,0.7,9.6,3.2,11.6,13.3
	c0.2,0.9,1,1.5,1.9,1.3c0.9-0.2,1.5-1,1.3-1.9c-0.3-1.6-0.8-3.1-1.3-4.4c20-9.2,38.1-10,49.7-2.2c7.5,5,11.5,13.1,11.2,22.2
	c-0.6,15.1-6.2,17-10.7,18.5c-1.8,0.6-3.5,1.1-4.6,2.4c-2.5,2.8-2,7.9-1.6,12.3c0.2,2.4,0.4,4.9,0,6.1c-0.2,0.7-1.1,1.1-1.8,1.3
	c-2.5,0.6-5.5,0-6-0.5c-0.3-0.4,0-2.6,0.2-4.4c0.3-2.3,0.6-5.1,0.6-8.7c0-8.2-3.8-15-3.9-15.3c-0.5-0.8-1.5-1.1-2.3-0.6
	c-0.8,0.5-1.1,1.5-0.6,2.3c0,0,2.1,3.7,3,8.7c-0.1,0-0.2,0-0.3,0c-5,1.3-13.4-0.1-16.4-0.6c0.6-2.2-0.2-4.4-0.9-6.6
	c-0.3-1-0.7-2-1-3.2c-0.2-0.9-1.1-1.4-2-1.2c-0.9,0.2-1.4,1.1-1.2,2c0.3,1.3,0.7,2.4,1.1,3.4c1.1,3.2,1.5,4.6-0.3,6.6
	c-2.1,2.4-2.3,5.9-2.5,9c-0.1,2.4-0.3,4.8-1.2,5.8c-1.3,1.3-3.8,0.3-5.3-0.5c1.7-11.5-1.3-22.7-1.5-23.2c-0.2-0.9-1.2-1.4-2-1.2
	s-1.4,1.1-1.2,2c0,0,0.3,1,0.6,2.5c-10.4-2.8-25.3-15.1-28.1-17.4C333.8,396.7,334.2,393.1,334.4,391.2z"/>
<path class="st0" d="M509.2,477.1c-1.7,0-3.4,0.3-5,0.8c-1.5,0.5-3.1,0.5-4.6,0c-1.6-0.5-3.3-0.8-5-0.8c-8.8,0-15.4,12.3-15.4,20.1
	c0,8.5,6.9,15.4,15.4,15.4c2.2,0,4.4-0.5,6.4-1.4v23c0,0.5,0.4,0.9,0.9,0.9s0.9-0.4,0.9-0.9v-23c2,0.9,4.2,1.4,6.4,1.4
	c8.5,0,15.4-6.9,15.4-15.4C524.6,489.3,518,477.1,509.2,477.1z M509.2,510.9c-2.2,0-4.4-0.6-6.4-1.6v-1.6l9.2-9.2
	c0.3-0.4,0.3-0.9,0-1.2c-0.4-0.4-0.9-0.4-1.2,0l-8,8V493c0-0.5-0.4-0.9-0.9-0.9s-0.9,0.4-0.9,0.9v7l-5.6-5.6c-0.4-0.4-0.9-0.4-1.2,0
	s-0.4,0.9,0,1.2l6.9,6.9v7c-2,1-4.1,1.6-6.4,1.6c-7.5,0-13.6-6.1-13.6-13.6c0-7.3,6.1-18.4,13.6-18.4c1.5,0,3,0.2,4.4,0.8
	c1.8,0.6,3.9,0.6,5.7,0c1.4-0.5,2.9-0.8,4.4-0.8c7.5,0,13.6,11.2,13.6,18.4C522.8,504.8,516.7,510.9,509.2,510.9z"/>
<g>
	<path class="st0" d="M455.4,237.1v-23.4c0-3.5-5.3-6.1-12.4-6.1s-12.4,2.6-12.4,6.1v23.4c0,3.5,5.3,6.1,12.4,6.1
		C450.1,243.3,455.4,240.6,455.4,237.1z M443.4,240.9v-11.7c0-0.6-0.5-1.2-1.2-1.2c-0.6,0-1.2,0.5-1.2,1.2v11.6
		c-1.3-0.1-2.5-0.3-3.5-0.6v-21c1.6,0.4,3.6,0.6,5.6,0.6c1.3,0,2.6-0.1,3.8-0.2v10.1c0,0.6,0.5,1.2,1.2,1.2s1.2-0.5,1.2-1.2v-10.6
		c1.6-0.4,2.9-1,3.9-1.7v19.8C453.1,238.7,449.5,240.9,443.4,240.9z M443.1,209.9c6.2,0,10,2.2,10,3.8c0,1.1-1.9,2.6-5.2,3.3
		c-0.1,0-0.1,0-0.2,0c-1.3,0.3-2.9,0.5-4.7,0.5c-2.5,0-4.7-0.4-6.3-0.9c-0.1,0-0.2-0.1-0.2-0.1c-2.3-0.8-3.5-1.9-3.5-2.8
		C433.1,212.2,436.9,209.9,443.1,209.9z M433.1,237.1v-19.8c0.6,0.4,1.3,0.8,2.1,1.1v20.8C433.8,238.6,433.1,237.8,433.1,237.1z"/>
	<path class="st0" d="M443.1,216.8c2.6,0,5.4-1,5.4-3s-2.7-3-5.4-3c-2.6,0-5.4,1-5.4,3S440.4,216.8,443.1,216.8z M443.1,213
		c1.6,0,2.6,0.4,3,0.7c-0.4,0.2-1.4,0.7-3,0.7s-2.6-0.4-3-0.7C440.5,213.4,441.5,213,443.1,213z"/>
	<path class="st0" d="M472.5,198.8c-7.1,0-12.4,2.6-12.4,6.1v32.3c0,3.3,4.7,5.8,11.2,6.1c0.1,0,0.2,0,0.2,0c0.1,0,0.1,0,0.2,0
		c0.2,0,0.5,0,0.7,0c7.1,0,12.4-2.6,12.4-6.1v-32.3C484.8,201.4,479.5,198.8,472.5,198.8z M472.8,240.9v-11.6c0-0.6-0.5-1.2-1.2-1.2
		s-1.2,0.5-1.2,1.2v11.5c-5-0.4-7.9-2.3-7.9-3.7v-28.6c0.6,0.4,1.3,0.8,2.1,1.1v22.4c0,0.6,0.5,1.2,1.2,1.2c0.6,0,1.2-0.5,1.2-1.2
		v-21.7c1.6,0.4,3.6,0.6,5.6,0.6c1.3,0,2.6-0.1,3.8-0.2v24.1c0,0.6,0.5,1.2,1.2,1.2c0.6,0,1.2-0.5,1.2-1.2v-24.6
		c1.6-0.4,2.9-1,3.9-1.7v28.6C482.5,238.7,478.9,240.9,472.8,240.9z M477.3,208.1c-0.1,0-0.1,0-0.2,0c-1.3,0.3-2.9,0.5-4.7,0.5
		c-2.5,0-4.7-0.4-6.3-0.9c-0.1,0-0.2-0.1-0.2-0.1c-2.3-0.8-3.5-1.9-3.5-2.8c0-1.6,3.8-3.8,10-3.8s10,2.2,10,3.8
		C482.5,206,480.6,207.4,477.3,208.1z"/>
	<path class="st0" d="M472.5,201.8c-2.6,0-5.4,1-5.4,3s2.7,3,5.4,3c2.6,0,5.4-1,5.4-3S475.2,201.8,472.5,201.8z M472.5,205.6
		c-1.6,0-2.6-0.4-3-0.7c0.4-0.2,1.4-0.7,3-0.7s2.6,0.4,3,0.7C475,205.2,474,205.6,472.5,205.6z"/>
</g>
<path class="st0" d="M302.9,130c0-20.1-16.4-36.5-36.5-36.5s-36.5,16.4-36.5,36.5s16.4,36.5,36.5,36.5S302.9,150.2,302.9,130z
	 M247.9,130c0-4.1,0.4-7.9,1.1-11.5h15.8v24h-15.6C248.4,138.6,247.9,134.4,247.9,130z M284.9,130c0,4.4-0.5,8.6-1.4,12.4h-15.6v-24
	h15.8C284.4,122.1,284.9,126,284.9,130z M267.9,162.7v-17.1h14.7C279.8,155.1,274.3,161.8,267.9,162.7z M267.9,115.4V97.4
	c6.5,0.9,12.1,8.1,14.9,18.1L267.9,115.4L267.9,115.4z M264.8,97.4v18.1h-14.9C252.7,105.3,258.3,98.3,264.8,97.4z M264.8,145.5
	v17.1c-6.3-0.9-11.8-7.7-14.7-17.1H264.8z M276.2,161.9c4.1-3.6,7.5-9.3,9.5-16.4h10.1C291.8,153.3,284.8,159.2,276.2,161.9z
	 M297.3,142.4h-10.8c0.8-3.8,1.4-8.1,1.4-12.4c0-4.1-0.4-7.9-1.1-11.5h10.9c1.4,3.6,2.1,7.5,2.1,11.5
	C299.8,134.4,298.9,138.6,297.3,142.4z M296.4,115.4h-10.3c-2-7.5-5.5-13.5-9.8-17.2C285.1,100.9,292.3,107.2,296.4,115.4z
	 M256.4,98.1c-4.4,3.7-7.8,9.9-9.8,17.2h-10.4C240.3,107.2,247.6,100.9,256.4,98.1z M235.1,118.5h10.9c-0.7,3.6-1.1,7.5-1.1,11.5
	c0,4.4,0.5,8.5,1.4,12.4h-10.8c-1.6-3.8-2.4-8-2.4-12.4C233,126,233.7,122.1,235.1,118.5z M236.8,145.5h10.1
	c2.1,7.1,5.4,12.8,9.5,16.4C247.9,159.2,240.9,153.3,236.8,145.5z"/>
<g>
	<path class="st0" d="M459.1,463c-0.4-0.4-0.8-0.5-1.3-0.4c-1.2,0.1-28.9,3.4-44.8,23.1c-2,2.4-3.7,5.1-5.3,7.9
		c-1.8-3.7-3.9-7.2-6.6-10.5c-16-19.5-43.6-22.8-44.8-23.1c-0.5,0-1,0.1-1.3,0.4c-0.4,0.4-0.6,0.7-0.6,1.2
		c-0.1,1.2-2.4,29,13.6,48.5c16,19.5,43.6,22.8,44.8,23.1c0.1,0,0.1,0,0.2,0l0,0l0,0c0,0,0,0,0.1,0c0,0,0,0,0.1,0s0.4,0,0.5-0.1
		c9.7-3,23.3-8.9,32.6-20.3c16-19.5,13.6-47.3,13.6-48.5C459.7,463.9,459.4,463.4,459.1,463z M370.6,507.9
		c-12.8-15.6-13-37.5-12.9-44c6.4,1.1,27.8,5.8,40.6,21.4c11.2,13.8,12.8,32.6,12.9,41.3l-36.9-45.3c-0.6-0.7-1.8-0.8-2.5-0.2
		s-0.8,1.8-0.2,2.5l37,45.3C400.1,527,381.9,521.7,370.6,507.9z M443.5,510.6c-8.2,9.9-19.6,15.5-28.6,18.5c0.1-2,0.1-5-0.2-8.5
		l28-34.3c0.6-0.7,0.5-1.9-0.2-2.5s-1.9-0.5-2.5,0.2l-25.8,31.6c-0.7-5.3-2-11.5-4.5-17.7c1.8-3.7,3.8-7,6.1-9.8
		c12.8-15.6,34.2-20.3,40.6-21.4C456.5,473,456.1,495,443.5,510.6z"/>
</g>
<g>
	<path class="st0" d="M89.3,349.3c-0.2-0.2-0.4-0.2-0.6-0.2c-0.6,0.1-14.3,1.7-22.2,11.4c-1,1.2-1.8,2.5-2.6,3.9
		c-0.9-1.8-1.9-3.6-3.3-5.2c-7.9-9.6-21.6-11.3-22.2-11.4c-0.2,0-0.5,0.1-0.6,0.2c-0.2,0.2-0.3,0.4-0.3,0.6
		c-0.1,0.6-1.2,14.3,6.7,24c7.9,9.6,21.6,11.3,22.2,11.4c0.1,0,0.1,0,0.1,0l0,0l0,0c0,0,0,0,0.1,0c0,0,0,0,0.1,0s0.2,0,0.2-0.1
		c4.8-1.5,11.5-4.4,16.1-10c7.9-9.6,6.7-23.4,6.7-24C89.6,349.7,89.4,349.4,89.3,349.3z M45.6,371.4c-6.3-7.7-6.4-18.5-6.4-21.7
		c3.2,0.5,13.7,2.9,20,10.6c5.5,6.8,6.3,16.1,6.4,20.4l-18.2-22.4c-0.3-0.4-0.9-0.4-1.2-0.1s-0.4,0.9-0.1,1.2l18.3,22.4
		C60.1,380.9,51.1,378.3,45.6,371.4z M81.6,372.8c-4,4.9-9.7,7.6-14.1,9.1c0.1-1,0.1-2.5-0.1-4.2l13.8-17c0.3-0.4,0.2-0.9-0.1-1.2
		c-0.3-0.3-0.9-0.2-1.2,0.1l-12.7,15.6c-0.3-2.6-1-5.7-2.2-8.8c0.9-1.8,1.9-3.5,3-4.9c6.3-7.7,16.9-10,20-10.6
		C88,354.2,87.8,365,81.6,372.8z"/>
</g>
<g>
	<path class="st0" d="M242.2,294.1h-3.6c-0.9-22.5-19.5-40.6-42.3-40.6c-15.4,0-29.6,8.4-37.1,22c-0.4,0.6-0.2,1.2,0,1.7
		c0.4,0.6,0.9,0.8,1.5,0.8h15c0.5,0,0.9-0.2,1.3-0.6c5.1-5.3,11.9-8.3,19.2-8.3c14.1,0,25.7,11,26.6,24.9h-3.5c-0.7,0-1.4,0.5-1.6,1
		c-0.2,0.6-0.1,1.4,0.5,1.9l11.4,11c0.4,0.4,0.8,0.5,1.2,0.5s0.8-0.1,1.2-0.5l11.4-11c0.5-0.5,0.7-1.3,0.5-1.9
		C243.6,294.5,242.9,294.1,242.2,294.1z M230.9,304.4l-7.1-6.8h0.9c0.9,0,1.7-0.8,1.7-1.7c0-16.5-13.5-30.1-30.1-30.1
		c-8,0-15.5,3.1-21.3,8.8h-11.2c7.2-10.9,19.3-17.6,32.5-17.6c21.4,0,38.8,17.5,38.8,38.8c0,0.9,0.8,1.7,1.7,1.7h0.9L230.9,304.4z"
		/>
	<path class="st0" d="M196.4,338.2c15.4,0,29.6-8.4,37.1-22c0.4-0.6,0.2-1.2,0-1.7c-0.2-0.6-0.9-0.8-1.5-0.8h-15
		c-0.5,0-0.9,0.2-1.3,0.6c-5.1,5.3-11.9,8.3-19.3,8.3c-14.1,0-25.7-11-26.6-24.9h3.5c0.7,0,1.4-0.5,1.6-1s0.1-1.4-0.5-1.9l-11.4-11
		c-0.7-0.7-1.7-0.7-2.4,0l-11.4,11c-0.5,0.5-0.7,1.3-0.5,1.9c0.2,0.6,0.9,1,1.6,1h3.6C155.1,320.2,173.7,338.2,196.4,338.2z
		 M161.9,287.3l7.1,6.8H168c-0.9,0-1.7,0.8-1.7,1.7c0,16.5,13.5,30.1,30.1,30.1c8.1,0,15.6-3.1,21.3-8.8h11.3
		c-7.2,11-19.3,17.6-32.5,17.6c-21.4,0-38.8-17.5-38.8-38.8c0-0.9-0.8-1.7-1.7-1.7H155L161.9,287.3z"/>
</g>
<path class="st0" d="M310.1,119.7c0,3.7,1.8,6.8,5.2,9c3.3,2.2,7.7,3.2,10.5,3.2c0.9,0,1.7-0.1,2.2-0.3c1.3-0.5,1.9-1.3,2-2.2
	c0.1-2-2.5-3.5-6.7-5.9c-1.2-0.7-2.4-1.4-3.5-2.1c-0.8-0.5-1.6-1.3-1.4-2.3c0.4-1.5,3.2-3.4,8.5-4.2c0.7,7,4.9,12.5,8.3,14.2
	c3.9,2,13.8,2.7,19.1,2.3c0.2,0.3,0.5,0.6,0.9,0.6h13.3c1.3,0,1.8-0.7,1.9-1.1c0.5-1.2-0.8-3.2-3.8-5.8c-0.2-0.7-0.8-2.8-1.6-6.6
	c-0.6-2.8,1.2-4.6,3.3-6.6c1-0.9,2-1.9,2.8-3.1c1.6-2.4,1.3-6.1,1-8.8c-0.1-0.8-0.2-1.9-0.2-2.4c1-0.2,2.2-0.1,3.4-0.1
	c1.9,0.1,3.8,0.1,5.2-0.6c2-1,5.1-3.4,5.1-5.5c0-1-0.6-1.7-1.2-2.5c-0.7-0.8-1.6-1.9-2.3-3.8c-1.5-4.3-7.4-4.8-10.1-4.9
	c-0.1-0.5,0-1.7,0.1-2.4c0.2-2.6,0.5-5.8-1.4-7.4c-0.4-0.3-0.9-0.3-1.3-0.1c-0.4,0.2-8.8,5.9-9.6,12.7c-0.4,3.7-0.8,6.5-2.2,7.6
	c-0.8,0.6-1.9,0.8-3.6,0.6c-6-0.8-20,1.4-25.2,12.8c-0.5,1.2-1,2.4-1.3,3.6C324.8,107.8,310.1,109.8,310.1,119.7z M330.7,104.8
	c4.6-10.3,17.8-12.3,23-11.6c2.2,0.3,3.9-0.1,5.1-1c2.1-1.6,2.5-4.8,3-9c0.5-4.6,5.8-9,7.8-10.6c0.6,1.3,0.4,3.4,0.3,5
	c-0.2,1.9-0.3,3.3,0.5,4.2c0.3,0.3,0.8,0.5,1.2,0.5c1.7,0,7.3,0.3,8.5,3.5c0.8,2.3,2,3.6,2.7,4.5c0.4,0.5,0.7,0.9,0.7,1.1
	c0,0.6-1.7,2.5-4,3.6c-0.9,0.5-2.6,0.4-4.2,0.4c-1.5,0-3-0.1-4.3,0.2c-1.5,0.4-1.3,2.1-1,4.6c0.3,2.4,0.6,5.7-0.6,7.4
	c-0.7,1-1.6,1.9-2.6,2.8c-2.2,2.1-4.8,4.6-3.9,8.5c1,4.9,1.8,7,1.8,7.1c0.1,0.2,0.2,0.3,0.3,0.5c1.4,1.2,2.7,2.6,3.2,3.4h-9.7
	c0.5-0.7,0.6-1.6,0.4-2.5c-0.4-1.5-1.7-2.9-4.1-3.4c0.6-2.2,1.3-6.6-0.8-10.5c-1.7-3.1-4.9-5.1-9.5-6c-0.6-0.1-1.1,0.3-1.2,0.8
	c-0.1,0.6,0.3,1.1,0.8,1.2c3.9,0.8,6.6,2.4,8,5c2.4,4.4,0.3,10,0.3,10.1c-0.1,0.3-0.1,0.7,0.1,1c0.2,0.3,0.5,0.4,0.9,0.4
	c2.1,0,3.2,0.9,3.5,1.9c0,0.2,0.1,0.8-0.4,1.1c-1.7,0.8-15.6,0.6-20.4-1.8C331.8,125,326,115.2,330.7,104.8z M312.2,119.7
	c0-7.4,11.3-9.6,14.8-10c-0.2,1.1-0.2,2.1-0.2,3.1c-5.8,0.7-9.8,2.9-10.5,5.8c-0.2,1-0.2,2.9,2.3,4.5c1.1,0.7,2.4,1.4,3.6,2.1
	c2.1,1.2,5.5,3.2,5.7,4l0,0c0,0-0.2,0.2-0.7,0.4c-1,0.4-6.5,0.1-10.8-2.7C313.6,125.1,312.2,122.7,312.2,119.7z"/>
<path class="st0" d="M254.4,223.6c-2.6,3.5-2.4,8.6-0.9,11.5c0.9,1.9,2.4,3,4.1,3c0,0,0,0,0,0c1.3,0,3.1-0.7,4.8-3.7
	c2.4-4.6,0.7-9.9-1.3-16c-1.9-5.8-4.1-12.4-3.6-20.4c0.6-9.3,4-12.5,6.5-13.7c-3.4,16.2-1.1,28.5,6.8,36.4c5.3,5.3,4.5,9.6,3.5,15.6
	c-0.2,1.1-0.4,2.3-0.5,3.5c-1,7.8,0.4,19,2.9,22.7c1.3,1.9,3.6,2.5,5.9,2.5c1,0,2-0.1,2.9-0.3c3.5-0.8,5.7-2.7,6.1-5.1
	c0.2-1.5,0.1-4.4-0.2-9.5c-0.3-7-0.8-16.5,0.1-21.4c0.1-0.5,0.2-1.1,0.4-1.6c0.1-0.1,0.3-0.1,0.4-0.2c0.5-0.4,11.9-9.1,27.6,0.6
	c0.1,3.8,0.2,7.9,0.3,11.8c0.2,11.7,0.4,18.9,1.5,21.4c1.2,2.7,3.1,3.7,4.5,4c0.5,0.1,1,0.2,1.5,0.2c3,0,5.7-2,6.9-2.9
	c2.4-2,2.1-3.6,1.5-5.9c-0.6-1.9-1.5-5.2-1.8-11.9c-0.2-4.8,0.6-9.7,1.8-14.1c0.3,0,0.7,0.1,1,0.1c11.5,0,15.1-10.3,17-20.5
	c1.8-9.2,9.1-21.3,10.6-23.7c5.4,0.1,7.1,0.5,10.3,2.3c0.8,0.4,1.6,0.6,2.4,0.6c2.2,0,4.6-1.4,6.8-4c2.4-2.9,5.2-8.1,3-10.9
	c-0.9-1.1-2.3-2.1-3.8-3.3c-2.5-1.9-5.4-3.9-7.1-7.1c-2.2-4.1-8.9-16.3-22.7-12.4c-0.9-1.1-2.1-2.1-3.6-2.9
	c-3.3-1.7-7.3-1.6-11.8,0.1c-4.7,1.9-5.6,4.7-5.5,6.7c0.1,2.9,2.5,5.8,5.4,8.3c-3.9,1.7-15.2,6-30.6,5.7c-6.1-0.1-11.4-0.7-16-1.2
	c-13.3-1.4-22.2-2.3-26.2,12c-3.4,0.6-10.8,3.6-11.6,18c-0.5,8.8,1.9,16.1,3.8,21.9c1.8,5.4,3.2,9.8,1.5,12.8
	c-0.7,1.4-1.2,1.6-1.3,1.6c0-0.1-0.5-0.7-0.8-1.9c-0.4-1.6-0.4-4.3,1-6.1c0.7-0.9,0.5-2.2-0.5-2.8
	C256.3,222.4,255,222.6,254.4,223.6z M268.6,182c3-12.4,8.3-11.8,22.3-10.3c4.7,0.5,10.1,1.1,16.4,1.2c20.3,0.4,33.5-6.6,34-6.9
	c0.1-0.1,0.1-0.1,0.2-0.2c3.4,2.3,6.9,3.9,8.4,4.4c0.2,0.1,0.4,0.1,0.6,0.1c0.9,0,1.7-0.6,2-1.4c0.3-1.1-0.3-2.2-1.4-2.5
	c-4-1.2-14.3-7.8-14.5-11.7c0-1,1-2,3-2.8c3.4-1.3,6.2-1.4,8.4-0.3c3.5,1.8,4.6,6,4.6,6.1c0.3,1.1,1.4,1.7,2.5,1.5
	c1.1-0.3,1.7-1.4,1.5-2.5c0-0.1-0.3-1-0.8-2.2c8.7-1.8,13.6,4.7,16.9,10.8c2.2,4,5.6,6.5,8.3,8.5c1.2,0.9,2.4,1.7,3,2.4
	c0.2,1.2-1.8,5.3-4.5,7.4c-0.5,0.4-1.7,1.2-2.5,0.8c-5-2.8-7.6-2.8-18.3-2.8c-8.9,0-10.6-7.7-10.7-8c-0.2-1.1-1.3-1.8-2.4-1.6
	c-1.1,0.2-1.8,1.3-1.6,2.4c0.8,3.9,5,11.3,14.7,11.3c0.4,0,0.9,0,1.3,0c-2.8,4.7-8.3,14.7-9.9,23c-2.3,12.1-6,17.1-12.9,17.2
	c1.9-6,4-10.3,4-10.3c0.5-1,0.1-2.2-0.9-2.7c-1-0.5-2.2-0.1-2.7,0.9c-0.3,0.6-7.9,15.9-7.3,30.5c0.3,7.3,1.3,11,1.9,12.9
	c0.1,0.5,0.3,1,0.3,1.3c0,0-0.2,0.2-0.5,0.4c-1.7,1.4-3.6,2.2-4.8,1.9c-0.3-0.1-1-0.2-1.7-1.7c-0.8-1.8-1-11.8-1.1-19.8
	c-0.2-11-0.4-22.4-1.8-27.2c-0.3-1.1-1.4-1.7-2.5-1.4c-1.1,0.3-1.7,1.4-1.4,2.5c0.6,1.9,0.9,5.4,1.2,9.6c-11.4-6-20.9-3.6-26-1.3
	c2.5-6.6,6.1-13.4,6.2-13.5c0.5-1,0.2-2.2-0.8-2.8c-1-0.5-2.2-0.2-2.8,0.8c-0.3,0.6-7.3,13.6-8.9,21.9c-1,5.3-0.6,14.7-0.2,22.3
	c0.2,3.9,0.4,7.6,0.2,8.8c0,0.4-1,1.3-3,1.7c-2.3,0.5-4.2,0-4.5-0.5c-1.6-2.4-3.2-12.4-2.2-19.9c0.1-1.1,0.3-2.3,0.5-3.3
	c1-6.1,2.1-12.4-4.7-19.2C266.4,210.4,264.7,198.4,268.6,182z"/>
<g>
	<path class="st0" d="M232.2,243.5c7.1,0,12.4-2.6,12.4-6.1v-23.4c0-3.5-5.3-6.1-12.4-6.1s-12.4,2.6-12.4,6.1v23.4
		C219.8,240.8,225.1,243.5,232.2,243.5z M222.1,237.4v-19.8c1,0.7,2.3,1.3,3.9,1.7v10.6c0,0.6,0.5,1.2,1.2,1.2
		c0.6,0,1.2-0.5,1.2-1.2v-10.1c1.2,0.2,2.5,0.2,3.8,0.2c2,0,4-0.2,5.6-0.6v21c-1,0.3-2.2,0.5-3.5,0.6v-11.6c0-0.6-0.5-1.2-1.2-1.2
		c-0.6,0-1.2,0.5-1.2,1.2v11.7C225.8,241.1,222.1,238.9,222.1,237.4z M242.1,213.8c0,0.9-1.2,2-3.5,2.8c-0.1,0-0.2,0.1-0.2,0.1
		c-1.6,0.5-3.8,0.9-6.3,0.9c-1.8,0-3.3-0.2-4.7-0.5c-0.1,0-0.1,0-0.2,0c-3.3-0.7-5.2-2.2-5.2-3.3c0-1.6,3.8-3.8,10-3.8
		C238.3,210.1,242.1,212.4,242.1,213.8z M240,239.5v-20.8c0.8-0.3,1.5-0.7,2.1-1.1v19.8C242.1,238,241.4,238.8,240,239.5z"/>
	<path class="st0" d="M237.5,213.9c0-2-2.7-3-5.4-3s-5.4,1-5.4,3s2.7,3,5.4,3C234.8,216.9,237.5,215.9,237.5,213.9z M235.1,213.9
		c-0.4,0.3-1.4,0.7-3,0.7c-1.6,0-2.6-0.5-3-0.7c0.4-0.3,1.4-0.7,3-0.7C233.7,213.2,234.8,213.6,235.1,213.9z"/>
	<path class="st0" d="M190.5,205v32.3c0,3.5,5.3,6.1,12.4,6.1c0.2,0,0.5,0,0.7,0c0.1,0,0.1,0,0.2,0s0.2,0,0.2,0
		c6.4-0.2,11.2-2.8,11.2-6.1v-32.3c0-3.5-5.3-6.1-12.4-6.1C195.7,199,190.4,201.5,190.5,205z M192.7,237.4v-28.6
		c1,0.7,2.3,1.3,3.9,1.7v24.6c0,0.6,0.5,1.2,1.2,1.2c0.6,0,1.2-0.5,1.2-1.2V211c1.2,0.2,2.5,0.2,3.8,0.2c2,0,4-0.2,5.6-0.6v21.7
		c0,0.6,0.5,1.2,1.2,1.2c0.6,0,1.2-0.5,1.2-1.2v-22.4c0.8-0.3,1.5-0.7,2.1-1.1v28.6c0,1.3-3,3.3-7.9,3.7v-11.5
		c0-0.6-0.5-1.2-1.2-1.2c-0.6,0-1.2,0.5-1.2,1.2v11.6C196.4,241.1,192.8,238.9,192.7,237.4z M192.8,205c0-1.6,3.8-3.8,10-3.8
		s10,2.3,10,3.8c0,0.9-1.2,2-3.5,2.8c-0.1,0-0.2,0.1-0.2,0.1c-1.6,0.5-3.8,0.9-6.3,0.9c-1.8,0-3.3-0.2-4.7-0.5c-0.1,0-0.1,0-0.2,0
		C194.6,207.6,192.8,206.2,192.8,205z"/>
	<path class="st0" d="M197.4,205c0,2,2.7,3,5.4,3s5.4-1,5.4-3s-2.7-3-5.4-3C200.1,202,197.4,203,197.4,205z M199.8,205
		c0.4-0.3,1.4-0.7,3-0.7c1.6,0,2.6,0.5,3,0.7c-0.4,0.3-1.4,0.7-3,0.7C201.2,205.7,200.2,205.4,199.8,205z"/>
</g>
<g>
	<path class="st0" d="M414.4,233.8l-4.4-3.2c-0.2-1.3-0.4-2.5-0.8-3.7l2.3-5.2c0.1-0.3,0.1-0.6-0.1-0.8s-0.4-0.4-0.7-0.4l-5.2-0.6
		c-0.8-1.1-1.8-2.1-2.7-3.1l-0.6-5.5c-0.1-0.3-0.2-0.6-0.4-0.7c-0.3-0.1-0.6-0.2-0.8-0.1l-4.5,2c-1.8-0.8-3.6-1.3-5.5-1.6l-3.2-4.4
		c-0.4-0.5-1.1-0.5-1.5,0l-3.3,4.5c-1.3,0.3-2.5,0.6-3.7,1l-5.2-2.2c-0.3-0.1-0.6-0.1-0.8,0.1c-0.3,0.1-0.4,0.4-0.4,0.7L372,216
		c-0.9,0.8-1.9,1.7-2.7,2.7l-5.6,0.6c-0.3,0.1-0.6,0.2-0.7,0.4s-0.2,0.6-0.1,0.8l2.2,5.1c-0.4,1.3-0.8,2.6-1.1,3.9l-4.5,3.4
		c-0.3,0.2-0.4,0.4-0.4,0.8s0.1,0.6,0.4,0.8l4.5,3.3c0.3,1.3,0.6,2.7,1.1,3.9l-2.2,5.1c-0.1,0.3-0.1,0.6,0.1,0.8
		c0.2,0.3,0.4,0.4,0.7,0.4l5.5,0.6c0.9,1.1,1.9,2.1,2.9,2.9l0.6,5.5c0.1,0.3,0.2,0.6,0.4,0.7s0.6,0.2,0.8,0.1l5-2.2
		c1.3,0.5,2.6,0.9,4,1.1l3.3,4.5c0.2,0.3,0.4,0.4,0.8,0.4s0.6-0.1,0.8-0.4l3.3-4.4c1.3-0.2,2.5-0.6,3.7-0.9l5.3,2.3
		c0.3,0.1,0.6,0.1,0.8-0.1c0.3-0.1,0.4-0.4,0.4-0.7l0.6-5.6c0.9-0.8,1.8-1.6,2.6-2.6l5.8-0.7c0.3-0.1,0.6-0.2,0.7-0.4
		c0.1-0.3,0.2-0.6,0.1-0.8l-2.2-5.2c0.4-1.2,0.8-2.4,1.1-3.6l4.7-3.4c0.3-0.2,0.4-0.4,0.4-0.8S414.7,233.9,414.4,233.8z
		 M408.4,237.4c-0.2,0.1-0.3,0.4-0.4,0.6c-0.3,1.4-0.7,2.7-1.2,4c-0.1,0.3-0.1,0.5,0,0.8l1.9,4.4l-4.9,0.6c-0.3,0-0.4,0.1-0.6,0.3
		c-0.9,1-1.9,2-2.9,2.8c-0.2,0.1-0.3,0.4-0.4,0.6l-0.6,4.7l-4.5-1.9c-0.3-0.1-0.5-0.1-0.7,0c-1.3,0.5-2.7,0.8-4,1.1
		c-0.3,0.1-0.4,0.2-0.6,0.4l-2.7,3.7l-2.7-3.7c-0.1-0.2-0.4-0.3-0.6-0.4c-1.5-0.3-2.9-0.6-4.4-1.2c-0.1-0.1-0.3-0.1-0.3-0.1
		c-0.1,0-0.3,0-0.4,0.1l-4.2,1.9l-0.5-4.7c0-0.3-0.1-0.4-0.3-0.6c-1.1-0.9-2.2-2-3.1-3.2c-0.1-0.2-0.4-0.3-0.6-0.4l-4.6-0.5l1.9-4.3
		c0.1-0.3,0.1-0.5,0-0.7c-0.5-1.4-0.9-2.9-1.1-4.3c-0.1-0.3-0.2-0.4-0.4-0.6l-3.7-2.8l3.8-2.8c0.2-0.1,0.3-0.4,0.4-0.6
		c0.3-1.4,0.6-2.9,1.2-4.2c0.1-0.3,0.1-0.5,0-0.7l-1.9-4.3l4.7-0.6c0.3,0,0.4-0.1,0.6-0.3c0.9-1.1,1.9-2.1,2.9-2.9
		c0.2-0.1,0.3-0.4,0.3-0.6l0.6-4.7l4.4,1.9c0.3,0.1,0.5,0.1,0.7,0c1.3-0.5,2.7-0.9,4.1-1.1c0.3-0.1,0.4-0.2,0.6-0.4l2.8-3.8l2.7,3.7
		c0.1,0.2,0.4,0.3,0.6,0.4c2,0.3,4,0.9,5.8,1.8c0.3,0.1,0.5,0.1,0.8,0l3.8-1.6l0.5,4.6c0,0.3,0.1,0.4,0.3,0.6c1.1,1,2.1,2.1,3,3.3
		c0.1,0.2,0.4,0.4,0.6,0.4l4.4,0.5l-1.9,4.4c-0.1,0.2-0.1,0.4,0,0.7c0.4,1.3,0.8,2.7,0.9,4.1c0.1,0.3,0.2,0.5,0.4,0.6l3.7,2.7
		L408.4,237.4z"/>
	<path class="st0" d="M386.9,215.8c-10,0-18.1,8.1-18.1,18.1c0,10,8.1,18.1,18.1,18.1c10,0,18.1-8.1,18.1-18.1
		C405,223.9,396.9,215.8,386.9,215.8z M386.9,250.1c-8.9,0-16.2-7.3-16.2-16.2s7.3-16.2,16.2-16.2c8.9,0,16.2,7.3,16.2,16.2
		S395.9,250.1,386.9,250.1z"/>
</g>
<g>
	<path class="st0" d="M386.3,331c0.9,0,1.7-0.3,2.2-0.9c0.9-0.9,1.6-2.7-0.4-6.3c-1.3-2.3-3.2-5-5.8-7.5c-2.8-2.8-6.8-5.9-10-6.7
		l0,0c0.1-0.6,0.1-1.3,0-1.9c3.1-0.8,7.1-3.9,10-6.7c2.4-2.5,4.5-5.2,5.8-7.5c2-3.7,1.3-5.5,0.4-6.3s-2.7-1.5-6.3,0.4
		c-2.3,1.3-5,3.2-7.5,5.8c-2.8,2.8-5.9,6.8-6.7,10l0,0c-0.6-0.1-1.3-0.1-1.9,0c-0.8-3.1-3.9-7.1-6.7-10c-2.5-2.4-5.2-4.5-7.5-5.8
		c-3.7-2-5.5-1.3-6.3-0.4c-3,3,2.4,10,6.1,13.8c2.8,2.8,6.8,5.9,10,6.7l0,0c-0.1,0.6-0.1,1.3,0,1.9c-3.1,0.8-7.1,3.9-10,6.7
		c-3.7,3.7-9.2,10.7-6.1,13.8c0.6,0.6,1.4,0.9,2.2,0.9c3.4,0,8.6-4.1,11.5-7c1.3-1.3,2.5-2.7,3.7-4.3l-0.7,38.9h9.5l-0.7-38.9
		c1.2,1.6,2.4,3,3.7,4.3C377.8,326.8,382.9,330.8,386.3,331z M366.1,313.9v-0.1l0,0c0.4,0.1,0.7,0.1,1,0.1c0.4,0,0.7,0,1-0.1v0.1
		l0.8,41.6h-3.5L366.1,313.9z M353.8,318.2c4-4.1,7.6-6,9.2-6.1l0.2,0.2v1.2c-0.6,1.9-2.4,4.9-5.9,8.3c-5,5-8.9,6.3-9.7,6.1
		C347.5,327.1,348.8,323.2,353.8,318.2z M363.4,304.5l-0.4,0.4c-1.5-0.2-5.1-2-9.2-6.1c-5-5-6.3-8.9-6.1-9.7
		c0.9-0.2,4.7,1.2,9.7,6.1C361.4,299.2,363.3,302.8,363.4,304.5z M367.5,305.9c0.7,0.1,1.3,0.5,1.7,1.1c0.4,0.6,0.5,1.3,0.4,2
		c-0.1,0.7-0.5,1.3-1.1,1.7c-0.6,0.4-1.3,0.5-2,0.4c-1.4-0.2-2.2-1.6-2-2.9c0.1-0.7,0.5-1.3,1.1-1.7c0.4-0.3,1-0.5,1.5-0.5
		C367.3,305.9,367.4,305.9,367.5,305.9z M380.2,298.6c-4,4.1-7.6,6-9.2,6.1l-0.4-0.4c0.2-1.5,2-5.1,6.1-9.2c5-5,8.9-6.3,9.7-6.1
		C386.8,289.8,385.3,293.7,380.2,298.6z M376.8,321.7c-3.4-3.4-5.3-6.4-5.9-8.3v-1.2l0.2-0.2c1.5,0.2,5.1,2,9.2,6.1
		c5,5,6.3,8.9,6.1,9.7C385.7,328.1,381.8,326.7,376.8,321.7z"/>
	<path class="st0" d="M311.1,288.2c2.8,2.8,6.8,5.9,10,6.7c-0.1,0.6-0.1,1.2,0,1.9l0,0c-3.1,0.8-7.1,3.9-10,6.7
		c-2.4,2.5-4.5,5.2-5.8,7.5c-2,3.7-1.3,5.5-0.4,6.3c0.5,0.5,1.2,0.9,2.2,0.9c1,0,2.2-0.4,4-1.3c2.3-1.3,5-3.2,7.5-5.8
		c1.3-1.3,2.5-2.7,3.7-4.3l-0.8,51.6h9.5l-0.8-51.6c1.1,1.6,2.4,3,3.7,4.3c2.5,2.4,5.2,4.5,7.5,5.8c1.7,1,3,1.3,4,1.3
		c1.1,0,1.8-0.4,2.2-0.9c0.9-0.9,1.6-2.7-0.4-6.3c-1.3-2.3-3.2-5-5.8-7.5c-2.8-2.8-6.8-5.9-10-6.7c0.1-0.6,0.1-1.2,0-1.9l0,0
		c3.1-0.8,7.1-3.9,10-6.7c2.4-2.5,4.5-5.2,5.8-7.5c2-3.7,1.3-5.5,0.4-6.3c-0.9-0.9-2.7-1.5-6.3,0.4c-2.3,1.3-5,3.2-7.5,5.8
		c-2.8,2.8-5.9,6.8-6.7,10c-0.6-0.1-1.3-0.1-1.9,0l0,0c-0.8-3.1-3.9-7.1-6.7-10c-2.5-2.4-5.2-4.5-7.5-5.8c-3.7-2-5.5-1.3-6.3-0.4
		c-0.9,0.9-1.6,2.7,0.4,6.3C306.5,283,308.5,285.6,311.1,288.2z M327.8,293.6c0.6,0.4,1,1,1.1,1.7c0.2,0.7,0,1.4-0.4,2s-1,1-1.7,1.1
		c-0.7,0.2-1.4,0-2-0.4c-0.6-0.4-1-1-1.1-1.7c-0.2-0.7,0-1.4,0.4-2c0.4-0.6,1-1,1.7-1.1c0.2,0,0.3,0,0.5,0
		C326.9,293.2,327.3,293.4,327.8,293.6z M339.5,285.9c-4,4.1-7.6,6-9.2,6.1l-0.4-0.4c0.2-1.5,2-5.1,6.1-9.2c5-5,8.9-6.3,9.7-6.1
		C346,277.2,344.6,281,339.5,285.9z M330.3,300.9v-1.2l0.2-0.2c1.5,0.2,5.1,2,9.2,6.1c5,5,6.3,8.9,6.1,9.7c-0.9,0.2-4.7-1.2-9.7-6.1
		C332.7,305.7,330.9,302.6,330.3,300.9z M325.4,301.2c0-0.1,0-0.1,0-0.1c0.3,0.1,0.7,0.1,1,0.1c0.4,0,0.7,0,1-0.1l0,0v0.1l0.8,54.3
		h-3.5L325.4,301.2z M313,305.6c4-4.1,7.6-6,9.2-6.1l0.2,0.2v1.2c-0.6,1.8-2.4,4.9-5.9,8.3c-5,5-8.9,6.3-9.7,6.1
		C306.7,314.4,308,310.6,313,305.6z M313,286.1c-5-5-6.3-8.9-6.1-9.7c0.9-0.2,4.7,1.2,9.7,6.1c4.1,4,6,7.6,6.1,9.2l-0.4,0.4
		C320.7,292,317.1,290.1,313,286.1z"/>
</g>
<path class="st0" d="M267.9,381c-3.3,2.3-6.8,6.3-9.7,10c1.9-13.2,5-26,10.4-33.1c2.3,1.5,4.6,2.2,7.1,2.2c4.1,0,8-2,11.2-6
	c5.5-6.7,6.5-25.6,6.7-27.8c0-0.5-0.4-1.2-0.8-1.6s-1.1-0.5-1.8-0.4c-2,0.5-20.3,5.7-25.8,12.5c-4.9,6.1-4.8,13.4,0.1,18.5
	c-6.1,8-9.5,22.4-11.4,36.7c-1.5-6-3.7-12.7-6.5-17c4.8-4.4,5.4-10.9,1.5-16.9c-4.5-6.7-20.7-13-22.5-13.6c-0.7-0.1-1.4-0.1-1.9,0.3
	s-0.9,1-0.9,1.6c0,1.9-0.6,19.2,3.8,25.9c2.9,4.2,6.8,6.4,10.9,6.4c1.8,0,3.7-0.4,5.6-1.4c4.4,6.8,7.5,21.9,8.4,28.2
	c-1.2,15.4-0.9,28.2-0.9,29.4s0.9,2,2,2l0,0c1.2,0,2-1,2-2c0-0.4-0.4-17,1.5-35.4c2.9-4.2,8.5-11.9,13-15c1.4,1.5,3,2.6,4.9,3
	c0.7,0.1,1.4,0.3,2,0.3c2,0,4.1-0.7,6.1-1.9c5.2-3.3,10.1-15.3,10.6-16.6c0.3-0.7,0.3-1.4-0.1-1.9c-0.4-0.5-1-1-1.6-1
	c-1.5,0-14.6-0.7-19.6,2.6c-2.6,1.8-4.4,4.1-4.9,6.7C266.8,377.5,267,379.2,267.9,381z M244.8,371.7l-10.9-16.5
	c-0.7-1-1.9-1.2-2.9-0.5c-0.9,0.7-1.2,1.9-0.6,2.9l10.9,16.5c-3.3,1.4-7.5,0.8-10.6-4c-2.6-4-3.1-14.5-3.1-20.6
	c5.6,2.3,15.1,7,17.7,10.9C248.5,365.3,247.3,369.3,244.8,371.7z M271,354.8l13.8-17.2c0.7-0.8,0.5-2.2-0.3-2.9
	c-0.8-0.7-2.2-0.5-2.9,0.3l-13.8,17.2c-2.7-3-3.7-7.6,0.4-12.8c3.4-4.2,14.5-8.3,20.9-10.4c-0.5,6.8-2.3,18.5-5.6,22.6
	C279.3,356.9,274.7,356.8,271,354.8z M273.6,382.6l10.2-6.5c1-0.7,1.2-1.9,0.7-2.9c-0.7-1-1.9-1.2-2.9-0.7l-10.2,6.5
	c-0.3-0.8-0.3-1.6-0.1-2.5c0.3-1.6,1.4-3,3.1-4.1c2.5-1.6,9.1-2,14.2-2c-2,4.6-5.3,10.4-7.8,12l0,0c-1.8,1.1-3.5,1.5-5,1.1
	C274.9,383.3,274.1,382.9,273.6,382.6z"/>
<g>
	<path class="st0" d="M208.9,372.4h-9.4c-0.6,0-1.1,0.5-1.1,1.1v33.5c-3.2,2-5.3,5.6-5.3,9.4c0,6.1,5,11,11.1,11s11.1-5,11.1-11
		c0-3.8-2-7.4-5.3-9.4v-33.5C210,372.9,209.5,372.4,208.9,372.4z M212.9,416.4c0,4.8-3.9,8.8-8.8,8.8c-4.8,0-8.8-3.9-8.8-8.8
		c0-3.2,1.8-6.2,4.7-7.8c0.4-0.2,0.6-0.6,0.6-1v-33h7.1v33c0,0.5,0.2,0.8,0.6,1C211.2,410.3,212.9,413.2,212.9,416.4z"/>
	<path class="st0" d="M205.3,412.6v-31.8c0-0.6-0.5-1.1-1.1-1.1s-1.1,0.5-1.1,1.1v31.8c-1.6,0.5-2.9,2-2.9,3.8
		c0,2.3,1.8,4.1,4.1,4.1s4.1-1.8,4.1-4.1C208.2,414.6,207,413,205.3,412.6z"/>
	<path class="st0" d="M216.4,402.7h5.6c0.6,0,1.1-0.5,1.1-1.1v-11.4h1.1c0.4,0,0.8-0.2,1-0.6s0.2-0.8,0-1.1l-5.1-8.3
		c-0.2-0.3-0.6-0.5-1-0.5s-0.8,0.2-1,0.5l-5.1,8.3c-0.2,0.4-0.2,0.8,0,1.1s0.6,0.6,1,0.6h1.1v11.4
		C215.3,402.1,215.7,402.7,216.4,402.7z M219.2,382.9l3.1,5H222c-0.6,0-1.1,0.5-1.1,1.1v11.4h-3.4V389c0-0.6-0.5-1.1-1.1-1.1h-0.2
		L219.2,382.9z"/>
</g>
<path class="st0" d="M186.3,378.1c0.7-3.3-0.3-8.3-0.3-8.5c-0.1-0.6-0.7-1.1-1.3-1c-8.9,0.5-10.4-3.3-10.5-3.5
	c-0.1-0.3-0.3-0.5-0.6-0.7c0.6-2.8,1.3-6.3,1.3-9.5c0-0.7-0.6-1.2-1.2-1.2c-0.1,0-6.7,0.1-10.4,6.6c-21.5-9.9-34-5.1-39.6-1.5
	c-3.5,2.3-6.1,5.4-7.7,9.1c-0.9-0.5-3.3-1.6-5.7-1.6c-0.1-0.1-0.2-0.1-0.2-0.2c-2.1-1.7-5.7-2.3-8.7-0.1c-0.6,0.4-0.7,1.2-0.3,1.7
	c0.4,0.5,1.2,0.7,1.7,0.3c1.5-1.1,3-1.1,4.3-0.7c-1.2,0.8-2,2.2-2.5,4c-1.2,4.9,0.4,6.2,1.6,6.5c0.3,0.1,0.5,0.1,0.8,0.1
	c1.9,0,4.1-1.9,5.2-4.7c0.6-1.4,0.6-2.9,0-4.3c1.2,0.3,2.3,0.9,2.8,1.2c0,0,0,0,0,0c-0.7,2.3-1,4.8-0.9,7.3c0.5,13,6,14.8,9.7,16
	c1.1,0.4,2,0.6,2.4,1.1c1.1,1.3,0.8,4.6,0.6,7.3c-0.2,2.2-0.4,4.2,0.1,5.5c0.5,1.4,1.8,2.4,3.8,2.7c0.5,0.1,1,0.1,1.6,0.1
	c2,0,4-0.5,4.8-1.5c0.8-1.1,0.6-2.6,0.4-5c-0.2-1.6-0.4-3.7-0.4-6.2c0-0.4,0-0.9,0.1-1.3c1.3,0.3,2.9,0.5,4.5,0.5
	c4.3,0,8.7-0.9,9.5-1c0.1,0.1,0.1,0.1,0.2,0.2c1,1.1,1.1,3.2,1.2,5.3c0.1,2.3,0.2,4.5,1.6,5.9c0.9,0.9,1.9,1.2,3,1.2
	c1.8,0,3.6-0.9,4.8-1.7c0.4-0.3,0.6-0.8,0.5-1.2c-0.8-4.6-0.5-9.3,0-12.6c9.2-1.8,22.8-13.6,23.4-14.1
	C186.1,378.6,186.2,378.4,186.3,378.1z M110,372.5c-0.9,2.3-2.6,3.3-3,3.1c-0.1,0-0.6-0.9,0.1-3.6c0.4-1.5,1.1-2.5,2.1-2.9
	c0.1,0,0.2-0.1,0.3-0.1C110.2,369.9,110.5,371.1,110,372.5z M183.9,377.2c-2.1,1.7-13.2,11-21,13c0.2-1.1,0.4-1.8,0.4-1.8
	c0.2-0.7-0.2-1.3-0.9-1.5c-0.7-0.2-1.3,0.2-1.5,0.9c-0.1,0.4-2.4,8.8-1.1,17.3c-1.1,0.6-3,1.3-3.9,0.4c-0.7-0.7-0.8-2.5-0.9-4.3
	c-0.1-2.3-0.3-5-1.8-6.8c-1.3-1.5-1.1-2.5-0.2-5c0.3-0.8,0.6-1.6,0.8-2.6c0.2-0.7-0.2-1.3-0.9-1.5c-0.7-0.2-1.3,0.2-1.5,0.9
	c-0.2,0.9-0.5,1.6-0.7,2.4c-0.6,1.7-1.1,3.3-0.7,4.9c-2.2,0.4-8.5,1.4-12.2,0.5c-0.1,0-0.2,0-0.2,0c0.7-3.7,2.2-6.5,2.3-6.5
	c0.3-0.6,0.1-1.4-0.5-1.7c-0.6-0.3-1.4-0.1-1.7,0.5c-0.1,0.2-2.9,5.3-2.9,11.4c0,2.7,0.2,4.8,0.4,6.5c0.1,1.3,0.3,2.9,0.1,3.3
	c-0.4,0.3-2.7,0.8-4.5,0.4c-0.5-0.1-1.2-0.4-1.4-0.9c-0.3-0.9-0.1-2.7,0-4.5c0.3-3.3,0.6-7.1-1.2-9.2c-0.9-1-2.1-1.4-3.4-1.8
	c-3.4-1.1-7.6-2.5-8-13.8c-0.3-6.8,2.8-12.9,8.4-16.6c8.7-5.8,22.2-5.2,37.1,1.6c-0.4,1-0.7,2.1-0.9,3.3c-0.1,0.7,0.3,1.3,1,1.5
	c0.7,0.1,1.3-0.3,1.4-1c1.5-7.5,6.3-9.5,8.6-10c-0.3,5.6-2.4,12.1-2.4,12.1c-0.2,0.6,0.1,1.4,0.8,1.6c0.1,0,0.3,0.1,0.4,0.1
	c0.5,0,1-0.3,1.2-0.9c0-0.1,0.2-0.7,0.5-1.7c1.4,1.6,4.4,3.7,10.9,3.6C183.9,372.6,184.2,375.2,183.9,377.2z"/>
<g>
	<path class="st0" d="M84.9,62.7c4.4,0,7.8-1.7,7.8-3.9V44.1c0-2.2-3.3-3.9-7.8-3.9s-7.8,1.7-7.8,3.9v14.7
		C77.1,61,80.4,62.7,84.9,62.7z M78.5,58.9V46.5c0.6,0.4,1.5,0.8,2.4,1.1v6.7c0,0.4,0.3,0.7,0.7,0.7c0.4,0,0.7-0.3,0.7-0.7v-6.3
		c0.8,0.1,1.6,0.2,2.4,0.2c1.3,0,2.5-0.2,3.5-0.4v13.2c-0.6,0.2-1.4,0.3-2.2,0.4v-7.3c0-0.4-0.3-0.7-0.7-0.7c-0.4,0-0.7,0.3-0.7,0.7
		v7.3C80.9,61.2,78.6,59.8,78.5,58.9z M91.1,44.1c0,0.6-0.8,1.3-2.2,1.8c-0.1,0-0.1,0-0.2,0c-1,0.3-2.4,0.6-4,0.6
		c-1.1,0-2.1-0.1-2.9-0.3c-0.1,0-0.1,0-0.1,0c-2.1-0.4-3.3-1.4-3.3-2c0-1,2.4-2.4,6.3-2.4S91.1,43.1,91.1,44.1z M89.8,60.2V47.1
		c0.5-0.2,0.9-0.4,1.3-0.7v12.4C91.1,59.3,90.7,59.8,89.8,60.2z"/>
	<path class="st0" d="M88.2,44.1c0-1.3-1.7-1.9-3.4-1.9s-3.4,0.6-3.4,1.9s1.7,1.9,3.4,1.9C86.5,46,88.2,45.4,88.2,44.1z M86.7,44.1
		c-0.2,0.2-0.9,0.4-1.9,0.4s-1.6-0.3-1.9-0.4c0.2-0.2,0.9-0.4,1.9-0.4C85.8,43.7,86.5,43.9,86.7,44.1z"/>
	<path class="st0" d="M58.7,38.5v20.3c0,2.2,3.3,3.9,7.8,3.9c0.2,0,0.3,0,0.4,0c0.1,0,0.1,0,0.1,0c0.1,0,0.1,0,0.2,0
		c4.1-0.2,7-1.8,7-3.8V38.6c0-2.2-3.3-3.9-7.8-3.9C61.9,34.7,58.6,36.3,58.7,38.5z M60,58.9v-18c0.6,0.4,1.5,0.8,2.4,1.1v15.5
		c0,0.4,0.3,0.7,0.7,0.7s0.7-0.3,0.7-0.7V42.3c0.8,0.1,1.6,0.2,2.4,0.2c1.3,0,2.5-0.2,3.5-0.4v13.6c0,0.4,0.3,0.7,0.7,0.7
		c0.4,0,0.7-0.3,0.7-0.7V41.6c0.5-0.2,0.9-0.4,1.3-0.7v18c0,0.8-1.9,2-5,2.3v-7.2c0-0.4-0.3-0.7-0.7-0.7c-0.4,0-0.7,0.3-0.7,0.7v7.3
		C62.4,61.2,60.1,59.8,60,58.9z M60.1,38.5c0-1,2.4-2.4,6.3-2.4c3.9,0,6.3,1.4,6.3,2.4c0,0.6-0.8,1.3-2.2,1.8c-0.1,0-0.1,0-0.2,0
		c-1,0.3-2.4,0.6-4,0.6c-1.1,0-2.1-0.1-2.9-0.3c0,0,0,0-0.1,0C61.3,40.2,60.1,39.3,60.1,38.5z"/>
	<path class="st0" d="M63,38.5c0,1.3,1.7,1.9,3.4,1.9c1.7,0,3.4-0.6,3.4-1.9s-1.7-1.9-3.4-1.9C64.7,36.6,63,37.3,63,38.5z
		 M64.5,38.5c0.2-0.2,0.9-0.4,1.9-0.4s1.6,0.3,1.9,0.4C68,38.7,67.4,39,66.4,39C65.4,39,64.8,38.7,64.5,38.5z"/>
</g>
<g>
	<path class="st0" d="M78,493.6h-2.7c-0.7-17-14.7-30.6-31.9-30.6c-11.6,0-22.3,6.4-28,16.5c-0.3,0.4-0.2,0.9,0,1.3
		c0.3,0.4,0.7,0.6,1.1,0.6h11.3c0.4,0,0.7-0.2,1-0.4c3.8-4,9-6.3,14.5-6.3c10.6,0,19.3,8.3,20,18.7h-2.6c-0.5,0-1,0.4-1.2,0.8
		s-0.1,1,0.3,1.4l8.6,8.3c0.3,0.3,0.6,0.4,0.9,0.4s0.6-0.1,0.9-0.4l8.6-8.3c0.3-0.4,0.5-1,0.3-1.4S78.5,493.6,78,493.6z M69.4,501.4
		l-5.3-5.1h0.7c0.7,0,1.3-0.6,1.3-1.3c0-12.5-10.2-22.6-22.7-22.6c-6,0-11.7,2.4-16,6.6H19c5.4-8.2,14.5-13.2,24.5-13.2
		c16.1,0,29.3,13.1,29.3,29.3c0,0.7,0.6,1.3,1.3,1.3h0.7L69.4,501.4z"/>
	<path class="st0" d="M43.5,526.8c11.6,0,22.3-6.4,28-16.5c0.3-0.4,0.2-0.9,0-1.3s-0.7-0.6-1.1-0.6H59c-0.3,0-0.7,0.2-1,0.4
		c-3.8,4-9,6.3-14.5,6.3c-10.6,0-19.3-8.3-20-18.7h2.6c0.5,0,1-0.4,1.2-0.8s0.1-1-0.4-1.4l-8.6-8.3c-0.5-0.5-1.3-0.5-1.8,0l-8.6,8.3
		c-0.3,0.4-0.5,1-0.3,1.4s0.7,0.8,1.2,0.8h2.7C12.3,513.2,26.3,526.8,43.5,526.8z M17.5,488.5l5.3,5.1h-0.7c-0.7,0-1.3,0.6-1.3,1.3
		c0,12.5,10.2,22.6,22.7,22.6c6.1,0,11.8-2.3,16-6.6H68c-5.4,8.3-14.5,13.2-24.5,13.2c-16.1,0-29.3-13.1-29.3-29.3
		c0-0.7-0.6-1.3-1.3-1.3h-0.7L17.5,488.5z"/>
</g>
<g>
	<path class="st0" d="M524.8,10.9c-0.2-0.2-0.5-0.3-0.8-0.2c-0.8,0.1-18.7,2.2-29.1,15c-1.3,1.5-2.4,3.3-3.5,5.1
		c-1.1-2.4-2.5-4.7-4.3-6.8C476.7,11.3,458.8,9.2,458,9c-0.3,0-0.6,0.1-0.8,0.2c-0.2,0.2-0.4,0.5-0.4,0.8
		c-0.1,0.8-1.5,18.8,8.8,31.5c10.4,12.7,28.3,14.8,29.1,15c0.1,0,0.1,0,0.1,0l0,0l0,0c0,0,0,0,0.1,0c0,0,0,0,0.1,0s0.2,0,0.3-0.1
		c6.3-1.9,15.1-5.8,21.2-13.2c10.4-12.7,8.8-30.7,8.8-31.5C525.2,11.5,525,11.1,524.8,10.9z M467.4,40c-8.3-10.1-8.4-24.3-8.4-28.5
		c4.1,0.7,18,3.8,26.3,13.9c7.3,9,8.3,21.2,8.4,26.8l-23.9-29.4c-0.4-0.5-1.1-0.5-1.6-0.1s-0.5,1.1-0.1,1.6l24,29.4
		C486.5,52.4,474.7,49,467.4,40z M514.6,41.8c-5.3,6.5-12.7,10-18.6,12c0.1-1.3,0.1-3.2-0.1-5.5L514.1,26c0.4-0.5,0.3-1.2-0.2-1.6
		c-0.5-0.4-1.2-0.3-1.6,0.1L495.6,45c-0.5-3.5-1.3-7.4-2.9-11.5c1.1-2.4,2.5-4.5,4-6.4C505,17,518.9,13.9,523,13.2
		C523.1,17.4,522.8,31.6,514.6,41.8z"/>
</g>
<g>
	<path class="st0" d="M490.7,381.7v49c-4.8,3-7.7,8.1-7.7,13.7c0,8.9,7.3,16.1,16.1,16.1s16.2-7.3,16.2-16.1c0-5.6-3-10.8-7.7-13.7
		v-49c0-0.9-0.8-1.6-1.6-1.6h-13.7C491.4,380,490.6,380.7,490.7,381.7z M493,433c0.5-0.2,0.9-0.8,0.9-1.4v-48.2h10.4v48.2
		c0,0.5,0.3,1.1,0.9,1.4c4.2,2.2,6.8,6.6,6.8,11.3c0,7.1-5.8,12.9-12.9,12.9c-7.1,0-12.9-5.8-12.9-12.9
		C486.3,439.6,488.8,435.3,493,433z"/>
	<path class="st0" d="M493.2,444.3c0,3.3,2.6,5.9,5.9,5.9c3.3,0,5.9-2.6,5.9-5.9c0-2.6-1.9-4.8-4.3-5.6v-46.5c0-0.9-0.8-1.6-1.6-1.6
		s-1.6,0.8-1.6,1.6v46.5C495,439.4,493.2,441.7,493.2,444.3z"/>
	<path class="st0" d="M483,422.5v-16.7h1.6c0.5,0,1.1-0.3,1.4-0.9c0.3-0.5,0.3-1.1,0-1.6l-7.5-12.1c-0.3-0.4-0.9-0.8-1.4-0.8
		s-1.1,0.3-1.4,0.8l-7.5,12.1c-0.3,0.4-0.3,1.1,0,1.6s0.9,0.9,1.4,0.9h1.6v16.7c0,0.9,0.8,1.6,1.6,1.6h8.2
		C482.3,424.2,482.9,423.4,483,422.5z M481.6,402.6h-0.3c-0.9,0-1.6,0.8-1.6,1.6v16.7h-4.9v-16.7c0-0.9-0.8-1.6-1.6-1.6h-0.3
		l4.5-7.3L481.6,402.6z"/>
</g>
<path class="st0" d="M39,182.5c-2.2,0-4.4,0.4-6.4,1c-1.9,0.7-4,0.7-5.9,0c-2.1-0.7-4.2-1-6.4-1c-11.3,0-19.8,15.8-19.8,25.9
	c0,10.9,8.9,19.8,19.8,19.8c2.8,0,5.6-0.6,8.2-1.8v29.5c0,0.6,0.5,1.1,1.1,1.1s1.1-0.5,1.1-1.1v-29.5c2.6,1.2,5.4,1.8,8.2,1.8
	c10.9,0,19.8-8.9,19.8-19.8C58.8,198.2,50.4,182.5,39,182.5z M39,226c-2.9,0-5.7-0.7-8.2-2.1v-2.1L42.7,210c0.4-0.4,0.4-1.1,0-1.6
	s-1.1-0.4-1.5,0l-10.3,10.3V203c0-0.6-0.5-1.1-1.1-1.1s-1.1,0.5-1.1,1.1v8.9l-7.3-7.3c-0.4-0.4-1.1-0.4-1.5,0s-0.4,1.1,0,1.6
	l8.9,8.9v8.9c-2.5,1.3-5.3,2.1-8.2,2.1c-9.7,0-17.5-7.8-17.5-17.5c0-9.4,7.8-23.7,17.5-23.7c1.9,0,3.9,0.3,5.7,1
	c2.4,0.8,5,0.8,7.3,0c1.8-0.6,3.7-1,5.7-1c9.7,0,17.5,14.4,17.5,23.7C56.6,218.1,48.7,226,39,226z"/>
</svg>
