<?xml version="1.0" encoding="utf-8"?>
<!-- Generator: Adobe Illustrator 24.1.2, SVG Export Plug-In . SVG Version: 6.00 Build 0)  -->
<svg version="1.1" id="Layer_1" xmlns="http://www.w3.org/2000/svg" xmlns:xlink="http://www.w3.org/1999/xlink" x="0px" y="0px"
	 viewBox="0 0 150 150" style="enable-background:new 0 0 150 150;" xml:space="preserve">
<style type="text/css">
	.st0{fill:url(#SVGID_1_);}
	.st1{fill:#D55A59;}
	.st2{fill:#E19529;}
	.st3{fill:#01AAC5;}
	.st4{fill:#81B247;}
</style>
<g>
	<radialGradient id="SVGID_1_" cx="75.0016" cy="75.0016" r="74.9984" fx="142.5236" fy="42.359" gradientUnits="userSpaceOnUse">
		<stop  offset="0" style="stop-color:#FFFFFF"/>
		<stop  offset="1" style="stop-color:#F2F2F2"/>
	</radialGradient>
	<circle class="st0" cx="75" cy="75" r="75"/>
</g>
<g>
	<polygon class="st1" points="75,52.4 40.6,17.9 33.3,25.2 67.7,59.6 75,66.9 82.3,59.6 116.7,25.2 109.4,17.9 	"/>
	<circle class="st1" cx="74.6" cy="24.6" r="10.3"/>
</g>
<g>
	<g>
		<g>
			<polygon class="st2" points="75,97.7 109.4,132.1 116.7,124.8 82.3,90.4 75,83.1 67.7,90.4 33.3,124.8 40.6,132.1 			"/>
		</g>
		<circle class="st2" cx="75.4" cy="125.4" r="10.3"/>
	</g>
</g>
<g>
	<g>
		<g>
			<polygon class="st3" points="97.7,75 132.1,40.6 124.8,33.3 90.4,67.7 83.1,75 90.4,82.3 124.8,116.7 132.1,109.4 			"/>
		</g>
		<circle class="st3" cx="125.4" cy="74.6" r="10.3"/>
	</g>
</g>
<g>
	<g>
		<g>
			<polygon class="st4" points="52.4,75 17.9,109.4 25.2,116.7 59.6,82.3 66.9,75 59.6,67.7 25.2,33.3 17.9,40.6 			"/>
		</g>
		<circle class="st4" cx="24.6" cy="75.4" r="10.3"/>
	</g>
</g>
</svg>
