<?xml version="1.0" encoding="utf-8"?>
<!-- Generator: Adobe Illustrator 24.1.2, SVG Export Plug-In . SVG Version: 6.00 Build 0)  -->
<svg version="1.1" id="Layer_1" xmlns="http://www.w3.org/2000/svg" xmlns:xlink="http://www.w3.org/1999/xlink" x="0px" y="0px"
	 viewBox="0 0 455 113.1" style="enable-background:new 0 0 455 113.1;" xml:space="preserve">
<style type="text/css">
	.st0{fill:#009245;}
	.st1{fill:none;stroke:#009245;stroke-miterlimit:10;}
	.st2{fill:none;stroke:#009245;stroke-width:4;stroke-linecap:round;stroke-miterlimit:10;}
	.st3{fill:none;stroke:#009245;stroke-width:2;stroke-linecap:round;stroke-miterlimit:10;}
</style>
<g>
	<path class="st0" d="M40.4,31.1c-0.4,0.2-1.1,0.3-1.9,0.3c-3.3,0-4.8-2.7-4.8-6.3c0-4.8,2.7-6.7,5.2-6.7c0.9,0,1.5,0.2,1.7,0.3
		l-0.4,2.1c-0.3-0.1-0.6-0.2-1.2-0.2c-1.4,0-2.7,1.2-2.7,4.4c0,3.1,1.2,4.3,2.7,4.3c0.4,0,0.9-0.1,1.2-0.2L40.4,31.1z"/>
	<path class="st0" d="M48.2,26.6c0,3.9-2.1,4.8-3.6,4.8c-2.2,0-3.6-1.7-3.6-4.8c0-3.3,1.7-4.8,3.6-4.8
		C46.9,21.8,48.2,23.7,48.2,26.6z M43.6,26.6c0,1.6,0.2,2.9,1.1,2.9c0.8,0,1-1.6,1-2.9s-0.2-2.9-1-2.9
		C43.8,23.7,43.6,25.3,43.6,26.6z"/>
	<path class="st0" d="M49.6,24.8c0-1-0.1-1.9-0.1-2.8h2.1l0.1,1.1l0,0c0.5-0.7,1.3-1.2,2.3-1.2c1.8,0,2.5,1.4,2.5,3.5v6H54v-5.8
		c0-0.8-0.2-1.5-0.9-1.5c-0.4,0-0.8,0.3-0.9,0.8c-0.1,0.2-0.1,0.5-0.1,0.9v5.7h-2.5V24.8z"/>
	<path class="st0" d="M65.1,26.6c0,3.9-2.1,4.8-3.6,4.8c-2.2,0-3.6-1.7-3.6-4.8c0-3.3,1.7-4.8,3.6-4.8
		C63.8,21.8,65.1,23.7,65.1,26.6z M60.5,26.6c0,1.6,0.2,2.9,1.1,2.9c0.8,0,1-1.6,1-2.9s-0.2-2.9-1-2.9
		C60.7,23.7,60.5,25.3,60.5,26.6z"/>
	<path class="st0" d="M71.7,31.1c-0.2,0.1-0.9,0.3-1.6,0.3c-2.4,0-3.9-1.6-3.9-4.7c0-2.9,1.7-4.9,4.3-4.9c0.6,0,1.1,0.1,1.4,0.2
		l-0.3,2c-0.2-0.1-0.5-0.2-0.9-0.2c-1.2,0-1.9,1.1-1.9,2.8c0,1.7,0.7,2.7,1.9,2.7c0.4,0,0.7-0.1,0.9-0.2L71.7,31.1z"/>
	<path class="st0" d="M75.2,19.5c0,0.8-0.6,1.3-1.3,1.3s-1.3-0.6-1.2-1.3c0-0.8,0.6-1.3,1.3-1.3C74.6,18.2,75.2,18.7,75.2,19.5z
		 M72.7,31.3V22h2.5v9.3H72.7z"/>
	<path class="st0" d="M76.9,24.8c0-1-0.1-1.9-0.1-2.8H79l0.1,1.1l0,0c0.5-0.7,1.3-1.2,2.2-1.2c1,0,1.7,0.5,2,1.3l0,0
		c0.2-0.4,0.6-0.7,0.9-0.9c0.4-0.2,0.8-0.3,1.3-0.3c1.7,0,2.4,1.3,2.4,3.6v5.9h-2.5V26c0-1.1-0.1-1.9-0.9-1.9
		c-0.4,0-0.8,0.3-0.9,0.9c0,0.1-0.1,0.4-0.1,0.6v5.9H81v-5.8c0-0.7-0.1-1.6-0.9-1.6c-0.4,0-0.8,0.3-0.9,0.8
		c-0.1,0.2-0.1,0.4-0.1,0.7v5.9h-2.5v-6.7H76.9z"/>
	<path class="st0" d="M92.3,19.5c0,0.8-0.6,1.3-1.3,1.3c-0.7,0-1.3-0.6-1.2-1.3c0-0.8,0.6-1.3,1.3-1.3
		C91.8,18.2,92.3,18.7,92.3,19.5z M89.8,31.3V22h2.5v9.3H89.8z"/>
	<path class="st0" d="M96.1,27.5c0,1.4,0.9,2,2,2c0.7,0,1.3-0.2,1.8-0.3l0.3,1.8c-0.6,0.2-1.6,0.4-2.6,0.4c-2.5,0-3.9-1.7-3.9-4.6
		c0-3.1,1.6-5,3.7-5c2,0,3.2,1.6,3.2,4.4c0,0.7,0,1-0.1,1.3C100.5,27.5,96.1,27.5,96.1,27.5z M98.4,25.8c0-1.2-0.3-2.1-1-2.1
		c-0.8,0-1.1,1.2-1.2,2.1H98.4z"/>
	<path class="st0" d="M102,24.8c0-1-0.1-1.9-0.1-2.8h2.1l0.1,1.1l0,0c0.5-0.7,1.3-1.2,2.3-1.2c1.8,0,2.5,1.4,2.5,3.5v6h-2.5v-5.8
		c0-0.8-0.2-1.5-0.9-1.5c-0.4,0-0.8,0.3-0.9,0.8c-0.1,0.2-0.1,0.5-0.1,0.9v5.7H102V24.8z"/>
	<path class="st0" d="M113.7,19.5V22h1.8v1.8h-1.8V28c0,1.1,0.5,1.3,0.9,1.3c0.2,0,0.4,0,0.6-0.1v1.9c-0.3,0.1-0.9,0.2-1.5,0.2
		c-0.7,0-1.3-0.2-1.8-0.6c-0.5-0.5-0.8-1.2-0.8-2.7v-4.4H110V22h1.1v-1.9L113.7,19.5z"/>
	<path class="st0" d="M123.3,26.6c0,3.9-2.1,4.8-3.6,4.8c-2.2,0-3.6-1.7-3.6-4.8c0-3.3,1.7-4.8,3.6-4.8
		C122,21.8,123.3,23.7,123.3,26.6z M118.7,26.6c0,1.6,0.2,2.9,1.1,2.9c0.8,0,1-1.6,1-2.9s-0.2-2.9-1-2.9
		C118.9,23.7,118.7,25.3,118.7,26.6z"/>
	<path class="st0" d="M132.9,31.1c-0.2,0.1-0.9,0.3-1.6,0.3c-2.4,0-3.9-1.6-3.9-4.7c0-2.9,1.7-4.9,4.3-4.9c0.6,0,1.1,0.1,1.4,0.2
		l-0.3,2c-0.2-0.1-0.5-0.2-0.9-0.2c-1.2,0-1.9,1.1-1.9,2.8c0,1.7,0.7,2.7,1.9,2.7c0.4,0,0.7-0.1,0.9-0.2L132.9,31.1z"/>
	<path class="st0" d="M138.3,31.3l-0.1-0.9l0,0c-0.5,0.7-1.2,1.1-2.1,1.1c-1.4,0-2.5-1.2-2.5-2.8c0-2.4,2.1-3.4,4.3-3.5V25
		c0-0.7-0.4-1.3-1.3-1.3c-0.7,0-1.3,0.2-1.9,0.5l-0.5-1.7c0.5-0.3,1.6-0.7,2.9-0.7c2.8,0,3.3,2,3.3,3.9v3.5c0,0.7,0,1.5,0.2,2.1
		H138.3z M138,26.8c-0.8,0-2,0.3-2,1.6c0,0.9,0.5,1.3,0.9,1.3c0.4,0,0.9-0.2,1-0.8c0-0.1,0.1-0.3,0.1-0.4V26.8z"/>
	<path class="st0" d="M142.2,24.8c0-1-0.1-1.9-0.1-2.8h2.2l0.1,1.1l0,0c0.5-0.7,1.3-1.2,2.2-1.2c1,0,1.7,0.5,2,1.3l0,0
		c0.2-0.4,0.6-0.7,0.9-0.9c0.4-0.2,0.8-0.3,1.3-0.3c1.7,0,2.4,1.3,2.4,3.6v5.9h-2.5V26c0-1.1-0.1-1.9-0.9-1.9
		c-0.4,0-0.8,0.3-0.9,0.9c0,0.1-0.1,0.4-0.1,0.6v5.9h-2.5v-5.8c0-0.7-0.1-1.6-0.9-1.6c-0.4,0-0.8,0.3-0.9,0.8
		c-0.1,0.2-0.1,0.4-0.1,0.7v5.9h-2.5v-6.7H142.2z"/>
	<path class="st0" d="M155.1,24.9c0-1.1,0-2.1-0.1-2.9h2.2l0.1,1.1l0,0c0.4-0.8,1.1-1.2,1.9-1.2c2.1,0,2.9,2.2,2.9,4.8
		c0,3.3-1.5,4.8-3,4.8c-0.8,0-1.3-0.5-1.5-0.9l0,0V35h-2.5C155.1,35,155.1,24.9,155.1,24.9z M157.6,27.9c0,0.3,0,0.6,0.1,0.8
		c0.2,0.6,0.5,0.7,0.8,0.7c0.9,0,1.2-1.3,1.2-2.8c0-1.8-0.4-2.7-1.2-2.7c-0.4,0-0.7,0.4-0.8,0.8c-0.1,0.2-0.1,0.4-0.1,0.7V27.9z"/>
	<path class="st0" d="M165.7,27.5c0,1.4,0.9,2,2,2c0.7,0,1.3-0.2,1.8-0.3l0.3,1.8c-0.6,0.2-1.6,0.4-2.6,0.4c-2.5,0-3.9-1.7-3.9-4.6
		c0-3.1,1.6-5,3.7-5c2,0,3.2,1.6,3.2,4.4c0,0.7,0,1-0.1,1.3C170.1,27.5,165.7,27.5,165.7,27.5z M167.9,25.8c0-1.2-0.3-2.1-1-2.1
		c-0.8,0-1.1,1.2-1.2,2.1H167.9z"/>
	<path class="st0" d="M171.5,29c0.4,0.2,1,0.5,1.7,0.5c0.6,0,1-0.3,1-0.8s-0.3-0.8-1.1-1.3c-1.5-0.9-1.9-1.8-1.9-2.7
		c0-1.7,1.2-2.9,3.1-2.9c0.8,0,1.4,0.2,1.9,0.4l-0.4,1.8c-0.4-0.2-0.8-0.4-1.3-0.4c-0.6,0-0.9,0.4-0.9,0.8s0.2,0.6,1.1,1.2
		c1.4,0.8,1.9,1.7,1.9,2.8c0,1.9-1.4,2.9-3.3,2.9c-0.8,0-1.7-0.2-2.1-0.5L171.5,29z"/>
	<path class="st0" d="M180.2,19.5c0,0.8-0.6,1.3-1.3,1.3s-1.3-0.6-1.2-1.3c0-0.8,0.6-1.3,1.3-1.3C179.6,18.2,180.2,18.7,180.2,19.5z
		 M177.7,31.3V22h2.5v9.3H177.7z"/>
	<path class="st0" d="M181.9,24.8c0-1-0.1-1.9-0.1-2.8h2.1l0.1,1.1l0,0c0.5-0.7,1.3-1.2,2.3-1.2c1.8,0,2.5,1.4,2.5,3.5v6h-2.5v-5.8
		c0-0.8-0.2-1.5-0.9-1.5c-0.4,0-0.8,0.3-0.9,0.8c-0.1,0.2-0.1,0.5-0.1,0.9v5.7h-2.5L181.9,24.8L181.9,24.8z"/>
	<path class="st0" d="M197.4,26.6c0,3.9-2.1,4.8-3.6,4.8c-2.2,0-3.6-1.7-3.6-4.8c0-3.3,1.7-4.8,3.6-4.8
		C196.1,21.8,197.4,23.7,197.4,26.6z M192.8,26.6c0,1.6,0.2,2.9,1.1,2.9c0.8,0,1-1.6,1-2.9s-0.2-2.9-1-2.9
		C193,23.7,192.8,25.3,192.8,26.6z"/>
</g>
<g>
	<path class="st0" d="M274.6,32.9c-0.4,0.2-1.1,0.3-1.9,0.3c-3.3,0-4.8-2.7-4.8-6.3c0-4.8,2.7-6.7,5.2-6.7c0.9,0,1.5,0.2,1.7,0.3
		l-0.4,2.1c-0.3-0.1-0.6-0.2-1.2-0.2c-1.4,0-2.7,1.2-2.7,4.4c0,3.1,1.2,4.3,2.7,4.3c0.4,0,0.9-0.1,1.2-0.2L274.6,32.9z"/>
	<path class="st0" d="M282.5,28.4c0,3.9-2.1,4.8-3.6,4.8c-2.2,0-3.6-1.7-3.6-4.8c0-3.3,1.7-4.8,3.6-4.8
		C281.1,23.7,282.5,25.5,282.5,28.4z M277.8,28.4c0,1.6,0.2,2.9,1.1,2.9c0.8,0,1-1.6,1-2.9s-0.2-2.9-1-2.9
		C278,25.6,277.8,27.2,277.8,28.4z"/>
	<path class="st0" d="M283.9,26.6c0-1-0.1-1.9-0.1-2.8h2.1l0.1,1.1l0,0c0.5-0.7,1.3-1.2,2.3-1.2c1.8,0,2.5,1.4,2.5,3.5v6h-2.5v-5.8
		c0-0.8-0.2-1.5-0.9-1.5c-0.4,0-0.8,0.3-0.9,0.8c-0.1,0.2-0.1,0.5-0.1,0.9v5.7h-2.5V26.6z"/>
	<path class="st0" d="M299.3,28.4c0,3.9-2.1,4.8-3.6,4.8c-2.2,0-3.6-1.7-3.6-4.8c0-3.3,1.7-4.8,3.6-4.8
		C298,23.7,299.3,25.5,299.3,28.4z M294.7,28.4c0,1.6,0.2,2.9,1.1,2.9c0.8,0,1-1.6,1-2.9s-0.2-2.9-1-2.9
		C294.9,25.6,294.7,27.2,294.7,28.4z"/>
	<path class="st0" d="M305.9,33c-0.2,0.1-0.9,0.3-1.6,0.3c-2.4,0-3.9-1.6-3.9-4.7c0-2.9,1.7-4.9,4.3-4.9c0.6,0,1.1,0.1,1.4,0.2
		l-0.3,2c-0.2-0.1-0.5-0.2-0.9-0.2c-1.2,0-1.9,1.1-1.9,2.8c0,1.7,0.7,2.7,1.9,2.7c0.4,0,0.7-0.1,0.9-0.2L305.9,33z"/>
	<path class="st0" d="M309.4,21.4c0,0.8-0.6,1.3-1.3,1.3c-0.7,0-1.3-0.6-1.2-1.3c0-0.8,0.6-1.3,1.3-1.3
		C308.8,20,309.4,20.5,309.4,21.4z M306.9,33.1v-9.3h2.5v9.3H306.9z"/>
	<path class="st0" d="M311.1,26.6c0-1-0.1-1.9-0.1-2.8h2.2l0.1,1.1l0,0c0.5-0.7,1.3-1.2,2.2-1.2c1,0,1.7,0.5,2,1.3l0,0
		c0.2-0.4,0.6-0.7,0.9-0.9c0.4-0.2,0.8-0.3,1.3-0.3c1.7,0,2.4,1.3,2.4,3.6v5.9h-2.5v-5.5c0-1.1-0.1-1.9-0.9-1.9
		c-0.4,0-0.8,0.3-0.9,0.9c0,0.1-0.1,0.4-0.1,0.6v5.9h-2.5v-5.8c0-0.7-0.1-1.6-0.9-1.6c-0.4,0-0.8,0.3-0.9,0.8
		c-0.1,0.2-0.1,0.4-0.1,0.7v5.9h-2.5v-6.7H311.1z"/>
	<path class="st0" d="M326.5,21.4c0,0.8-0.6,1.3-1.3,1.3c-0.7,0-1.3-0.6-1.2-1.3c0-0.8,0.6-1.3,1.3-1.3
		C326,20,326.5,20.5,326.5,21.4z M324,33.1v-9.3h2.5v9.3H324z"/>
	<path class="st0" d="M330.4,29.4c0,1.4,0.9,2,2,2c0.7,0,1.3-0.2,1.8-0.3l0.3,1.8c-0.6,0.2-1.6,0.4-2.6,0.4c-2.5,0-3.9-1.7-3.9-4.6
		c0-3.1,1.6-5,3.7-5c2,0,3.2,1.6,3.2,4.4c0,0.7,0,1-0.1,1.3C334.8,29.4,330.4,29.4,330.4,29.4z M332.6,27.6c0-1.2-0.3-2.1-1-2.1
		c-0.8,0-1.1,1.2-1.2,2.1H332.6z"/>
	<path class="st0" d="M336.2,26.6c0-1-0.1-1.9-0.1-2.8h2.1l0.1,1.1l0,0c0.5-0.7,1.3-1.2,2.3-1.2c1.8,0,2.5,1.4,2.5,3.5v6h-2.5v-5.8
		c0-0.8-0.2-1.5-0.9-1.5c-0.4,0-0.8,0.3-0.9,0.8c-0.1,0.2-0.1,0.5-0.1,0.9v5.7h-2.5V26.6z"/>
	<path class="st0" d="M347.9,21.3v2.5h1.8v1.8h-1.8v4.2c0,1.1,0.5,1.3,0.9,1.3c0.2,0,0.4,0,0.6-0.1v1.9c-0.3,0.1-0.9,0.2-1.5,0.2
		c-0.7,0-1.3-0.2-1.8-0.6c-0.5-0.5-0.8-1.2-0.8-2.7v-4.4h-1.1v-1.8h1.1v-1.9L347.9,21.3z"/>
	<path class="st0" d="M357.5,28.4c0,3.9-2.1,4.8-3.6,4.8c-2.2,0-3.6-1.7-3.6-4.8c0-3.3,1.7-4.8,3.6-4.8
		C356.2,23.7,357.5,25.5,357.5,28.4z M352.9,28.4c0,1.6,0.2,2.9,1.1,2.9c0.8,0,1-1.6,1-2.9s-0.2-2.9-1-2.9
		C353.1,25.6,352.9,27.2,352.9,28.4z"/>
	<path class="st0" d="M367.1,33c-0.2,0.1-0.9,0.3-1.6,0.3c-2.4,0-3.9-1.6-3.9-4.7c0-2.9,1.7-4.9,4.3-4.9c0.6,0,1.1,0.1,1.4,0.2
		l-0.3,2c-0.2-0.1-0.5-0.2-0.9-0.2c-1.2,0-1.9,1.1-1.9,2.8c0,1.7,0.7,2.7,1.9,2.7c0.4,0,0.7-0.1,0.9-0.2L367.1,33z"/>
	<path class="st0" d="M370.6,21.4c0,0.8-0.6,1.3-1.3,1.3c-0.7,0-1.3-0.6-1.2-1.3c0-0.8,0.6-1.3,1.3-1.3
		C370,20,370.6,20.5,370.6,21.4z M368.1,33.1v-9.3h2.5v9.3H368.1z"/>
	<path class="st0" d="M374.4,29.4c0,1.4,0.9,2,2,2c0.7,0,1.3-0.2,1.8-0.3l0.3,1.8c-0.6,0.2-1.6,0.4-2.6,0.4c-2.5,0-3.9-1.7-3.9-4.6
		c0-3.1,1.6-5,3.7-5c2,0,3.2,1.6,3.2,4.4c0,0.7,0,1-0.1,1.3C378.8,29.4,374.4,29.4,374.4,29.4z M376.6,27.6c0-1.2-0.3-2.1-1-2.1
		c-0.8,0-1.1,1.2-1.2,2.1H376.6z"/>
	<path class="st0" d="M380.3,26.6c0-1-0.1-1.9-0.1-2.8h2.1l0.1,1.1l0,0c0.5-0.7,1.3-1.2,2.3-1.2c1.8,0,2.5,1.4,2.5,3.5v6h-2.5v-5.8
		c0-0.8-0.2-1.5-0.9-1.5c-0.4,0-0.8,0.3-0.9,0.8c-0.1,0.2-0.1,0.5-0.1,0.9v5.7h-2.5V26.6z"/>
	<path class="st0" d="M391.9,21.3v2.5h1.8v1.8h-1.8v4.2c0,1.1,0.5,1.3,0.9,1.3c0.2,0,0.4,0,0.6-0.1v1.9c-0.3,0.1-0.9,0.2-1.5,0.2
		c-0.7,0-1.3-0.2-1.8-0.6c-0.5-0.5-0.8-1.2-0.8-2.7v-4.4h-1.1v-1.8h1.1v-1.9L391.9,21.3z"/>
	<path class="st0" d="M394.9,33.1v-9.3h2.5v9.3H394.9z M398.8,20l-1.9,2.7h-1.6l1.3-2.7H398.8z"/>
	<path class="st0" d="M399.6,33.1v-7.5h-1.3v-1.8h1.3v-0.5c0-1.2,0.7-3.5,4.1-3.5c0.9,0,1.7,0.2,2.2,0.4l-0.4,2
		c-0.4-0.2-1-0.3-1.7-0.3c-1.3,0-1.7,0.8-1.7,1.6v0.3h4.6v9.3h-2.5v-7.5h-2.1v7.5H399.6z"/>
	<path class="st0" d="M413.6,33c-0.2,0.1-0.9,0.3-1.6,0.3c-2.4,0-3.9-1.6-3.9-4.7c0-2.9,1.7-4.9,4.3-4.9c0.6,0,1.1,0.1,1.4,0.2
		l-0.3,2c-0.2-0.1-0.5-0.2-0.9-0.2c-1.2,0-1.9,1.1-1.9,2.8c0,1.7,0.7,2.7,1.9,2.7c0.4,0,0.7-0.1,0.9-0.2L413.6,33z"/>
	<path class="st0" d="M421.3,28.4c0,3.9-2.1,4.8-3.6,4.8c-2.2,0-3.6-1.7-3.6-4.8c0-3.3,1.7-4.8,3.6-4.8
		C420,23.7,421.3,25.5,421.3,28.4z M416.7,28.4c0,1.6,0.2,2.9,1.1,2.9c0.8,0,1-1.6,1-2.9s-0.2-2.9-1-2.9
		C416.9,25.6,416.7,27.2,416.7,28.4z"/>
</g>
<g>
	<circle class="st1" cx="232.6" cy="26.5" r="21"/>
	<line class="st2" x1="232.6" y1="16.5" x2="232.6" y2="36.5"/>
	<line class="st2" x1="242.6" y1="26.5" x2="222.6" y2="26.5"/>
</g>
<g>
	<g>
		<path class="st0" d="M226,74.4h3.4V89h4.5v2.9H226V74.4z"/>
		<path class="st0" d="M244.6,85.5c0,5.3-2.9,6.6-4.8,6.6c-3,0-4.8-2.4-4.8-6.5c0-4.6,2.4-6.6,4.9-6.6
			C242.8,79,244.6,81.5,244.6,85.5z M238.3,85.5c0,2.2,0.3,4,1.6,4c1.1,0,1.4-2.1,1.4-4c0-1.7-0.3-3.9-1.4-3.9
			C238.6,81.5,238.3,83.7,238.3,85.5z"/>
		<path class="st0" d="M255.9,79.2c-0.1,1.1-0.1,2.5-0.1,4v7.2c0,2.7-0.5,4.2-1.5,5.2c-0.9,0.9-2.2,1.4-4.1,1.4
			c-1.2,0-2.2-0.2-3.2-0.6l0.6-2.6c0.6,0.3,1.4,0.5,2.4,0.5c1.7,0,2.4-1.1,2.4-3.1v-0.8h-0.1c-0.4,0.8-1.3,1.3-2.3,1.3
			c-2.8,0-4-3.1-4-6.1c0-4.2,1.9-6.6,4.3-6.6c1,0,1.8,0.5,2.3,1.5h0.1l0.2-1.3H255.9z M252.4,83.8c0-0.3-0.1-0.7-0.1-0.9
			c-0.2-0.5-0.5-1-1.1-1c-1.2,0-1.7,1.7-1.7,3.7c0,2.4,0.7,3.5,1.6,3.5c0.4,0,0.9-0.2,1.1-0.9c0.1-0.3,0.2-0.7,0.2-1V83.8z"/>
		<path class="st0" d="M258,83c0-1.3-0.1-2.6-0.1-3.8h2.9L261,81h0.1c0.6-1.3,1.6-2,2.5-2c0.3,0,0.5,0,0.7,0.1v3.4
			c-0.2-0.1-0.4-0.1-0.7-0.1c-0.7,0-1.7,0.5-2.1,1.8c-0.1,0.3-0.1,0.7-0.1,1.3v6.4H258V83L258,83z"/>
		<path class="st0" d="M274.8,85.5c0,5.3-2.9,6.6-4.8,6.6c-3,0-4.8-2.4-4.8-6.5c0-4.6,2.4-6.6,4.9-6.6C273,79,274.8,81.5,274.8,85.5
			z M268.5,85.5c0,2.2,0.3,4,1.6,4c1.1,0,1.4-2.1,1.4-4c0-1.7-0.3-3.9-1.4-3.9C268.8,81.5,268.5,83.7,268.5,85.5z"/>
		<path class="st0" d="M276.7,88.8c0.5,0.3,1.4,0.7,2.3,0.7c0.9,0,1.4-0.4,1.4-1.1c0-0.6-0.4-1.1-1.5-1.7c-2.1-1.2-2.6-2.5-2.6-3.6
			c0-2.3,1.6-4,4.2-4c1.1,0,1.9,0.3,2.6,0.6l-0.6,2.5c-0.5-0.3-1.1-0.5-1.8-0.5c-0.9,0-1.3,0.5-1.3,1.1s0.3,0.9,1.5,1.6
			c1.9,1.1,2.6,2.4,2.6,3.8c0,2.6-1.9,4-4.5,4c-1.1,0-2.3-0.3-2.9-0.7L276.7,88.8z"/>
	</g>
	<g>
		<circle class="st1" cx="192.6" cy="85.2" r="21"/>
		<line class="st2" x1="202.6" y1="80.2" x2="182.6" y2="80.2"/>
		<line class="st2" x1="202.6" y1="90.2" x2="182.6" y2="90.2"/>
	</g>
</g>
<line class="st3" x1="6" y1="58" x2="450" y2="58"/>
</svg>
