<?xml version="1.0" encoding="utf-8"?>
<!-- Generator: Adobe Illustrator 24.1.2, SVG Export Plug-In . SVG Version: 6.00 Build 0)  -->
<svg version="1.1" id="Layer_1" xmlns="http://www.w3.org/2000/svg" xmlns:xlink="http://www.w3.org/1999/xlink" x="0px" y="0px"
	 viewBox="0 0 276 252" style="enable-background:new 0 0 276 252;" xml:space="preserve">
<style type="text/css">
	.st0{fill:#EAE0B7;}
	.st1{fill:#D67CCF;}
	.st2{fill:#5B4D6D;}
	.st3{fill:#FFFFFF;}
	.st4{fill:none;stroke:#4C286E;stroke-width:2;stroke-linecap:round;stroke-miterlimit:10;}
	.st5{fill:#4C286E;}
	.st6{fill:#9C8EB2;}
</style>
<g>
	<path class="st0" d="M123.6,13.6C49,20.5-9.2,109.9,7.7,160.9C33,237.1,234.6,252,266.4,193.2C293,144,222,4.4,123.6,13.6z"/>
	<path class="st1" d="M142.3,7.8c0,0-23,13-31,36s-4,54-4,54s12,6,21,2c0,0,7,25,0,37c-7,12,20,14,20,12s7-17,7-17s-5-33,7-59
		c0,0,9,1,13-9s-2-12-2-12l7.1-26.9l-10.1-12.1L142.3,7.8z"/>
	<path class="st2" d="M128.8,125.3c-2,0-6,4-11,9c0,0-32,6-39,14c0,0-2,8,0,20c0,0-5,0-3,3c0,0-5,0-3,4c0,0-20,28-21,44
		s61,5.6,61,5.6s44.7,19.4,71,19.4c1,0,10.4-2.5,14.2-17.2c0,0,0.4,0.6,7.8-1.8c0,0-4-45-5-50c0,0,4-3,0-6c0,0,4-13,3-17
		s-29-16-34-17c0,0-6-9-11-9s-20,6-20,6L128.8,125.3z"/>
	<path class="st2" d="M155.3,53.8c2,0,11.3-23.1,14.7-33.5c0,0-36.7-3.5-41.7-12.5c0,0,54-10,57,17c0,0,10,11,5,16s-11,9-17,11
		L155.3,53.8z"/>
	<path class="st3" d="M158.3,119.8l-22,8l-8-7c0,0-11,35-7,51l7-17v-11l7-12l3,14l-6,9l2,20c0,0,20-24,26-45L158.3,119.8z"/>
	<path class="st4" d="M116.2,74.6c0,0,0,3.5,7.1,3.5s9.7-7.1,9.7-7.1"/>
	<ellipse transform="matrix(0.2019 -0.9794 0.9794 0.2019 62.6692 171.175)" class="st5" cx="136.4" cy="47.1" rx="4.8" ry="1.8"/>
	<ellipse transform="matrix(0.2019 -0.9794 0.9794 0.2019 49.9004 155.5047)" class="st5" cx="120.4" cy="47.1" rx="4.8" ry="1.8"/>
	<path class="st1" d="M136.2,200.5c0,0,14.5,5.2,18.6-2.4c4.1-7.6,9-7.8,9-7.8s-2.7-8-7.8-4.9c0,0-1.3-3.3-7.7,1.1
		c0,0-10.4,3.1-12.2,2.6L136.2,200.5z"/>
	<path class="st3" d="M135.8,185.3h6c0,0-2,27-7,30h-5C129.8,215.3,136.8,194.3,135.8,185.3z"/>
	<ellipse transform="matrix(0.2687 -0.9632 0.9632 0.2687 -114.4545 270.147)" class="st0" cx="120.7" cy="210.4" rx="4" ry="2.4"/>
	
		<ellipse transform="matrix(0.2687 -0.9632 0.9632 0.2687 -124.5502 263.2455)" class="st0" cx="111.1" cy="213.6" rx="4" ry="2.4"/>
	<ellipse transform="matrix(0.2687 -0.9632 0.9632 0.2687 -133.8758 255.7592)" class="st0" cx="101.5" cy="216" rx="4" ry="2.4"/>
	<path class="st6" d="M185.3,45.1c-5.4-1.7-11.5-5.9-11.5-5.9s8,2,2-6c-2.4-3.1-5.8-4-9.1-3.8c-4.1,11-9.9,24.3-11.4,24.3l18-2
		C177.4,50.4,181.5,48.1,185.3,45.1z"/>
</g>
</svg>
