<?xml version="1.0" encoding="utf-8"?>
<!-- Generator: Adobe Illustrator 24.1.2, SVG Export Plug-In . SVG Version: 6.00 Build 0)  -->
<svg version="1.1" id="Layer_1" xmlns="http://www.w3.org/2000/svg" xmlns:xlink="http://www.w3.org/1999/xlink" x="0px" y="0px"
	 viewBox="0 0 276 252" style="enable-background:new 0 0 276 252;" xml:space="preserve">
<style type="text/css">
	.st0{fill:#EBCCD1;}
	.st1{fill:#C4538E;}
	.st2{fill:#D67CCF;}
	.st3{fill:none;stroke:#4C286E;stroke-width:2;stroke-linecap:round;stroke-miterlimit:10;}
	.st4{fill:#4C286E;}
	.st5{fill:#293882;stroke:#293882;stroke-width:2;stroke-miterlimit:10;}
	.st6{fill:#AA1E50;}
	.st7{fill:#FFFFFF;}
</style>
<g>
	<path class="st0" d="M124.6,13.2C50,20.1-8.2,109.5,8.7,160.5c25.3,76.3,226.9,91.1,258.7,32.3C294,143.7,223,4.1,124.6,13.2z"/>
	<path class="st1" d="M226.8,87.3c0.6-12.2-8.9-14.8-10-31c-0.8-11.9,4-15.5,1-20c-5.2-7.9-27.8-8.6-42.9,1c-4.1-3.4-8.7-6.5-14.1-9
		c-15.8-7.3-38.5-9.6-44-1c-1.7,2.7-0.5,4.4-0.7,7.7c-7.4,0.6-15.5,3.8-21.3,8.3c-3.3,2.5-8.6,6.5-10,13c-0.2,1-0.3,2.1-0.4,3.1
		c-2.6,1.9-4.6,4.1-5.6,6.9c-3.1,9,6,19.6,15,30c14.5,16.8,34.9,40.3,63,37c2.7-0.3,5.5-0.9,8.2-1.7c0.8,2.6,2,5.2,3.8,7.7
		c4.2,5.9,10.1,9.1,15,10.9c3.5,10.2,10.5,9.5,15.8,7c6.7,14.8,22.2,0.1,22.2,0.1c-7.4,0-6-7.1-4.8-10.8c0.3-0.4,0.6-0.8,0.8-1.2
		c4.9-8.3-6.3-15.6-4-31C215.9,100.2,226.2,99.9,226.8,87.3z"/>
	<path class="st2" d="M125.3,42.8c0,0-25,6-29,37c0,0-19,19,7,54s74-11,78-28c0,0-5,5-18,4c0,0,12-23,0-42
		C163.3,67.8,130.3,70.8,125.3,42.8z"/>
	<path class="st2" d="M135.3,131.8c0,0,6,27-3,39l-23,19l28,20c0,0,43-3,39-9s-10-37-10-37s-7.2-10-5.1-32S135.3,131.8,135.3,131.8z
		"/>
	<g>
		<path class="st3" d="M112.4,109.8c0,0,0,3.5,7.1,3.5s9.7-7.1,9.7-7.1"/>
		
			<ellipse transform="matrix(0.2019 -0.9794 0.9794 0.2019 21.0888 200.4407)" class="st4" cx="133.5" cy="87.3" rx="4.8" ry="1.8"/>
		<ellipse transform="matrix(0.992 -0.1261 0.1261 0.992 -10.013 14.6356)" class="st4" cx="110.6" cy="86.4" rx="1.8" ry="4.8"/>
	</g>
	<path class="st5" d="M144.1,71.3c-17.1,3.4-21.7,13.6-21.7,13.6c-2.3,9.1,13.6,11.4,14.7,11.4c28.2,0,32.7-21.6,32.7-21.6
		S161.2,67.9,144.1,71.3z M136.3,94.8c-1,0-14-2-12-10c0,0,4-8,19-11s21.7,2.1,21.7,2.1S161,94.8,136.3,94.8z"/>
	<path class="st5" d="M76.5,72.2c0,0,2.3,21.9,26.6,23.6c1,0.1,14.8-1.2,13.5-10.5c0,0-3.2-10.4-17.6-14.9
		C84.4,66,76.5,72.2,76.5,72.2z M80.6,73.6c0,0,6.1-4.6,18.8-0.7s15.5,12.2,15.5,12.2c1.1,8.1-10.2,9.3-11,9.2
		C82.6,92.8,80.6,73.6,80.6,73.6z"/>
	<path class="st5" d="M116.8,87.3c1,0,3-2,6,0l1.3-3.9c0,0-4.3-2-8.8,0.4l1.5,1.5V87.3z"/>
	<path class="st6" d="M44.4,225.8c-8.2-12.1-4-31.3,9.3-37.1c10.2-4.5,22.9,0.3,29,9.3c8.2,12.1,4,31.3-9.3,37.1
		C63.1,239.5,50.4,234.7,44.4,225.8z"/>
	<path class="st6" d="M66.8,203.3c7.6-7.3,13.7-13.2,23-13c6.7,0.2,16.1,3.6,18,10c3.4,11.6-17.8,32.6-38,32c-1.2,0-13.4-0.5-16-7
		C51.1,218.4,60.7,209.1,66.8,203.3z"/>
	<path class="st2" d="M62,125.4c0.9,0,10-2.7,14.5-16.3s4.5-18.8,7.2-23c0,0-2.7-5.1-9,4.9c-6.4,10-2.7,9.1-7.3,12.7
		c0,0-12.7,1.8-10.9,11.8S62,125.4,62,125.4z"/>
	<path class="st2" d="M50.2,125.4c0,0-6.4-19.1-6.4-26.3c0-7.3-0.9-14.5,3.6-14.5c0,0,2.7-5.4,4.5-4.5s6.4,4.5,6.4,4.5
		s2.7-6.4,5.4-4.5c2.7,1.8,3.6,3.6,3.6,3.6s8.2-5.4,11.8-5.4c3.6,0,3.5,3.8,3.5,3.8s-4.4,1.6-12.5,8c0,0,1.8,8.2-3.6,10
		c0,0,1.8,3.6,3.6,3.6c1.8,0-7.3,20-7.3,20S58.4,130,50.2,125.4z"/>
	<path class="st2" d="M49.8,119.3c0,0-6,54-7,82c0,0-2,30,17,21s0-99,0-99L49.8,119.3z"/>
	<path class="st7" d="M109.2,223.4c19.7,3.9,40.4,5.7,60.1,5.4l-3.6-38.6h-46C119.8,190.3,113,210.6,109.2,223.4z"/>
	<path class="st6" d="M229.8,219.7c-4.9-10.5-28-50-65-61.5c0,0-10.4,41.6-6.4,70.5C184.6,229.4,209.8,226.5,229.8,219.7z"/>
	<path class="st6" d="M79.4,215.7c13.8,4.5,28.6,7.9,43.7,10.1c2.3-16.4,7.5-49.5,12.7-63.5C135.8,162.3,108.8,169,79.4,215.7z"/>
</g>
</svg>
