<?xml version="1.0" encoding="utf-8"?>
<!-- Generator: Adobe Illustrator 24.1.2, SVG Export Plug-In . SVG Version: 6.00 Build 0)  -->
<svg version="1.1" id="Layer_1" xmlns="http://www.w3.org/2000/svg" xmlns:xlink="http://www.w3.org/1999/xlink" x="0px" y="0px"
	 viewBox="0 0 196.1 196.1" style="enable-background:new 0 0 196.1 196.1;" xml:space="preserve">
<style type="text/css">
	.st0{opacity:0.1;}
	.st1{fill:url(#SVGID_1_);}
	.st2{fill:url(#SVGID_2_);}
	.st3{fill:#FFFFFF;}
	.st4{fill:#D0D887;}
</style>
<g>
	<g class="st0">
		<path d="M191.9,14.7c0,0-27.2,2.4-46.1,2.3c-23.4-0.1-62.6,4.6-86.9,26.2S19.9,94.2,17,129.3s-2.2,38.5-2.2,38.5L6,191.9
			c0,0,2.7,2.2,7.7,1.8c0.2,0,0.4,0.1,0.5-0.2l5.3-21.4c0,0,4.2-2.2,15.7-1.6s73.4,7.5,112-19.8s40.1-68.3,42.5-96.9
			S191,16.3,191.9,14.7z"/>
	</g>
	<g>
		<linearGradient id="SVGID_1_" gradientUnits="userSpaceOnUse" x1="158.0233" y1="31.0319" x2="29.4129" y2="150.963">
			<stop  offset="0" style="stop-color:#8DC945"/>
			<stop  offset="1" style="stop-color:#61934C"/>
		</linearGradient>
		<path class="st1" d="M178.4,2.9c0,0-27.1,3.9-45.9,4.9C109.2,9,70.2,16,47.3,39s-36.1,53.3-36.9,88.5s0,38.5,0,38.5l-7.4,24.6
			c0,0,2.9,2,7.8,1.3c0.2,0,0.4,0,0.5-0.2l4-21.7c0,0,4.1-2.5,15.6-2.5s73.8,3.3,110.6-26.2s36.1-70.5,36.9-99.2
			S177.6,4.5,178.4,2.9z"/>
	</g>
	<linearGradient id="SVGID_2_" gradientUnits="userSpaceOnUse" x1="200.1516" y1="26.2143" x2="12.7543" y2="200.9651">
		<stop  offset="0" style="stop-color:#8DC945"/>
		<stop  offset="1" style="stop-color:#4B804C"/>
	</linearGradient>
	<path class="st2" d="M178.4,2.9c0,0-0.1,0-0.4,0.1c-14.5,9.4-73.7,48.8-101.6,78.2c-19.8,20.9-52,49.6-66.1,83.7
		c0.1,0.9,0.1,1.1,0.1,1.1l-7.4,24.6c0,0,2.9,2,7.8,1.3c0.2,0,0.4,0,0.5-0.2l4-21.7c0,0,4.1-2.5,15.6-2.5s73.8,3.3,110.6-26.2
		s36.1-70.5,36.9-99.2S177.6,4.5,178.4,2.9z"/>
</g>
<g>
	<g>
		<path class="st3" d="M119.1,139.8c-0.9,0-1.8-0.2-2.7-0.5c-1.5-0.5-2.6-1.4-3.4-2.1c-2.4-2.1-4.8-4.3-7.1-6.4
			c-1.7-1.6-3.4-3.1-5.2-4.7c-0.1-0.1-0.3-0.2-0.4-0.4c0,0-0.1-0.1-0.1-0.1c-0.3,0.3-0.8,0.6-1.6,0.6c0,0,0,0-0.1,0l-5.6,0.8
			c-0.1,0-0.2,0-0.3,0c-0.5,0-1.1-0.2-1.4-0.6c-0.4-0.5-0.6-1.1-0.5-1.7c0.2-1.5-0.2-3.1-1.3-4.4c-1.1-1.3-2.6-2-4.1-2
			c-0.9,0-1.9,0.3-2.8,0.8c-0.3,0.2-0.7,0.3-1,0.3c-0.3,0-0.7-0.1-1-0.3c-0.6-0.4-1-1-1-1.8c0-2-0.6-3.8-1.8-5.1
			c-1.1-1.1-2.7-1.8-4.4-1.8c-0.1,0-0.3,0-0.4,0c0,0-0.1,0-0.1,0c-0.7,0-1.3-0.3-1.6-0.9c-0.4-0.6-0.5-1.3-0.2-1.9
			c1-2.3,0.5-4.2-1.9-6.4c-0.8-0.8-1.9-1.2-2.9-1.2c-0.7,0-1.3,0.2-1.8,0.6c-2.7,2-5.2,4.2-7.9,6.5c-1.2,1-2.4,2-3.6,3
			c-0.4,0.3-0.8,0.5-1.3,0.5c-0.2,0-0.5,0-0.7-0.1c-0.3-0.1-0.8-0.3-1.3-0.5c-3-1.4-3.7-3.2-2.6-6.2c2.3-6.3,4.5-12,6.6-17.4
			c0.9-2.3,1.8-4.5,2.6-6.8c1.2-3.2,2.5-6.4,3.7-9.7c0.6-1.5,1.6-3.2,4.6-3.2c4.7,0,9.1-1.1,13.1-3.2c4.7-2.5,9.8-3.6,14.2-4.3
			c0.1,0,0.2,0,0.3,0c0.7,0,1.4,0.4,1.8,1c0.4,0.7,0.3,1.7-0.3,2.3l-0.6,0.7c-0.3,0.4-0.6,0.7-0.9,0.9l-3.9,4.1
			c-2,2.1-4,4.2-6.1,6.4c-0.5,0.6-1.2,1.5-1.1,2.5c0.1,1,0.9,1.7,1.5,2.2c1.6,1.1,3.3,1.7,5.3,1.7c1.5,0,3.1-0.3,5.1-0.9
			c4.8-1.5,8.8-4.2,11.9-8.2c1.3-1.7,2.9-3.4,5.1-3.4c1.9,0,3.5,1.3,4.8,2.5c2.6,2.5,5.2,5.2,7.7,7.7c2.6,2.7,5.3,5.4,8,8
			c4.3,4.1,8.8,8.2,13.1,12.2c1.2,1.1,2.4,2.2,3.6,3.3c2.8,2.6,3.7,5.8,2.6,9.2c-1.2,3.6-3.8,5.9-7.4,6.5c-0.5,0.1-1,0.1-1.5,0.1
			c-0.5,0-0.9,0-1.3-0.1c1.9,3.2,1.5,7.1-1.2,10.2c-1.9,2.2-4.3,3.4-6.8,3.4c-1.4,0-2.8-0.4-4-1.1c0.2,1.8-0.2,3.6-1.3,5.2
			C124.7,138.2,121.9,139.8,119.1,139.8z"/>
		<path class="st4" d="M92,61.4c-0.7,0.7-1,1.2-1.4,1.6c-3.3,3.5-6.6,7-10,10.5c-2.4,2.6-2.2,5.6,0.7,7.6c2.1,1.5,4.3,2,6.5,2
			c1.9,0,3.8-0.4,5.7-1c5.2-1.6,9.6-4.6,12.9-8.9c1.3-1.7,2.4-2.6,3.5-2.6c1,0,2.1,0.7,3.4,2c5.3,5.2,10.4,10.6,15.7,15.7
			c5.5,5.3,11.1,10.3,16.7,15.5c2.1,2,2.9,4.4,2,7c-0.9,2.7-2.8,4.6-5.8,5.2c-0.4,0.1-0.8,0.1-1.1,0.1c-1.7,0-3.2-0.7-4.6-2
			c-4-3.7-8.1-7.3-12.1-11c-0.4-0.3-0.7-0.8-1.1-1c-0.6-0.2-1.2-0.1-1.8-0.2c0.1,0.6,0,1.4,0.4,1.8c2.6,2.4,5.2,4.8,7.9,7.2
			c2.3,2,4.5,4.1,6.8,6.1c3.1,2.8,3.3,6.6,0.6,9.8c-1.6,1.8-3.4,2.7-5.3,2.7c-1.6,0-3.1-0.6-4.6-1.9c-4.6-4.1-9.2-8.3-13.8-12.5
			c-0.4-0.3-0.7-0.7-1.2-1c-0.1-0.1-0.3-0.1-0.4-0.1c-0.2,0-0.3,0-0.5,0c0,0,0,0-0.1,0c0,0.4-0.1,0.8,0.1,1.2
			c0.2,0.4,0.6,0.6,0.9,0.9c3.8,3.5,7.7,6.9,11.5,10.5c2.3,2.2,2.6,5.4,1,8c-1.2,2-3.3,3.2-5.5,3.2c-0.7,0-1.4-0.1-2-0.3
			c-1-0.3-1.9-1-2.7-1.7c-4.1-3.7-8.2-7.4-12.3-11.1c-0.6-0.5-1.2-1.2-1.9-1.2c-0.4,0-0.8,0.2-1.2,0.8c0,0.1-0.2,0.1-0.3,0.1
			c0,0-0.1,0-0.1,0c-0.1,0-0.1,0-0.2,0c-1.9,0.3-3.9,0.6-5.7,0.8c0.7-4.3-2.9-8.7-7.4-8.7c-1.2,0-2.5,0.3-3.8,1.1
			c0.1-5.1-3.4-8.9-8.2-8.9c-0.2,0-0.3,0-0.5,0c1.6-3.5,0.2-6.3-2.4-8.7c-1.2-1.1-2.8-1.8-4.3-1.8c-1.1,0-2.1,0.3-3,1
			c-3.9,2.9-7.5,6.2-11.6,9.6c-0.1,0-0.7-0.2-1.2-0.4c-2-0.9-2.3-1.6-1.6-3.7c2.2-5.8,4.3-11.6,6.5-17.4c2.1-5.5,4.3-11,6.4-16.5
			c0.5-1.4,1.1-1.9,2.7-1.9c0,0,0,0,0,0c0,0,0,0,0,0c4.9,0,9.6-1.1,14-3.5C82.5,63.3,86.9,62.2,92,61.4 M92,57.4
			c-0.2,0-0.4,0-0.6,0.1c-4.5,0.7-9.8,1.8-14.8,4.5c-3.7,2-7.8,3-12.1,3l-0.1,0c-3.1,0-5.3,1.5-6.4,4.5c-1.2,3.2-2.5,6.5-3.7,9.6
			c-0.9,2.3-1.8,4.5-2.6,6.8c-2.1,5.5-4.3,11.2-6.6,17.5c-1.5,4-0.3,7,3.6,8.8c0.6,0.3,1.2,0.5,1.5,0.6l0,0c0.4,0.2,0.9,0.2,1.3,0.2
			c0.9,0,1.8-0.3,2.6-0.9c1.2-1,2.4-2.1,3.6-3.1c2.7-2.3,5.2-4.4,7.8-6.4c0.1-0.1,0.3-0.2,0.6-0.2c0.5,0,1.1,0.3,1.6,0.7
			c2.1,2,1.9,3,1.5,4.1c-0.6,1.3-0.4,2.7,0.4,3.9c0.7,1.1,2,1.7,3.3,1.7c0.1,0,0.1,0,0.2,0c0.1,0,0.2,0,0.3,0c1.2,0,2.2,0.4,2.9,1.2
			c0.9,0.9,1.3,2.2,1.3,3.6c0,1.5,0.7,2.8,2,3.5c0.6,0.4,1.3,0.5,2,0.5c0.7,0,1.4-0.2,2.1-0.6c0.6-0.4,1.2-0.5,1.7-0.5
			c0.9,0,1.8,0.5,2.5,1.3c0.7,0.8,1,1.9,0.9,2.8c-0.2,1.3,0.2,2.5,1.1,3.5c0.8,0.8,1.8,1.2,2.9,1.2c0.2,0,0.4,0,0.6,0l1.2-0.2
			l4.2-0.6c0.4,0,0.8-0.1,1.2-0.2c1.5,1.4,3.1,2.8,4.6,4.2c2.3,2.1,4.7,4.3,7.2,6.4c0.9,0.8,2.3,1.8,4,2.4c1.1,0.4,2.2,0.6,3.4,0.6
			c3.6,0,7-2,8.9-5.1c0.7-1.1,1.1-2.3,1.4-3.4c0.7,0.2,1.5,0.3,2.2,0.3c3,0,6-1.4,8.3-4c2.5-2.9,3.4-6.3,2.7-9.5c0.1,0,0.2,0,0.2,0
			c4.3-0.8,7.4-3.5,8.9-7.8c1.4-4.1,0.3-8.2-3.1-11.3c-1.2-1.1-2.4-2.2-3.6-3.3c-4.3-3.9-8.8-8-13.1-12.1c-2.7-2.6-5.4-5.3-8-8
			c-2.5-2.6-5.1-5.2-7.7-7.7c-1.5-1.4-3.5-3.1-6.2-3.1c-3.5,0-5.7,2.9-6.7,4.1c-2.9,3.7-6.5,6.2-10.9,7.5c-1.8,0.6-3.3,0.8-4.6,0.8
			c-1.6,0-2.9-0.4-4.1-1.3C83.1,77.4,83,77.1,83,77c0-0.1,0.1-0.4,0.5-0.9c2-2.1,4.1-4.3,6.1-6.4c1.3-1.3,2.6-2.7,3.8-4
			c0.3-0.3,0.5-0.6,0.9-1l0.6-0.7c1.1-1.3,1.4-3.1,0.6-4.6C94.8,58.1,93.4,57.4,92,57.4L92,57.4z"/>
	</g>
	<g>
		<path class="st3" d="M149.7,104.9c-0.3,0-0.6-0.1-0.9-0.2c-0.5-0.3-1-0.5-1.5-0.7c-1.3-0.6-2.5-1.2-3.7-2.1
			c-4.3-3.7-9-7.6-13.4-11.9c-3.5-3.4-6.9-6.9-10.2-10.3c-1.7-1.8-3.4-3.5-5.1-5.3c-0.9-0.9-1.7-1.6-2.5-2.2c-1-0.8-1.9-1.1-2.6-1.1
			c-0.3,0-1.2,0-2.6,1.8c-3.3,4.4-7.2,7.4-11.7,8.9c-2.8,0.9-5.7,1.2-8.5,1.5l-0.3,0c-0.2,0-0.3,0-0.5,0c-1.4,0-2.7-0.6-3.8-1.1
			c-2-0.9-3.4-2.5-3.7-4.4c-0.2-1-0.1-3,2-5.1c1.7-1.6,3.3-3.4,4.9-5.1c1.5-1.6,3-3.3,4.7-4.9c2.2-2.1,4.7-4.2,7.4-6.1
			c2.8-2,5.9-3,9.2-3c1.6,0,3.3,0.2,5,0.7l1.6,0.4c2.4,0.7,4.9,1.4,7.3,2.4c4.5,1.8,9.3,2.7,14.7,2.7l0,0c1.4,0,3-0.1,4.5-0.2
			c0.9-0.1,1.7-0.1,2.6-0.2c0,0,0.4,0,0.5,0c0.1,0,0.3,0,0.5,0l0.4,0c0.9,0.1,1.7,0.8,1.8,1.7l6.1,40.9c0.1,0.5-0.1,1.1-0.4,1.5
			l-0.4,0.5C150.8,104.6,150.3,104.9,149.7,104.9z"/>
		<path class="st4" d="M107,55.6c1.4,0,2.9,0.2,4.4,0.6c2.9,0.8,5.9,1.6,8.7,2.7c5,2,10.2,2.8,15.4,2.8c1.6,0,3.1-0.1,4.7-0.2
			c0.9-0.1,1.9-0.1,2.8-0.2c0,0,0,0,0.1,0c0.2,0,0.4,0,0.8,0.1c2,13.7,4.1,27.3,6.1,40.9c-0.1,0.2-0.3,0.3-0.4,0.5
			c-1.6-0.9-3.4-1.5-4.8-2.6c-4.5-3.8-9-7.7-13.3-11.9c-5.2-5.1-10.2-10.4-15.3-15.6c-0.8-0.9-1.7-1.7-2.7-2.4
			c-1.4-1-2.6-1.5-3.8-1.5c-1.5,0-2.9,0.9-4.2,2.6c-2.8,3.8-6.3,6.7-10.7,8.2c-2.6,0.9-5.5,1.2-8.3,1.4c-0.1,0-0.2,0-0.3,0
			c-1,0-2-0.5-3-0.9c-2.4-1.1-3.8-3.6-1.1-6.2c3.3-3.2,6.3-6.8,9.6-10c2.2-2.1,4.6-4.1,7.2-5.9C101.4,56.4,104.2,55.6,107,55.6
			 M107,51.6c-3.7,0-7.2,1.1-10.4,3.4c-2.8,2-5.4,4.1-7.6,6.3c-1.7,1.6-3.2,3.3-4.7,4.9c-1.6,1.8-3.2,3.4-4.8,5
			c-2.8,2.7-2.8,5.5-2.6,6.9c0.4,2.5,2.2,4.7,4.8,5.8c1.2,0.5,2.8,1.3,4.6,1.3c0.2,0,0.4,0,0.7,0l0.3,0c2.9-0.3,5.9-0.6,8.9-1.6
			c4.8-1.6,9.1-4.9,12.6-9.6c0.6-0.9,1-1,1.1-1c0,0,0.4,0.1,1.3,0.7c0.7,0.5,1.4,1.1,2.2,2c1.7,1.7,3.4,3.5,5.1,5.2
			c3.3,3.4,6.8,7,10.3,10.4c4.5,4.3,9.1,8.3,13.5,12c1.3,1.1,2.8,1.8,4.1,2.4c0.5,0.2,1,0.4,1.4,0.7c0.6,0.3,1.2,0.5,1.9,0.5
			c1.2,0,2.4-0.5,3.1-1.5l0.2-0.2l0.2-0.2c0.7-0.9,1-2,0.8-3.1l-3.5-23.4l-2.6-17.5c-0.3-1.9-1.8-3.3-3.7-3.4c-0.2,0-0.3,0-0.4,0
			c-0.2,0-0.4,0-0.7,0c-0.1,0-0.2,0-0.3,0l-0.3,0c-0.9,0-1.8,0.1-2.7,0.2c-1.5,0.1-3,0.2-4.4,0.2c-5.2,0-9.7-0.8-13.9-2.5
			c-2.5-1-5.1-1.7-7.5-2.4c-0.5-0.1-1-0.3-1.6-0.4C110.7,51.9,108.8,51.6,107,51.6L107,51.6z"/>
	</g>
	<g>
		<path class="st3" d="M40.6,113.7c-0.3,0-0.5,0-0.7-0.1c-1.5-0.6-2.9-1.2-4.4-1.7c-3.7-1.4-7.5-2.9-11.1-4.6
			c-2.7-1.3-3.6-4.5-2.2-8.2c4.3-11.6,8.6-23.2,13-34.8l1.2-3.3l0.5-1.3c0.5-1.2,0.9-2.5,1.5-3.8c1.1-2.6,3.4-4.2,6-4.2
			c0.8,0,1.6,0.1,2.4,0.4c4.6,1.6,8.7,3.2,12.5,4.7C63,58.4,64.5,62,63,66c-3.3,8.8-6.6,17.7-9.9,26.5l-2.9,7.8
			c-1.1,2.9-2.1,5.7-3.2,8.6c-1,2.6-2.9,4.2-5.9,4.8C40.9,113.7,40.8,113.7,40.6,113.7z"/>
		<path class="st4" d="M44.3,53.8c0.6,0,1.2,0.1,1.8,0.3c4.2,1.5,8.3,3,12.5,4.6c2.8,1.1,3.7,3.5,2.6,6.6c-4,10.8-8,21.6-12.1,32.4
			c-1.3,3.5-2.6,7-3.9,10.5c-0.8,2-2.3,3.1-4.5,3.5c-5.1-2.1-10.4-4-15.4-6.3c-1.9-0.9-2-3.2-1.1-5.6c4.7-12.7,9.5-25.4,14.2-38.1
			c0.6-1.7,1.2-3.3,1.9-5C41,54.9,42.5,53.8,44.3,53.8 M44.3,49.8C44.3,49.8,44.3,49.8,44.3,49.8c-3.4,0-6.4,2.1-7.9,5.4
			c-0.6,1.3-1,2.6-1.5,3.9c-0.2,0.4-0.3,0.8-0.5,1.3L33,64.6c-4.2,11.3-8.4,22.6-12.6,33.9c-1.7,4.7-0.5,9,3.2,10.7
			c3.7,1.7,7.5,3.2,11.2,4.6c1.5,0.6,2.9,1.1,4.4,1.7c0.5,0.2,1,0.3,1.5,0.3c0.3,0,0.5,0,0.8-0.1c3.7-0.8,6.2-2.8,7.4-6
			c1.1-2.9,2.2-5.8,3.2-8.6l0.7-1.9l2.2-6c3.3-8.8,6.6-17.6,9.8-26.4c1.9-5.1-0.1-9.8-4.9-11.7c-3.8-1.5-7.9-3-12.6-4.7
			C46.4,50,45.4,49.8,44.3,49.8L44.3,49.8z"/>
	</g>
	<g>
		<path class="st3" d="M156.3,110.4c-3.2,0-5.8-2.5-6.4-6c-0.9-6.5-1.9-13-2.8-19.5l-1.8-12.5c-0.6-4.1-1.2-8.2-1.8-12.4
			c-0.8-5.4,1.2-8.2,6.7-9c3.5-0.5,7.6-1.1,11.7-1.7c0.4-0.1,0.8-0.1,1.2-0.1c3.5,0,6.2,2.3,6.7,5.6c1.7,11.4,3.3,22.9,4.9,34.3
			l1.7,11.7c0,0.1,0,0.3,0,0.4c0,0,0,0.2,0,0.2c0.1,3.5-2,6.3-5.3,6.9c-4.7,0.8-9.4,1.5-14,2C156.8,110.4,156.5,110.4,156.3,110.4z"
			/>
		<path class="st4" d="M163.1,51.2c2.4,0,4.3,1.5,4.7,3.9c2.2,15.3,4.4,30.7,6.6,46.1c0,0.1,0,0.3,0,0.4c0.1,2.4-1.3,4.4-3.7,4.8
			c-4.6,0.8-9.3,1.5-13.9,2c-0.2,0-0.4,0-0.5,0c-2.3,0-4-1.8-4.4-4.3c-1.3-8.8-2.5-17.7-3.8-26.5c-0.9-6-1.7-11.9-2.6-17.9
			c-0.6-4.3,0.6-6.1,5-6.8c3.9-0.6,7.8-1.2,11.6-1.7C162.5,51.2,162.8,51.2,163.1,51.2 M163.1,47.2
			C163.1,47.2,163.1,47.2,163.1,47.2c-0.5,0-1,0-1.5,0.1c-4,0.6-8,1.2-11.7,1.7c-6.5,1-9.3,4.8-8.3,11.3c0.6,4.1,1.2,8.2,1.8,12.2
			c0.3,1.9,0.5,3.7,0.8,5.6l1,6.8c0.9,6.6,1.9,13.1,2.8,19.7c0.7,4.5,4.1,7.7,8.3,7.7c0.3,0,0.7,0,1-0.1c4.6-0.6,9.4-1.2,14.1-2
			c4.3-0.7,7.2-4.4,7-8.9c0-0.1,0-0.1,0-0.2l0-0.1c0-0.2,0-0.3-0.1-0.5l-1.6-11.5c-1.6-11.3-3.3-23.1-5-34.6
			C171.1,50.1,167.6,47.2,163.1,47.2L163.1,47.2z"/>
	</g>
	<g>
		<path class="st3" d="M78.1,137.5c-1.4,0-3.6-0.5-5.7-3.1c-2.8-3.4-2.6-7.1,0.5-9.8c1.7-1.5,3.6-3.1,5.3-4.5
			c0.9-0.8,1.8-1.5,2.7-2.3c1.5-1.2,3-1.9,4.6-1.9c1,0,2,0.3,3,0.8c2.8,1.5,4.4,4,4.8,7.4c0,0.4,0,0.9-0.3,1.2
			c-0.1,0.2-0.2,0.3-0.3,0.6c-0.4,0.8-0.9,1.9-1.8,2.8c-2.9,2.7-5.9,5.1-8.5,7.2C81,137,79.6,137.5,78.1,137.5z"/>
		<path class="st4" d="M85.4,118c0.7,0,1.3,0.2,2,0.5c2,1.1,3.4,2.8,3.7,5.8c-0.4,0.7-0.8,2-1.7,2.9c-2.7,2.5-5.5,4.8-8.4,7.1
			c-1,0.8-1.9,1.1-2.9,1.1c-1.4,0-2.9-0.8-4.2-2.3c-2.1-2.5-2-5,0.2-7c2.6-2.3,5.3-4.5,8-6.7C83.2,118.6,84.3,118,85.4,118
			 M85.4,114C85.4,114,85.4,114,85.4,114c-2,0-4.1,0.8-5.9,2.3c-0.9,0.8-1.8,1.5-2.7,2.2c-1.8,1.5-3.6,3-5.4,4.6
			c-3.9,3.4-4.2,8.4-0.7,12.6c2.6,3.1,5.4,3.8,7.2,3.8c1.9,0,3.8-0.7,5.4-2c2.6-2.1,5.7-4.6,8.6-7.3c1.2-1.1,1.9-2.5,2.3-3.4
			c0.1-0.2,0.1-0.3,0.2-0.4c0.4-0.7,0.6-1.6,0.5-2.4c-0.4-4.1-2.4-7-5.8-8.9C88.1,114.4,86.8,114,85.4,114L85.4,114z"/>
	</g>
	<g>
		<path class="st3" d="M106.3,147.4c-1.6,0-3.1-0.5-4.5-1.6c-0.3-0.2-0.6-0.5-0.9-0.8l-0.3-0.2l-3.9-3.5c-0.4-0.4-0.7-0.9-0.7-1.5
			s0.2-1.1,0.6-1.5c0.6-0.6,1.3-1.1,1.9-1.6c2.9-2.4,4.4-3.8,3.6-7c-0.2-0.9,0.1-1.8,0.9-2.2c0.3-0.2,0.7-0.3,1-0.3
			c0.5,0,1,0.2,1.4,0.5c0.7,0.7,1.4,1.3,2.2,1.9c1.7,1.5,3.4,3.1,5.1,4.8c2.7,2.9,2.4,7-1,10.5C110.2,146.6,108.3,147.4,106.3,147.4
			z"/>
		<path class="st4" d="M104.1,129.2c2.4,2.2,4.9,4.3,7.1,6.6c2.1,2.2,1.5,5.1-1,7.8c-1.2,1.2-2.6,1.9-4,1.9c-1.1,0-2.3-0.4-3.3-1.2
			c-0.4-0.3-0.7-0.6-1-0.9c-1.3-1.1-2.5-2.3-3.9-3.5C101.3,136.9,105.6,134.8,104.1,129.2 M104.1,125.2c-0.7,0-1.4,0.2-2.1,0.6
			c-1.5,0.9-2.2,2.7-1.8,4.5c0.5,1.8,0.1,2.4-2.9,4.9c-0.7,0.5-1.3,1.1-2,1.7c-0.8,0.8-1.3,1.8-1.3,3c0,1.1,0.5,2.2,1.3,2.9l1.1,1
			l2.8,2.5c0.1,0.1,0.2,0.1,0.2,0.2c0.3,0.3,0.6,0.6,1,0.9c1.7,1.3,3.7,2,5.7,2c2.5,0,5-1.1,6.9-3.1c4.1-4.2,4.5-9.6,1-13.3
			c-1.7-1.8-3.4-3.4-5.2-4.9c-0.7-0.6-1.4-1.3-2.1-1.9C106.1,125.6,105.1,125.2,104.1,125.2L104.1,125.2z"/>
	</g>
	<g>
		<path class="st3" d="M66.8,129.9c-1.4,0-3.5-0.5-5.5-2.9c-3-3.5-2.8-7.3,0.4-10.1c1.4-1.2,2.8-2.4,4.2-3.6c1.1-1,2.3-1.9,3.4-2.9
			c1.5-1.3,3.1-2,4.8-2c1,0,1.9,0.2,2.9,0.7c3,1.6,4.5,4.1,4.8,7.6c0,0.4-0.1,0.9-0.3,1.2c-0.1,0.2-0.2,0.4-0.3,0.6
			c-0.4,0.8-1,1.9-1.9,2.7c-2.5,2.3-5.2,4.5-7.8,6.7l-0.2,0.2C69.8,129.3,68.3,129.9,66.8,129.9z"/>
		<path class="st4" d="M74.2,110.4c0.6,0,1.3,0.2,1.9,0.5c2.1,1.1,3.5,2.8,3.7,6c-0.4,0.7-1,2.1-1.9,2.9c-2.5,2.4-5.2,4.6-7.9,6.8
			c-1.1,0.9-2.1,1.3-3.2,1.3c-1.4,0-2.7-0.7-3.9-2.2c-2.3-2.7-2.3-5.2,0.2-7.3c2.5-2.2,5.1-4.3,7.7-6.5
			C71.8,111,72.9,110.4,74.2,110.4 M74.2,106.4C74.2,106.4,74.2,106.4,74.2,106.4c-2.1,0-4.2,0.8-6.1,2.5c-1.1,1-2.3,1.9-3.4,2.9
			c-1.4,1.2-2.9,2.4-4.3,3.6c-4.1,3.6-4.3,8.5-0.6,12.9c2.5,3,5.2,3.6,7,3.6c2,0,4-0.8,5.7-2.2l0.2-0.2c2.6-2.1,5.3-4.4,7.9-6.7
			c1.2-1.1,1.9-2.4,2.3-3.3c0.1-0.2,0.2-0.3,0.2-0.5c0.4-0.7,0.7-1.6,0.6-2.4c-0.3-4.3-2.3-7.4-5.9-9.3
			C76.7,106.7,75.5,106.4,74.2,106.4L74.2,106.4z"/>
	</g>
	<g>
		<path class="st3" d="M89.7,145.3c-2,0-3.9-1-5.4-2.7c-3-3.4-3-7.3-0.2-9.9c3.1-2.8,6.2-5.4,8.9-7.5c1.1-0.9,2.5-1.4,3.8-1.4
			c1,0,2.1,0.3,3.1,0.8c2.3,1.2,4.3,4,4.8,6.7c0.1,0.5,0,0.9-0.2,1.3c-0.2,0.3-0.3,0.6-0.5,1c-0.4,0.9-0.9,2-1.8,2.8
			c-2.9,2.7-6,5.2-8.6,7.3C92.5,144.8,91.2,145.3,89.7,145.3z"/>
		<path class="st4" d="M96.9,125.8c0.7,0,1.5,0.2,2.2,0.6c1.8,0.9,3.4,3.3,3.8,5.3c-0.6,1.1-1,2.5-1.9,3.3c-2.7,2.5-5.6,4.9-8.5,7.3
			c-0.9,0.7-1.8,1-2.8,1c-1.4,0-2.8-0.7-3.9-2c-2.2-2.5-2.4-5.2-0.3-7.1c2.9-2.6,5.8-5,8.8-7.5C95.1,126.1,96,125.8,96.9,125.8
			 M96.9,121.8C96.9,121.8,96.9,121.8,96.9,121.8c-1.8,0-3.6,0.6-5.1,1.8c-2.7,2.2-5.9,4.8-9,7.6c-3.7,3.4-3.7,8.4,0,12.7
			c1.9,2.2,4.4,3.4,6.9,3.4c1.9,0,3.7-0.7,5.3-1.9c2.7-2.1,5.8-4.7,8.7-7.4c1.2-1.1,1.8-2.4,2.3-3.5c0.1-0.3,0.3-0.6,0.4-0.8
			c0.5-0.8,0.6-1.8,0.4-2.7c-0.6-3.3-3-6.7-5.9-8.2C99.6,122.2,98.3,121.8,96.9,121.8L96.9,121.8z"/>
	</g>
	<g>
		<path class="st3" d="M58.8,119.5c-1.4,0-3.4-0.5-5.4-2.8c-3-3.5-2.8-7.3,0.3-10.1c3-2.6,5.7-4.9,8.2-6.9c0.8-0.6,1.7-1,2.5-1.3
			c0.3-0.1,0.6-0.2,0.9-0.4c0.3-0.1,0.5-0.2,0.8-0.2c0.1,0,0.2,0,0.3,0c2.9,0.4,5.9,2.8,6.9,5.7c1,2.7,0.2,5.6-2.2,7.6
			c-2.5,2.1-5.1,4.4-7.9,6.6C61.9,118.9,60.3,119.5,58.8,119.5z"/>
		<path class="st4" d="M66.2,99.8c2.2,0.3,4.5,2.1,5.3,4.4c0.7,1.9,0.1,3.9-1.6,5.4c-2.6,2.2-5.2,4.4-7.8,6.6
			c-1.1,0.9-2.2,1.3-3.2,1.3c-1.4,0-2.7-0.7-3.9-2.1c-2.3-2.7-2.3-5.2,0.1-7.3c2.7-2.3,5.4-4.6,8.1-6.8
			C64,100.6,65.1,100.3,66.2,99.8 M66.2,95.8c-0.6,0-1.1,0.1-1.7,0.4c-0.2,0.1-0.5,0.2-0.8,0.3c-0.9,0.3-2,0.8-3,1.6
			c-2.6,2-5.3,4.3-8.3,7c-4.1,3.6-4.3,8.5-0.6,12.9c2.5,2.9,5.2,3.6,7,3.6c2,0,4-0.8,5.8-2.2c2.8-2.3,5.6-4.6,7.9-6.7
			c3.1-2.6,4.1-6.3,2.8-9.9c-1.3-3.6-4.9-6.4-8.5-6.9C66.5,95.8,66.3,95.8,66.2,95.8L66.2,95.8z"/>
	</g>
</g>
</svg>
