<?xml version="1.0" encoding="utf-8"?>
<!-- Generator: Adobe Illustrator 24.1.2, SVG Export Plug-In . SVG Version: 6.00 Build 0)  -->
<svg version="1.1" id="Layer_1" xmlns="http://www.w3.org/2000/svg" xmlns:xlink="http://www.w3.org/1999/xlink" x="0px" y="0px"
	 viewBox="0 0 100 100" style="enable-background:new 0 0 100 100;" xml:space="preserve">
<style type="text/css">
	.st0{fill:#568DA7;}
</style>
<path class="st0" d="M50,3C24,3,3,24,3,50s21,47,47,47s47-21,47-47S76,3,50,3z M49.8,80.6v-14l-23.8,6V27.4l23.8,6.1v-14L80,50
	L49.8,80.6z"/>
</svg>
