<?xml version="1.0" encoding="utf-8"?>
<!-- Generator: Adobe Illustrator 24.1.2, SVG Export Plug-In . SVG Version: 6.00 Build 0)  -->
<svg version="1.1" id="Layer_1" xmlns="http://www.w3.org/2000/svg" xmlns:xlink="http://www.w3.org/1999/xlink" x="0px" y="0px"
	 viewBox="0 0 845.5 535" style="enable-background:new 0 0 845.5 535;" xml:space="preserve">
<style type="text/css">
	.st0{fill:#FFFFFF;}
</style>
<path class="st0" d="M252.5,335.3c-1-1.5-2.7-1.9-4.5-2.4c-9.4-2.4-18.5-5.8-26.4-11.5c-4.6-3.3-8.6-7.4-12.2-11.9
	c-2.7-3.5-5.6-6.9-8.3-10.4c-2.7-3.4-5.3-6.9-7.8-10.4c-4.8-6.6-9.7-13.2-14.3-20c-3.7-5.6-7-11.5-10.3-17.4
	c-1.4-2.6-2.1-5.6-3.3-8.3c-4.3-9.9-6.7-20.3-7.7-31c-0.2-2.6-1.2-5.3-0.7-7.7c0.7-3.3,0.6-7.3,4.2-9.4c0.5-0.3,0.9-1,1.3-1.5
	c1.2-2,2.4-3.9,3.5-6c1.8-3.6,4.8-5.9,8.1-8c0.3-0.2,0.7-0.4,1-0.6c3-2.7,6.3-5.1,9.1-8.1c3.2-3.4,6.9-5.8,10.8-8.1
	c8.9-5.4,17.8-10.8,26.8-16c11.2-6.5,21.3-14.5,31.1-23.1c8.6-7.6,17.5-14.8,25.9-22.7c8.9-8.4,19-14.8,29.9-20.1
	c3-1.5,6.2-2.8,9-4.5c3.3-2,7-3.1,10.4-4.7c3.7-1.7,7.2-3.7,11-5.2c6.7-2.7,13.6-4.1,20.9-3.3c3.8,0.4,7,2.2,10.3,3.8
	c4,1.9,7.7,4.4,11.6,6.4c7.3,3.7,13.1,9.5,19.1,14.9c4.3,3.9,7.8,8.8,11.5,13.4c3.3,4.1,6.7,8.3,9.6,12.6c3.5,5.3,6.8,10.7,9.9,16.3
	c1.6,3,2.7,6.4,3.8,9.7c2.3,6.6,4.7,13.3,6.6,20c2.7,9.8,4,19.9,2.4,30.1c-0.6,4-2.5,7.5-4.4,10.9c-2.3,4-4.8,7.9-7.4,11.7
	c-5.1,7.6-7.4,9.9-14.7,15.8c-1.5,1.2-3.3,2.2-4.4,3.7c-2.1,2.6-4.9,4.2-7.7,6c-6.4,4.2-12.7,8.7-18.7,13.6
	c-3.1,2.5-6.6,4.1-9.6,6.7c-3,2.6-6.3,4.7-9.4,7.2c-2.6,2.1-5.1,4.4-7.7,6.6c-3.5,3.1-7.1,6.2-10.5,9.5c-4,3.9-7.8,8-11.5,12.2
	c-4.7,5.3-9.4,10.8-14,16.2c-3.4,4-7.2,7.5-11.4,10.6c-4.9,3.6-10.5,6-16.1,8.4c-0.5,0.2-1.1,0.3-1.6,0.6c-4.5,2.5-9.5,3.1-14.4,3.8
	c-8.1,1.1-16.1,1.5-24.2,0.9C255.6,334.6,254.3,335,252.5,335.3z M292.7,328.9c0.8-0.1,1.2,0,1.5-0.2c4.3-1.9,8.7-3.7,12.9-5.8
	c5.4-2.7,9.8-6.7,14-11.1c1.6-1.7,2-3.5,1.4-5.8c-0.8-3.1-1.5-6.2-2.1-9.3c-1.1-6.1-2.1-12.2-3.2-18.2c-0.4-2.3-0.9-4.5-1.3-6.8
	c-1.4-8.6-2.8-17.1-4.3-25.7c-0.8-4.6-2-9.1-2.4-13.7c-0.3-4.7-1.4-9.1-2.4-13.7c-1.5-7-3-13.9-4-21c-1.2-8.5-3-16.9-4.6-25.3
	c-1.4-7-3-13.9-4.4-20.9c-1.2-6.2-2.1-12.6-3.5-18.8c-2.1-9.7-4.4-19.4-6.7-29c-0.2-0.9-0.5-1.7-0.9-3.1c-1.1,0.9-1.9,1.5-2.6,2.1
	c-1.3,1.2-2.5,2.4-3.8,3.6c-6.3,5.6-12.6,11.3-19.1,16.9c-4.7,4.1-9.5,8.2-14.5,11.9c-5.3,4-10.9,7.7-16.4,11.4
	c-1.5,1-2.1,2.1-1.9,3.9c0.5,3.3,0.8,6.7,1.3,10c1.8,10.8,3.8,21.5,5.5,32.2c1.8,11.4,3.3,22.9,5,34.4c0.6,4,1,8,1.6,12.1
	c1,7.1,2,14.1,3,21.2c1.1,7.4,2,14.7,3.2,22c1.1,6.8,2.6,13.4,3.9,20.2c1.8,9.2,3.6,18.4,5.4,27.5c0.5,2.4,0.5,2.4,2.9,2.8
	c0.7,0.1,1.3,0.2,2,0.2c6.9,0.5,13.7,0.3,20.5-0.7c3-0.4,6.1-0.8,9.1-1.4c2-0.4,2.1-1,1.7-2.9c-1.6-6.7-3.2-13.3-4.1-20.1
	c-1.1-8.2-2.5-16.4-3.8-24.6c-1.7-10.6-3.6-21.1-5.3-31.7c-1.2-7-2.2-14.1-3.4-21.1c-0.8-5.2-1.7-10.5-2.6-15.7
	c-0.9-5.4-1.8-10.8-2.7-16.3c-0.6-3.5-1-7-1.5-10.6c-0.1-0.9-0.3-1.7-0.4-2.6c-0.6-4.9-1-9.8-1.7-14.6c-0.7-4.7-1.7-9.3-2.5-14
	c-1.3-7.3-2.5-14.6-3.7-21.9c-0.4-2.5-0.9-4.9-1.2-7.4c-0.1-0.6,0.2-1.2,0.3-1.8c1.5,0.2,1.6,1.3,1.8,2.2c0.6,2.9,1.2,5.9,1.8,8.8
	c0.9,4.8,1.8,9.7,2.7,14.5c1,5.3,2.1,10.6,2.9,15.9c1,6.9,1.7,13.8,2.7,20.6c1.3,8.3,2.8,16.5,4.3,24.8c0.6,3.6,1.3,7.2,1.8,10.8
	c0.7,4.8,1.2,9.6,1.9,14.3c1.1,6.7,2.4,13.3,3.6,19.9c1.3,7.7,2.7,15.4,3.8,23.1c1.9,13.5,3.8,26.9,6.5,40.3
	C291.2,323.5,292,326.1,292.7,328.9z M385.1,250.8c1.4-0.8,2.3-1.1,3.1-1.7c6.2-4.4,12.4-8.9,18.5-13.3c1.2-0.8,1.5-1.9,1.3-3.3
	c-0.9-6.8-1.7-13.6-2.6-20.4c-1.4-10.5-2.8-21-4.3-31.5c-1.3-9.2-2.6-18.3-3.8-27.5c-1-7.1-2.1-14.1-2.9-21.2
	c-0.9-8-1.5-16.1-2.4-24.1c-0.3-3.1-0.8-6.1-1.2-9.2c-0.7-4.9-1.3-9.9-2.2-14.8c-0.5-3-2-5.3-4.8-6.9c-4.6-2.6-9.1-5.4-13.8-7.9
	c-8.9-4.8-18.1-5-27.7-1.7c-5.8,2-11.1,4.9-16.6,7.5c-2.9,1.4-2.9,1.6-2.3,4.7c1.5,7.8,3,15.5,4.3,23.3c1.9,11.2,3.7,22.5,5.6,33.7
	c1.5,8.8,3,17.7,4.5,26.5c1.3,7,2.8,14,4,21c1.2,6.8,2.1,13.7,3.1,20.6c1.3,8.1,2.6,16.2,3.9,24.3c1.1,6.9,2.2,13.7,3.3,20.6
	c0.9,5.6,1.8,11.2,2.8,16.8c0.4,2.4,1,4.8,1.5,7.2c0.5-0.2,0.7-0.2,0.8-0.3c5.5-4.7,11-9.4,16.6-14c2.4-2,4.9-3.8,7.3-5.7
	c0.9-0.7,1.4-1.5,1.2-2.7c-1-6.1-1.6-12.3-2.9-18.3c-2-8.9-3-17.9-4.2-26.8c-1-7.4-1.8-14.7-2.9-22.1c-1.5-10.2-3.2-20.4-4.8-30.6
	c-0.7-4.2-1.3-8.4-1.9-12.6c-1-6.5-2-13-2.9-19.4c-1.1-7.3-2-14.7-3.2-22c-1-6.1-2.4-12.1-3.6-18.1c-0.3-1.6-0.6-3.2-0.9-4.8
	c-0.2-1.3-0.3-2.6,1.4-3.9c0.9,4.4,1.8,8.3,2.6,12.2c0.8,4.1,1.5,8.2,2.2,12.2c1.2,6.9,2.5,13.8,3.6,20.8c0.6,3.4,0.8,6.9,1.3,10.3
	c0.7,4.6,1.4,9.1,2.2,13.7c1.9,9.8,2.6,19.9,5,29.6c1.3,5.2,1.8,10.6,2.5,16c0.8,6,1.5,12,2.3,18.1c0.6,4.8,1,9.6,1.8,14.3
	c1.2,7.3,2.5,14.6,3.8,21.9C384.2,244.4,384.5,247.3,385.1,250.8z M355.6,275c-2.3-0.5-2.3-2.1-2.5-3.7c-0.1-1.1-0.3-2.1-0.5-3.1
	c-0.9-4.8-2-9.6-2.9-14.5c-0.8-4.2-1.4-8.4-2.1-12.6c-1.1-6.4-2.4-12.7-3.3-19.1c-1.5-10.3-2.6-20.6-4.2-30.9
	c-1.1-7.5-2.7-15-4.1-22.5c-0.8-4.4-1.7-8.9-2.4-13.4c-1.1-6.9-2.1-13.9-3.2-20.9c-0.8-5-1.7-10.1-2.6-15.1
	c-1.5-8.9-3-17.9-4.6-26.8c-0.7-4.1-1.6-8.2-2.5-12.2c-0.6-2.4-1.3-2.6-3.5-1.5c-4.5,2.3-8.9,4.5-13.4,6.8c-2.8,1.5-5.7,2.9-8.3,4.7
	c-3.2,2.2-6.1,4.7-9.2,7.1c-1.3,1-1.7,2.2-1.2,3.8c0.9,2.9,1.7,5.7,2.5,8.6c1.4,5.3,2.9,10.6,4.1,16c1.8,8.7,3.4,17.4,5.1,26.1
	c2.1,10.5,4.3,21,6.4,31.5c1.5,7.8,2.7,15.6,4.1,23.4c2.3,12.3,4.7,24.6,7,36.9c1.7,9.1,3.1,18.2,4.6,27.4
	c1.8,10.7,3.5,21.5,5.3,32.2c0.2,1,0.5,2,1,3.7C335,295.5,344.3,284.6,355.6,275z M251.3,331c-0.5-2-0.8-3.5-1.1-5
	c-1.2-5.9-2.1-11.8-3.5-17.6c-2.3-9.6-4.2-19.2-5.6-28.9c-1.1-7.1-2.1-14.3-3.2-21.4c-1.2-7.8-2.4-15.6-3.4-23.5
	c-1.3-10.3-2.3-20.7-3.8-31c-1.4-10.2-3.3-20.4-4.8-30.6c-1.1-7.2-1.9-14.5-2.9-21.8c-0.1-0.7-0.3-1.4-0.5-2.3
	c-0.9,0.4-1.5,0.6-2.1,0.9c-6,3.6-11.9,7.1-17.8,10.7c-3.5,2.2-7,4.4-10.5,6.7c-1.1,0.7-2.2,1.5-2,3.2c0.7,5,1.2,10,1.9,14.9
	c0.8,5.7,1.8,11.4,2.6,17.1c1.1,7.4,2.1,14.9,3.3,22.3c1.9,11.7,4.1,23.4,5.9,35.1c1.5,9.8,3.2,19.6,5.6,29.2
	c1.4,5.7,2,11.6,3.1,17.3c0.3,1.4,0.7,2.9,1.5,4c4.5,5.3,9.7,9.9,15.9,13.2c2.3,1.2,4.6,2.6,7,3.5c3.8,1.4,7.7,2.4,11.6,3.6
	C249.1,330.8,249.9,330.8,251.3,331z M187.9,171c-1.2,0.8-1.8,1.2-2.4,1.7c-4.3,3.5-8.6,6.9-12.8,10.4c-1.7,1.4-3.2,3.1-4.3,5
	c-2.6,4.2-4.9,8.5-7.2,12.9c-0.5,0.9-0.7,2-0.8,3c-0.6,7.9,0.7,15.6,2.5,23.2c1.5,6.1,3.9,11.9,6.2,17.7c2.4,6,5.4,11.5,8.8,16.9
	c5,7.8,10,15.5,15.8,22.8c4.7,6,9.3,12.1,14,18.1c0.3,0.4,0.9,0.7,1.8,1.3c-0.1-1.3,0-2-0.2-2.8c-1-4.3-2-8.6-3-13
	c-1.2-5.7-2.6-11.5-3.6-17.2c-0.9-5.2-1.5-10.5-2.3-15.7c-1.4-8.7-3-17.3-4.3-25.9c-1.2-7.5-2.3-15.1-3.4-22.6
	c-1.3-9.2-2.4-18.4-3.6-27.5C188.8,176.7,188.4,174.1,187.9,171z M391.7,83.2c-0.2,0.1-0.5,0.3-0.7,0.4c0,0.7,0,1.5,0.1,2.2
	c0.4,2.1,1,4.1,1.3,6.2c0.8,4.8,1.5,9.7,2.2,14.5c0.1,1,0.3,1.9,0.4,2.9c1.1,9.7,2.1,19.3,3.2,29c0.4,3.3,0.8,6.7,1.3,10
	c1.1,7.1,2.2,14.3,3.3,21.4c0.6,3.9,1,7.8,1.5,11.8c1.1,8.4,2.2,16.8,3.2,25.2c1,7.8,2,15.7,3.1,23.5c0.1,0.4,0.4,0.8,0.7,1.2
	c0.5-0.2,0.9-0.3,1.2-0.5c5-3.8,9.8-7.9,13.9-12.6c1.5-1.7,2-3.8,1.6-6.2c-0.7-4.4-1.1-8.8-1.5-13.2c-0.4-3.9-0.4-7.9-0.8-11.8
	c-0.8-7.7-2-15.3-2.7-23c-0.7-7.5-1.1-15-1.6-22.5c-0.2-2.6,0-5.2-0.4-7.8c-0.9-6-2.3-11.9-2.8-18c-0.3-3.5-1.9-6.2-4-8.7
	c-3.3-4-6.5-8.2-9.9-12.1c-3.3-3.7-7-7.2-10.5-10.7C393.1,84,392.4,83.7,391.7,83.2z M430.8,210.8c0.3,0.1,0.5,0.1,0.8,0.2
	c0.4-0.5,1-0.9,1.3-1.4c2.2-3.6,4.5-7.2,6.5-10.9c2.3-4.3,3.4-9,3.6-13.9c0.3-8.4-0.8-16.6-3.1-24.6c-3.6-12.3-7.4-24.6-14.1-35.7
	c-1.3-2.1-2.3-4.4-4.4-6.4c0,1.2-0.1,1.9,0,2.6c0.6,4.9,1.3,9.7,1.9,14.6c0.4,3.2,0.7,6.3,1,9.5c0.5,5.9,0.7,11.7,1.3,17.6
	c0.6,6.6,1.5,13.2,2.1,19.8c0.6,5.4,1,10.7,1.5,16.1C429.7,202.5,430.3,206.6,430.8,210.8z"/>
<path class="st0" d="M682.7,449.2c0.4-2.3,0.8-4.1,1.1-5.8c1.1-6.9,1.2-14,2.9-20.9c1.3-5.1,2.1-10.4,3.9-15.4
	c2.1-6.2,5.1-11.8,9.6-16.6c2.4-2.5,4.6-5.2,6.9-7.8c0.6-0.7,1.2-1.5,1.7-2.3c2.4-4.1,5-8,8.3-11.4c2.7-2.8,4.2-6.5,5.7-10
	c1.6-4.1,2.9-8.4,4.1-12.6c0.8-3,1.5-6,2-9c1.9-10.3,3.5-20.7,3.6-31.3c0-7.5-0.4-15-0.4-22.6c0-7.3-0.1-14.7,1.1-21.9
	c0.3-2.1,0.2-4.2,0.6-6.3c0.5-2.9,1-5.9,2-8.7c1.5-4.5,3.2-8.9,5.1-13.2c1.2-2.8,2.8-5.5,4.6-8c2.9-3.9,7.1-6.4,11.5-8
	c7.4-2.7,15.1-3.9,22.9-4.4c2.6-0.2,5.2-0.1,7.7-0.4c3.9-0.4,7.7,0.5,11.4,1.5c6.1,1.7,11.8,4.5,16.6,8.6c5.4,4.5,9.6,9.9,11.5,17
	c1.2,4.5,2.8,8.8,4.2,13.2c0.5,1.6,0.8,3.4,1.1,5.1c1.4,6.3,2.5,12.7,4.1,18.9c1.9,7.8,1.6,15.7,2.5,23.6c0.9,8.4,1,16.7,0.8,25.1
	c-0.1,4.6,0.1,9.3-0.1,13.9c-0.1,4-0.8,8-0.9,12.1c-0.2,7.8-0.2,15.6-0.4,23.4c-0.1,7.3-0.3,14.7-0.6,22c-0.2,4.3-0.8,8.7-0.7,13
	c0.1,2.9-0.5,5.6-0.6,8.5c-0.2,4.3-0.2,8.6-0.1,13c0,0.9,0.7,1.8,1.3,3c-1.6,1.3-1.8,3.4-2.2,5.5c-1,5.7-1.6,11.5-2.9,17.1
	c-1.2,5.2-2.9,10.4-4.5,15.5c-2.6,8.1-6.6,15.6-11.3,22.7c-4.6,6.9-10.6,12.4-17.2,17.4c-2.9,2.2-6.4,3.1-10,3.5
	c-3.3,0.3-3.3,0.3-5.3,2.8c-0.2,0-0.4,0.2-0.5,0.1c-2.8-1.6-5.7-0.9-8.7-0.4c-4.7,0.8-9.5,1.3-14.3,2c-4.9,0.8-9.8,0.9-14.6,0.7
	c-4.8-0.1-9.6-0.6-14.4-1c-0.9-0.1-1.7-0.2-2.6-0.3c-6.7-0.8-13.4-1.4-20-2.6c-5.5-1-10.8-3-15.6-5.9c-4.2-2.6-6.6-6.8-8.5-11.4
	c-3-7.2-3.1-14.7-2.9-22.2c0.1-7,0.5-14.1,0.8-21.1c0-1,0.1-1.9,0.3-2.9C683.3,452,683.5,450.2,682.7,449.2z M807,500.2
	c-1.9,1.2-3-0.2-4.1-0.9c-11.3-6.7-22.5-13.4-33.8-20.1c-6.1-3.6-12.3-7.2-18.5-10.8c-4.1-2.4-8.2-4.7-12.3-7
	c-11.8-6.4-22.3-14.5-31.6-24.1c-2.8-2.9-5.8-5.6-8.6-8.6c-2.2-2.3-4.2-4.8-6.2-7.2c-0.5-0.6-0.9-1.1-1.6-2
	c-0.4,1.2-0.7,1.9-0.9,2.7c-1.7,7.9-2.3,16-3.1,24.1c-0.2,2,0.2,3.3,1.7,4.6c3,2.6,6,5.2,8.9,7.9c8.1,7.4,16.6,14.1,26,19.6
	c8,4.7,16.2,8.9,24.3,13.4c5.5,3.1,10.9,6.1,16.2,9.5c6.2,3.9,12.1,8.3,18.1,12.4c0.7,0.5,1.8,0.6,2.7,0.7c1,0.1,2.1-0.1,3.2-0.2
	c4.2-0.5,8.2-1.6,11.5-4.3c8.4-7,16-14.7,21-24.7c4.3-8.5,7.9-17.2,10.1-26.4c1.6-6.8,2.4-13.9,3.5-20.8c0.4-2.7,0-3.4-2.5-4.4
	c-2.9-1.1-5.9-1.9-8.7-3.2c-5-2.2-10.1-4.4-14.9-6.9c-3.5-1.8-6.6-4.3-10-6.4c-2.4-1.5-4.7-3-7.2-4.3c-2.9-1.6-5.8-2.9-8.7-4.5
	c-3.9-2.1-7.7-4.4-11.6-6.6c-9.7-5.5-19.2-11.5-27.7-18.8c-0.7-0.6-1.5-1.2-2.3-1.7c-6.4-3.8-12.8-7.5-19.3-11.3
	c-1.2,1.1-3.1,1.6-2.4,4c0.1,0.5-0.6,1.4-1.1,1.9c-6.6,6.1-12.3,13-18,19.9c-0.9,1-1.8,2.1-2.4,3.3c-1.7,3.8-3.2,7.7-4.8,11.5
	c-1.5,3.6-0.2,6.8,1.8,9.7c2.2,3.1,4.7,5.8,7.4,8.4c4.4,4,8.6,8.3,12.9,12.5c5.3,5.1,11.1,9.5,17.3,13.5c6.1,4,12.7,7.3,19,10.9
	c6.3,3.6,12.6,7.1,18.8,10.7c5.1,3,10,6.2,15.1,9.2c6.6,3.9,13.3,7.7,20,11.6C805.5,497.6,806.7,498.4,807,500.2z M834.2,346.9
	c-1.2-0.3-2.2-0.5-3.1-0.9c-7.2-2.9-14.5-5.9-21.7-8.9c-4.3-1.8-8.6-3.4-12.8-5.3c-5.8-2.6-11.5-5.4-17.1-8.4
	c-5.9-3.1-11.6-6.5-17.3-9.9c-5.3-3.2-10.5-6.5-15.6-9.9c-3.1-2.1-6.1-4.3-9.2-6.4c-0.6-0.4-1.3-0.5-2.3-0.8
	c-0.1,1.4-0.1,2.4-0.1,3.3c-0.2,5.4-0.1,10.8-0.5,16.2c-0.3,3.6,1,6.1,3.9,8.1c6.7,4.7,13.4,9.4,20.2,14c6.4,4.3,12.8,8.6,19.3,12.8
	c10.3,6.7,21.2,12.2,32.2,17.5c7.4,3.6,15.2,6.5,22.9,9.7c0.9,0.4,1.9,0.5,3.2,0.7c0-1.2,0-2,0-2.7c0.3-10.4,0.5-20.8,0.8-31.2
	c0.2-9.4,0.7-18.9,0.5-28.3c-0.2-9.1-1-18.3-1.7-27.4c-0.8-10.8-3.1-21.4-5.8-31.8c-1.6-6.2-3.5-12.2-5.4-18.3
	c-1.7-5.5-5.1-10.1-9.4-13.7c-3.7-3-8.1-5.3-12.4-7.4c-7.5-3.7-15.5-3.1-23.5-2.4c-0.1,0-0.3,0.2-0.6,0.5c0.4,0.4,0.7,1,1.1,1.2
	c1.9,1.2,3.8,2.2,5.7,3.4c5.8,3.7,11.5,7.4,17.2,11.1c2.4,1.6,4.8,3.3,7.2,4.8c4.1,2.6,8.4,5.2,12.5,7.8c0.4,0.3,0.7,0.9,1,1.4
	c-1.5,1-2.5,0.3-3.5-0.3c-2.1-1.2-4.1-2.5-6.1-3.9c-5-3.3-10-6.5-15-9.8c-5-3.3-10-6.6-15-9.7c-2.8-1.7-5.8-3-8.7-4.6
	c-1.2-0.7-2.3-1.1-3.5-0.8c-3.9,0.7-7.9,1-11.6,2.2c-6.1,2-11.6,5.1-14.7,11c-2.3,4.2-3.9,8.8-5.8,13.2c-0.2,0.6-0.3,1.5,0,1.9
	c1.1,1.5,2.3,3.1,3.7,4.3c2.3,1.8,4.9,3.4,7.5,4.9c4.9,2.9,9.8,5.7,14.7,8.6c2.2,1.3,4.4,2.8,6.6,4.1c6,3.2,12.1,6.3,18.2,9.4
	c4.9,2.5,9.8,4.9,14.7,7.4c2.4,1.2,4.7,2.7,7,4c2.4,1.4,4.9,2.7,7.2,4.2c4.5,3,8.9,6.1,13.3,9.2c0.8,0.6,1.5,1.3,2.3,2
	c-1.4,1.8-2.6,1.1-3.7,0.3c-4.9-3.3-9.7-6.7-14.6-9.9c-4.3-2.8-8.6-5.4-13.1-7.9c-3.5-2-7.3-3.6-10.8-5.4c-5.7-3-11.3-6.2-17.1-9.1
	c-8.9-4.5-17.5-9.4-25.8-14.9c-3.4-2.2-6.9-4.3-9.6-7.4c-0.4-0.4-1.1-0.7-2-1.2c-0.5,1.9-1,3.5-1.2,5c-1.1,7.7-1.8,15.5-2,23.3
	c-0.1,2.5,0.7,5,2.7,6.5c2,1.5,4.3,2.6,6.6,3.5c5.7,2,11.7,3.5,17.2,5.8c6.6,2.7,12.8,6.3,19.2,9.3c6,2.8,12.1,5.5,18.2,8.2
	c10,4.3,20,8.6,28.3,15.9c1.2,1.1,2.4,2.2,3.5,3.5c0.4,0.4,0.4,1.1,0.5,1.7c-0.2,0.1-0.3,0.3-0.5,0.4c-0.9-0.6-1.9-1.1-2.7-1.8
	c-6.5-5.9-14.1-10-22-13.8c-9.1-4.3-18.6-8-27.4-13c-5.9-3.3-11.8-6.5-18.3-8.6c-4.2-1.4-8.2-3.3-12.5-4.7c-4-1.3-7.9-2.6-11.3-5.1
	c-0.3-0.2-0.7-0.2-1.1-0.2c-0.2,0.4-0.4,0.6-0.5,0.9c-0.4,3.8-0.5,7.5,2.8,10.4c0.7,0.6,1.2,1.5,1.9,2.2c1,1,2.1,2,3.3,2.7
	c4.3,2.7,8.8,5.2,13.1,7.8c3,1.8,5.9,3.9,9,5.7c4.6,2.6,9.3,5.2,14,7.6c4.2,2.2,8.4,4.3,12.7,6.2c4.4,2,8.9,3.6,13.4,5.5
	c4.6,1.9,9.1,3.7,13.6,5.6c4.6,1.9,9.2,3.9,13.8,5.9C833.4,344.5,834.5,344.8,834.2,346.9z M733.9,323.8c-0.3,1-0.5,1.8-0.6,2.6
	c-0.8,7.2-2,14.3-3.9,21.3c-0.7,2.4-0.4,3,1.9,4.1c2.1,1.1,4.4,2,6.5,3.2c7.4,4,14.7,8.1,22,12.2c1.8,1,3.4,2.2,5.2,3.2
	c4.5,2.6,9,5.2,13.5,7.7c5.7,3.2,11.4,6.4,17.1,9.6c3.2,1.8,6.4,3.5,9.6,5.4c4,2.4,7.8,5,11.7,7.4c5.1,3.1,10.4,6,15.6,8.9
	c0.5,0.3,1.2,0.4,1.9,0.7c0.2-1,0.5-1.7,0.5-2.5c0.5-7.8,0.9-15.6,1.3-23.4c0.1-2.5-0.2-2.8-2.7-3.7c-2.9-1-5.9-1.7-8.8-2.9
	c-7-2.9-14-5.9-20.7-9.5c-4.9-2.6-10-4.9-14.9-7.7c-6.3-3.6-12.6-7.5-18.7-11.5c-5.4-3.5-10.8-7.1-16.1-10.8
	c-6.3-4.4-12.5-9-18.8-13.5C735.1,324.3,734.7,324.2,733.9,323.8z M833.6,431.6c0.1-1.4,0.2-2.4,0.2-3.3c0.1-4.1,0.1-8.3,0.4-12.4
	c0.2-2.1-0.4-3.3-2.2-4.2c-0.9-0.4-1.7-0.9-2.5-1.4c-3.8-2.1-7.7-4-11.4-6.2c-5.2-3.1-10.3-6.4-15.5-9.6c-4-2.4-8.1-4.8-12.2-7.1
	c-5.4-3-10.9-5.8-16.2-8.9c-6.7-3.8-13.2-7.9-19.9-11.8c-7.4-4.3-14.9-8.5-22.4-12.7c-1.2-0.7-2.5-1.5-4.2-0.9
	c-0.1,0.4-0.3,0.9-0.4,1.3c-1.5,3.7-3.1,7.5-4.5,11.3c-0.2,0.6-0.3,1.6,0,2.1c0.4,0.7,1.1,1.3,1.8,1.7c3.2,1.7,6.4,3.4,9.7,5.1
	c5.9,3,10.9,7.3,16.1,11.3c7.2,5.4,14.5,10.5,22.4,14.8c5.8,3.1,11.8,6,17.7,9.1c2,1,3.8,2.2,5.7,3.4c6.2,3.7,12.2,7.8,18.6,11.1
	c5,2.7,10.4,4.5,15.7,6.7C831.3,431.3,832.3,431.3,833.6,431.6z M778.4,515.2c-1.6-1.2-2.8-2.1-4-2.9c-3-2-6.2-3.9-9.1-6.1
	c-6.9-5.1-14.4-9.3-22-13.3c-10.7-5.7-21.5-11.2-31.4-18.3c-7.8-5.6-15-11.8-21.8-18.5c-1.1-1.1-2.3-2.2-4.3-2.9
	c-0.4,4.7-0.8,9.1-1.2,13.5c-0.3,3,0.6,5.6,2.9,7.5c5.6,4.9,11.2,9.7,16.9,14.5c0.5,0.4,1.2,0.7,1.7,1c3.5,2.3,7.3,4.4,10.5,7.1
	c4.3,3.8,8.3,8.1,12.2,12.3c2.1,2.3,3.9,5,5.7,7.6c0.8,1.1,1.6,1.8,3,1.9c2,0.1,4,0.3,6.1,0.4c11,0.3,21.9-1,32.7-3.1
	C776.8,515.8,777.3,515.6,778.4,515.2z M732.8,517.6c-1.2-1.3-2.5-2.6-3.7-3.8c-4.8-4.9-9.5-9.9-14.3-14.7c-1.3-1.4-3-2.5-4.6-3.5
	c-1.8-1.2-4-2-5.7-3.4c-6-4.8-11.9-9.8-17.8-14.7c-0.5-0.5-1.2-0.8-2-1.4c0,2.7,0.1,5,0,7.3c-0.3,6,0.8,11.7,3,17.2
	c2.1,5.3,5.5,9.4,11.1,11.4c5.6,2,11.1,3.9,17,4.4c1.1,0.1,2.1,0.4,3.1,0.5c4.4,0.5,8.8,0.9,13.2,1.3
	C732.3,518.1,732.4,517.9,732.8,517.6z"/>
<path class="st0" d="M513.8,196.9c2.1-1.4,3.5-2.4,5-3.4c-0.1-0.2-0.1-0.3-0.2-0.5c-0.6,0-1.2-0.2-1.9-0.1
	c-5.4,0.3-10.7-1.1-16.1-1.6c-6.7-0.5-12.1-3.6-17.1-7.7c-7.3-5.9-11.5-13.6-13.6-22.5c-1.5-6.5-2.5-13.1-3.9-19.5
	c-1.6-7-2.5-14.2-5-21.1c-1.6-4.5-3.6-8.7-6.1-12.7c-2.4-3.8-4.6-7.8-7.2-11.5c-3.3-4.9-6.4-9.8-10.9-13.8
	c-4.6-4.2-8.8-8.9-13.3-13.2c-1.8-1.7-3.8-3.2-5.8-4.8c-0.4-0.3-1-0.5-1.2-0.8c-1.5-3.5-4.9-5.4-7.1-8.3c-2.2-2.8-4.2-5.8-4.8-9.4
	c-0.9-5.5,0.9-10,4.7-13.9c4.4-4.5,10.2-6.6,15.6-9.1c4.9-2.3,10-3.9,15.1-5.8c3.5-1.3,7-2.6,10.5-4c4.2-1.7,8.6-2.2,12.9-2.7
	c4.4-0.6,8.8-0.7,13.3-1.1c6-0.5,11.9-1,17.9-1.3c4.8-0.3,9.6-0.4,14.4-0.6c1,0,1.9-0.2,2.9-0.3c0.9-0.1,1.7-0.2,2.6-0.1
	c3.1,0.2,6.1,0.5,9.2,0.5c11,0.1,22-0.1,33,0.1c10.7,0.2,21.4,0.7,32.1,1.1c5.4,0.2,10.8,0.3,16.2,0.7c4.2,0.3,8.4,0.8,12.6,1.3
	c9.9,1.1,19.9,2.1,29.8,3.4c5.9,0.8,11.8,1.8,17.3,4.4c3.2,1.5,6.8,2.2,10,3.7c4.3,2,8.4,4.2,12.4,6.7c1.9,1.2,3.4,3.1,4.9,4.8
	c2,2.4,4,4.9,5.7,7.6c3.4,5.4,4.8,11.5,4.7,17.9c-0.2,6.6-1.2,13-3.3,19.3c-1.1,3.3-1.8,6.7-2.8,10c-1.4,4.6-2.9,9.2-4.4,13.8
	c-0.8,2.4-1.7,4.7-2.8,7c-2.9,6.1-6.8,11.6-11.3,16.7c-6.2,7-12.6,13.9-19.9,19.7c-7.1,5.6-14.3,11.1-22.2,15.6
	c-8.1,4.5-16.1,9.2-24.6,12.8c-9.7,4-19.3,8.4-29.6,10.8c-9.6,2.3-19.2,4.4-29,5.6c-9,1.2-18,2.2-27.1,2.3c-1.5,0-3,0.6-4.3,1.2
	c-1.4,0.6-2.7,1.6-4,2.3C516.4,196.9,515.5,197.4,513.8,196.9z M669,27.9c-0.6,1.6-0.7,1.9-2.3,2.7c-6.3,3.6-12,8-17.8,12.4
	c-6.2,4.8-12.5,9.4-18.6,14.2c-8.4,6.6-16.8,13.3-25.2,19.9c-8.2,6.4-16.6,12.6-24.8,19c-6.3,4.9-12.4,10.2-18.6,15.1
	c-9.2,7.3-18.4,14.6-27.7,21.9c-9.4,7.3-18.9,14.4-28.2,21.7c-5.3,4.2-10.4,8.6-15.5,13c-3.1,2.7-6.1,5.5-9.4,8.4
	c0.3,0.6,0.7,1.4,1.2,2c3.7,4.2,8.2,7.5,13.5,9.1c8.1,2.5,16.4,3.6,24.8,3.2c2.4-0.1,4.5-0.9,6.3-2.4c6.6-5.2,13.2-10.4,19.8-15.6
	c6.1-4.8,12.2-9.5,18.3-14.2c7.2-5.5,14.5-10.9,21.7-16.4c8.4-6.5,16.8-13,25.2-19.5c7.6-5.8,15.2-11.5,22.8-17.3
	c11.2-8.6,22.3-17.1,33.4-25.9c6.9-5.4,13.5-11.2,20.2-16.8c2.7-2.3,5.6-4.4,8.4-6.6c0.9-0.7,2-1.5,1.7-2.8
	c-0.7-3.2-0.9-6.8-2.6-9.4c-3.6-5.6-7.4-11.2-13.9-14.3c-4.7-2.3-9.1-5.3-14.2-7.1c-5.5-1.9-10.7-4.3-16.5-5.1c-7.3-1-14.5-2-21.8-3
	c-1.7-0.2-3.2,0.2-4.6,1.2c-6.6,4.6-13,9.3-19.8,13.6C593.1,36.7,582,45.2,571,53.8c-6,4.7-12.2,9.1-18.2,13.8
	c-6.5,5-12.9,10.1-19.3,15.2c-3.5,2.8-6.8,5.7-10.3,8.5c-8.2,6.4-16.6,12.6-24.7,19.2c-7.8,6.5-15.2,13.4-22.7,20.2
	c-0.8,0.7-1.5,1.6-2.3,2.2c-0.7,0.6-1.5,0.9-2.3-0.2c0.4-0.5,0.8-1.1,1.2-1.5c4.5-4.2,9-8.5,13.7-12.5c5.3-4.6,10.8-9,16.3-13.5
	c4.6-3.7,9.2-7.3,13.8-11c5.4-4.3,10.9-8.6,16.3-12.9c4.6-3.7,9.1-7.5,13.7-11.2c5.9-4.7,11.9-9.2,17.9-13.8
	c9.4-7.1,18.8-14.2,28.3-21.1c4.8-3.5,9.9-6.7,14.8-10.1c4.5-3.1,9-6.3,13.5-9.5c0.6-0.4,1-1.1,1.7-1.8c-0.7-0.3-1.1-0.6-1.5-0.6
	c-6.4-0.6-12.9-1.4-19.3-1.8c-9.6-0.6-19.3-1-28.9-1.5c-1.4-0.1-2.6,0.2-3.7,1.1c-3.4,2.7-6.9,5.2-10.4,7.9
	c-6.5,5.1-13.1,10.2-19.5,15.4c-5.8,4.8-11.5,9.7-17.2,14.6c-6.2,5.2-12.5,10.3-18.6,15.7c-7.5,6.6-14.7,13.3-22.1,20
	c-6.7,6.1-13.4,12.2-18.5,19.9c-0.3,0.4-1.2,1-1.6,0.8c-1-0.4-0.6-1.3-0.2-1.9c1.3-1.8,2.6-3.6,4.1-5.2c4.8-4.9,9.5-9.9,14.5-14.5
	c9.5-8.8,19.1-17.4,28.9-25.9c9.8-8.6,19.6-17.1,29.7-25.4c8.9-7.3,18.2-14.3,27.3-21.4c0.3-0.2,0.4-0.5,0.8-1
	c-0.6-0.2-0.9-0.4-1.3-0.4c-5.2-0.1-10.4-0.3-15.6-0.4c-5.3,0-10.6,0.1-15.9,0.2c-6.6,0-13.1,0.1-19.7,0.1c-1.2,0-2.2,0.5-3.1,1.3
	c-1.4,1.4-2.9,2.8-4.4,4.1c-3.4,3-7.1,5.7-10.4,8.8c-5.7,5.3-11.3,10.8-16.8,16.4c-4.4,4.4-8.6,8.9-12.8,13.4
	c-2.6,2.8-5,5.6-7.4,8.5c-3.3,3.9-6.5,7.9-9.6,11.9c-0.6,0.7-1.1,1.3-1.8,0.6c-0.3-0.3-0.2-1.3,0-1.7c1.2-1.6,2.5-3.2,3.8-4.7
	c4.4-5.2,8.7-10.6,13.3-15.7c4.6-5.2,9.5-10.1,14.4-15.1c4.7-4.8,9.5-9.6,14.5-14.2c3.7-3.4,7.6-6.5,11.4-9.8c1.1-1,2.4-1.9,2.9-3.5
	c-0.6-0.1-1-0.2-1.3-0.2c-5.2,0.1-10.4,0.1-15.6,0.4c-5.5,0.3-11,0.8-16.4,1.3c-6.3,0.6-12.7,0.8-18.9,2.4c-3.4,0.9-5.9,2.7-8,5.3
	c-6.3,7.8-12,16-17.7,24.3c-3.4,4.8-6.2,10-9.3,15c-1.5,2.4-1.5,2.7,0.6,4.7c2.7,2.6,5.5,5.1,8.3,7.7c2.6,2.5,5.2,4.9,7.6,7.5
	c3,3.1,6.3,6,8.8,9.5c4.5,6.2,8.7,12.8,12.8,19.3c4.3,6.8,7,14.3,8.6,22.3c1.6,8.1,2.9,16.3,4.6,24.4c0.9,4.2,2,8.4,3.5,12.5
	c1,3,2.5,5.8,4.8,8.4c0.8-0.6,1.5-1,2.2-1.5c2.2-1.9,4.3-3.9,6.4-5.8c3.8-3.3,7.4-6.7,11.4-9.9c6.9-5.5,14.1-10.8,21.1-16.3
	c7.5-5.9,15-11.8,22.5-17.8c2-1.6,4.2-3.1,6.2-4.8c6-4.9,11.9-9.8,17.8-14.7c5.2-4.2,10.3-8.4,15.6-12.5c6.2-4.9,12.5-9.7,18.7-14.5
	c5.6-4.4,11.3-8.8,16.9-13.2c6.7-5.2,13.3-10.5,20-15.7c3.3-2.5,6.5-5.1,9.9-7.5c5.6-4.1,11.3-8.1,17-12.1
	C666.7,27.8,667.8,27.2,669,27.9z M526.8,190.6c1.4,0.2,2.1,0.3,2.7,0.3c3.4-0.3,6.7-0.6,10.1-0.9c6.6-0.7,13.3-1.1,19.8-2.2
	c6.4-1,12.6-2.7,19-3.9c7.8-1.4,15-4.3,22.1-7.4c3.3-1.4,6.5-3,9.8-4.2c8.3-2.9,15.6-7.6,23.2-11.7c6.1-3.3,11.6-7.7,17.1-11.8
	c8.9-6.6,16.8-14,24.1-22.4c6.9-8,12.1-16.6,15.1-26.7c1.9-6.3,4-12.5,5.9-18.8c1-3.5,1.7-7.1,2.4-10.7c0.5-2.4,0.7-4.8,1-7.2
	c0.2-1.8,0.3-3.6-0.5-5.4c-0.6,0.2-1.1,0.3-1.4,0.6c-3.7,2.8-7.4,5.5-11,8.5c-5.1,4.2-10,8.8-15.2,12.9c-5.5,4.4-11.2,8.5-16.8,12.8
	c-6.2,4.8-12.4,9.8-18.7,14.6c-8.4,6.4-16.8,12.6-25.2,18.9c-7.2,5.4-14.3,10.8-21.5,16.2c-4.7,3.5-9.5,6.9-14.2,10.5
	c-8.8,6.8-17.5,13.7-26.2,20.5c-6.4,5-12.8,10-19.2,15C528.5,188.7,527.9,189.4,526.8,190.6z M417.7,59.3
	c9.4-15.1,18.7-29.7,30.3-42.8c-1,0.1-1.9,0.4-2.7,0.7c-1.3,0.5-2.6,1.2-4,1.7c-5.2,1.9-10.4,3.6-15.5,5.6c-2.4,0.9-5.2,1.8-6.8,3.6
	c-1.4,1.5-3,2.6-4.7,3.5c-4,2.1-5.4,5.8-6.8,9.6c-0.2,0.6-0.1,1.3,0,2c0.4,3.4,1.4,6.5,3.7,9.2C413.1,54.7,415,57,417.7,59.3z"/>
<path class="st0" d="M127,10.5c9.3-0.5,18.7-0.9,28-1.7c10.8-0.9,21.6-1,32.3,0.1c4.1,0.4,8.3,0.6,12.4,0.9c1.1,0.1,2.2,0.4,3.4,0.5
	c2.4,0.4,4.8,0.7,7.1,1c8.7,1,17.4,1.9,26.1,3.1c7.1,1,14.2,2.5,21.3,3.9c3.3,0.6,6.7,1.2,9.9,2c3.6,1,7.2,2.2,10.7,3.4
	c6.5,2.2,12.9,4.4,19.4,6.5c3.6,1.2,6.5,3.4,9.3,5.7c2,1.6,2.6,4.3,2.3,6.6c-0.7,6.8-2.6,13.2-8.2,17.9c-5.5,4.6-11.6,8.3-17.8,11.9
	c-2,1.2-4,2.4-5.9,3.6c-7.8,5.2-15.6,10.2-23.3,15.6c-10.1,7-20.1,14.3-30.2,21.5c-11.2,7.9-22.5,15.6-33.6,23.7
	c-6.2,4.5-12,9.4-17.9,14.3c-5.4,4.5-10.5,9.4-15.9,13.9c-5.8,4.9-12,9.4-19.1,12.4c-1.8,0.7-3.6,1.4-5.4,1.9
	c-10.4,2.9-20.8,5.9-31.2,8.6c-8.4,2.2-16.8,4.1-25.3,5.9c-5.4,1.1-10.8,1.8-16.3,2.6c-5.6,0.8-11.3,1.5-16.9,2
	c-5.1,0.4-10.2-0.1-15.2-1.2c-5.5-1.3-8.8-4.8-10.8-9.9c-1.5-3.6-2.2-7.4-2.8-11.2c-0.9-5.7-1.9-11.4-2.7-17.1
	c-0.8-6.3-2.2-12.5-2.9-18.8c-0.9-8.2-1.9-16.5-1-24.8c0.6-5.6,0.3-11.2,0.7-16.8c0.5-6.6,1.3-13.2,2-19.9c0.6-5.7,1-11.3,0.4-17
	c-0.5-4.6,0.5-9.2,1.8-13.7c4.5-6.4,7.7-14,15.3-17.6c4.4-2.1,8.7-4.5,13.2-6.4c6.5-2.8,13.1-5,20-6.7c5.8-1.5,11.7-2.3,17.7-2.7
	c8.5-0.5,16.9-1.6,25.3-2.5c7.9-0.8,15.7-1.6,23.6-2.4C127,10.1,127,10.3,127,10.5z M134.9,13.4c-10.5,0.1-21,0.5-31.4,2.1
	c-7.8,1.1-15.7,1.6-23.6,2.5c-3.8,0.4-7.7,0.6-11.5,1.4C62.3,20.7,56.1,22.4,50,24c-1.9,0.5-3.9,1.2-5.7,2
	c-4.1,1.8-8.3,3.7-12.3,5.7c-6.1,3.1-11.4,7.1-13.5,14.2c-0.8,2.8-2.9,5.1-3.2,8.2c-0.1,1.4-0.8,2.8-0.8,4.2
	c-0.2,4.3-0.1,8.7-0.5,13c-0.4,4.7-1.1,9.4-1.7,14.1c-0.7,5.9-1.6,11.8-1.3,17.9c0.2,3.5-0.3,6.9-0.4,10.4c-0.1,4.6-0.4,9.3,0,13.9
	c0.6,7.3,1.7,14.5,2.7,21.8c1.4,10,2.9,20,4.7,30c0.5,3,1.7,5.9,3,8.7c1.6,3.5,4.5,5.7,8.3,6.6c5.9,1.3,11.9,1.6,17.8,1
	c7.1-0.8,14.1-1.8,21.2-2.9c6.3-1,12.5-2.2,18.7-3.6c7.8-1.7,15.6-3.6,23.4-5.5c2.1-0.5,4-1.2,6.1-1.8c5.3-1.6,10.6-3,15.8-4.7
	c2.5-0.8,4.9-1.7,7.3-2.7c8-3.4,14.1-9.4,20.6-14.8c7.7-6.4,15.1-13.2,23.1-19.3c10.2-7.9,20.9-15.2,31.4-22.7
	c4.6-3.3,9.3-6.5,14-9.8c8.2-5.8,16.3-11.7,24.4-17.5c1.2-0.8,2.3-1.8,3.5-2.6c6.1-4,12.3-8,18.4-11.9c1.5-0.9,2.9-2,4.3-2.9
	c4.8-3,9.7-6,14.5-8.9c5.8-3.5,9.8-8.4,11.5-15c0.5-1.8,0.8-3.8,0.7-5.7c-0.1-2-0.5-4.1-2.3-5.4c-1.9-1.4-3.7-2.8-5.8-3.7
	c-4-1.8-8.2-3.4-12.4-4.9c-3.1-1.1-6.3-1.9-9.4-2.8c-3.9-1.2-7.7-2.4-11.6-3.4c-3.9-1-7.9-1.8-11.8-2.6c-3.6-0.7-7.2-1.6-10.8-2.1
	c-7-0.9-14-1.5-21-2.3c-9.7-1.2-19.3-2.6-29-3.7c-5.4-0.6-10.8-1.1-16.1-1.2c-5.8-0.1-11.5,0.2-17.3,0.6
	C150.7,12.2,142.8,12.8,134.9,13.4z"/>
<path class="st0" d="M418,476.2c0-9.3-0.2-18.5,0.1-27.8c0.2-7.1,1.2-14.2,1.8-21.3c0.2-2.6,0.5-5.2,0.5-7.8
	c-0.1-11,1.3-21.9,1.4-32.9c0-1.8,0.1-3.7-0.1-5.5c-0.9-9.3,0.6-18.2,4.1-26.9c2.5-6.3,4.7-12.7,7-19c1.6-4.2,3.5-8.4,4.8-12.7
	c2.4-7.8,4.9-15.7,6.8-23.6c2.8-12,6.7-23.5,12.4-34.5c4.7-9.2,10.2-18,17.2-25.7c4.8-5.3,10.4-9.7,16.9-13
	c5.1-2.5,10.6-4.2,16.1-5.6c7.1-1.9,14-4.3,20.9-6.7c3-1,6.1-1.7,9.2-2.4c2.2-0.6,4.5-0.9,6.8-1.5c8.5-2.4,16.7-1.2,25,1.5
	c6.2,2,11.5,5.3,16.5,9.4c3.5,2.9,5.4,6.6,6.1,11.1c0.8,5.3,0.5,10.3-1.1,15.4c-2.5,8.1-5,16.2-7.3,24.4c-1.8,6.5-3.2,13.1-4.8,19.7
	c-1.9,7.7-0.9,15.3,1.1,22.9c1.4,5.3,3.1,10.5,5.6,15.5c3.4,6.9,7.3,13.3,13.6,18.1c3.3,2.5,6.1,5.7,9.4,8.2
	c5,3.7,9.5,7.9,13.9,12.1c6.2,6,12.4,12.1,18.7,18c5.7,5.4,9.7,11.9,12.8,19c2.4,5.6,3.8,11.6,4.5,17.6c0.9,7.3,1.6,14.6,1.6,21.9
	c0.1,8.5-1,17-4.2,25c-3.1,7.7-7.2,15-13,21c-2.9,3.1-5.9,6.1-8.9,9.1c-6.8,7-15.3,11-24.6,13.2c-5.1,1.2-10.4,1.9-15.7,2.8
	c-2.7,0.4-5.3,0.9-8,1.2c-2.7,0.3-5.4,0.5-8.1,0.6c-6.2,0.3-12.3,0.5-18.5,0.7c-1.6,0.1-3.3,0-4.9,0c-3.7,0-7.5-0.1-11.2,0
	c-4.3,0.1-8.7,0.4-13,0.6c-9.5,0.6-19.1,1.5-28.6,1.7c-6.8,0.1-13.6-0.8-20.5-1.2c-1.2-0.1-2.5,0-3.8-0.1
	c-5.3-0.5-10.6-0.8-15.8-1.6c-3.7-0.6-7.3-1.9-10.9-2.8c-7.5-1.7-14.6-4.6-21.1-8.5c-6.6-3.9-10.1-9.9-10.4-17.7
	c-0.1-4,0-7.9,0-11.9C418.3,476.2,418.2,476.2,418,476.2z M420.2,463.4c0.2,7.9,0.4,15.8,0.7,23.7c0.2,5,1.5,9.5,5.6,12.9
	c4,3.3,8.4,5.9,13.1,7.9c5,2.2,10.3,3.2,15.5,4.7c7.9,2.3,15.9,3.1,24,3.4c2.5,0.1,5,0.5,7.5,0.6c5.7,0.4,11.4,1.1,17,0.9
	c9.6-0.3,19.3-1.1,28.9-1.7c6.4-0.4,12.7-0.9,19.1-0.8c9.4,0.1,18.9-0.1,28.3-0.8c9.6-0.7,19.2-2,28.6-4.1c8.4-1.9,16-5.6,22.6-11.2
	c2.2-1.9,4.2-3.9,6.2-6c4.3-4.5,8.4-9.1,11.5-14.4c6.2-10.6,8.7-22.2,8.6-34.4c-0.1-7.5-0.6-15-1.9-22.5
	c-2.5-14.7-8.7-27.2-19.8-37.3c-3.9-3.5-7.7-7-11.4-10.7c-6.8-6.6-14-12.7-21.2-18.8c-4.5-3.8-9.3-7.2-12.8-12.1
	c-1.9-2.6-3.8-5.4-5.4-8.2c-4.3-7.4-6.8-15.5-8.7-23.8c-1.6-6.9-1.8-13.8-0.1-20.6c0.6-2.3,1.1-4.7,1.6-7.1
	c1.9-9.6,4.7-18.9,7.7-28.2c2-6.1,4.2-12.2,3.9-18.9c-0.2-6.2-2.5-11.2-7.3-15.1c-4.6-3.8-9.7-6.6-15.3-8.5
	c-6.8-2.4-13.7-3.1-20.8-1.8c-2.9,0.5-5.8,1.4-8.8,1.7c-3.9,0.4-7.4,2-11.1,3.3c-0.4,0.2-1,0.4-1.2,0.7c-0.8,1.5-2.2,1.4-3.5,1.7
	c-1.2,0.3-2.5,0.4-3.7,0.8c-6.1,1.7-12.3,3.3-18.3,5.4c-4,1.3-8,2.9-11.7,5c-9.1,5.3-15.9,13-21.5,21.9c-4.4,7.1-8.5,14.5-11.8,22.2
	c-2.6,5.9-4.9,11.9-6.2,18.3c-2.2,10.9-5.2,21.6-9,32c-4,11-8.2,21.8-12.3,32.8c-2.3,6.2-3.4,12.7-3.1,19.3
	c0.5,10-0.2,19.9-0.7,29.8c-0.1,3.1-0.3,6.2-0.4,9.2c-0.1,3.2,0,6.4-0.4,9.5C420.7,437.4,419.7,450.4,420.2,463.4z"/>
<path class="st0" d="M601.4,287.3c0-2.2-0.1-4.4,0-6.6c0.3-4.4,0.6-8.8,1.1-13.2c0.6-5.1,1.1-10.2,2.2-15.2c1.4-6.9,3.6-13.6,6.7-20
	c1.9-3.9,3.8-7.8,6.2-11.4c1-1.5,2-3.1,3-4.6c4-6.7,8.9-12.8,14-18.7c2.9-3.4,5.6-6.9,8.8-10c5.7-5.5,11.3-11.1,18.1-15.2
	c5.6-3.3,11.8-5.3,18.2-6.3c3.8-0.6,7.7-1,11.5-0.1c1.3,0.3,2.7,0.7,3.7,1.4c5.2,3.8,10.2,8,14.2,13.1c2.9,3.6,4.4,8,5.6,12.6
	c2.6,10.2,2.6,20.6,3.9,31c1.4,11,0.4,21.9-0.3,32.9c-0.2,3.6-0.2,7.1-0.4,10.7c-0.2,5.2-0.3,10.4-0.6,15.6
	c-0.5,7.6-1,15.2-1.8,22.8c-0.7,7-1.8,14-2.9,20.9c-0.9,5.2-1.8,10.5-3.2,15.6c-2.2,7.6-5.7,14.5-11.7,19.9
	c-3.7,3.3-8.1,5.3-12.9,6.2c-6.7,1.2-13.1,0.2-19.5-2.5c-8.4-3.5-15.6-8.8-23-13.8c-3.4-2.3-6.8-4.8-10-7.3
	c-1.4-1.1-2.6-2.6-3.9-3.8c-1-1-2-2.2-3.1-3c-3.7-2.6-6.6-5.9-9.4-9.3c-2-2.4-4-4.7-5.9-7.1c-2.8-3.5-4.9-7.4-5.9-11.8
	c-0.7-3-1.8-5.9-2.2-9c-0.5-4.5-0.5-9-0.7-13.6C601.2,287.3,601.3,287.3,601.4,287.3z M645,257.8c4,0,7.5,0.1,10.9,0
	c5.3-0.1,10.2-2.1,14.2-5.2c5.3-4.2,5.4-7.3,1.7-11.7c-0.5-0.6-0.8-1.2-1.1-1.7c1.6-1.9,3.1-3.6,4.5-5.2c0.9-1,1.1-2.1,0.3-3.2
	c-1-1.4-2-2.9-3.4-3.8c-2.3-1.7-4.9-3.1-7.4-4.5c-2.2-1.2-2.4-2-1.2-4.2c0.4-0.7,0.9-1.3,1.3-1.9c3.5-5.6,0.5-12.5-6-13.9
	c-3.3-0.7-5.7,0-7.7,2.9c-2.8,4.2-5.5,8.3-7.6,12.9c-0.8,1.8-2,2-3.3,0.6c-0.7-0.7-1.1-1.6-1.6-2.4c-1.1-1.9-1.7-2.3-3.7-1.4
	c-2.4,1.1-4.6,2.4-6.8,3.8c-1.8,1.2-3.4,2.6-4.9,4.1c-1.4,1.3-2.2,3.2-1.6,5c0.9,2.9,1.9,5.9,4.4,8c0.7,0.6,1.2,1.4,2,2.3
	c-1.5,0.9-2.6,1.6-3.7,2.3c-1.4,0.8-2.5,1.9-2.5,3.6c0,2.6,0,5.2,0.2,7.8c0.3,3.5,2.4,5.8,5.7,7c1.1,0.4,2.2,0.7,3.3,1.1
	c1,0.3,2,0.6,3,1.1c0.4,0.2,0.6,0.9,1,1.7c-0.8,0.1-1.2,0.3-1.5,0.2c-3.9-0.9-7.6-2.2-11-4.3c-1.6-1-2.6-2.4-3.2-4.3
	c-0.9-3.2-0.6-6.5-0.5-9.8c0-2.6,1.1-4.4,3.4-5.6c0.6-0.3,1.2-0.9,2-1.5c-3.8-3.4-5.5-7.5-5.6-12.9c-0.8,1.1-1.4,1.6-1.7,2.3
	c-2.2,4.7-4.4,9.4-6.5,14.2c-0.5,1.1-0.9,2.1-1.2,3.3c-1.6,5.9-2.9,11.8-3.4,17.9c-0.4,5.1-1.4,10.1-1.7,15.2
	c-0.3,4.8-0.1,9.6-0.2,14.5c-0.2,7.5,1.5,14.6,4.1,21.5c0.6,1.7,1.5,3.4,2.6,4.8c3.3,4.3,6.6,8.5,10.2,12.6c2.1,2.4,4.9,4.1,7.1,6.4
	c6,6.3,12.8,11.3,20.1,16c5.9,3.8,11.6,7.9,18.1,10.8c4.5,2,9.1,3.1,14,2.9c9.8-0.4,17-4.9,22-13.2c3.9-6.6,6-13.8,7.2-21.3
	c1.7-10.6,3.7-21.1,4.2-31.8c0.4-7.6,1.1-15.2,1.5-22.8c0.6-11.5,1-22.9,1.4-34.4c0.2-4,0.5-8.1,0.2-12.1c-0.6-7.7-1.5-15.4-2.3-23
	c-0.6-5.8-1.6-11.4-3-17.1c-1.1-4.4-3.1-8.1-6-11.4c-2.9-3.2-6.2-6.1-9.4-9c-1.6-1.5-3.3-2.8-5.5-2.9c-4.5-0.1-9-0.8-13.5,0.6
	c-4.4,1.3-8.7,2.7-12.6,4.9c-7.3,4.1-13.1,10.1-19,15.9c-3.4,3.3-6.3,7-9.4,10.6c-5.2,6-10.1,12.2-13.9,19.2
	c-0.2,0.3-0.2,0.8-0.4,1.3c3.5-2.2,6.8-4.2,10-6.2c3-1.8,6-2.7,9.1-0.2c0.3,0.2,0.7,0.2,1.5,0.5c0.8-1.4,1.7-2.7,2.4-4.2
	c1.7-3.4,3.8-6.5,6.7-9c1.3-1.2,2.8-1.6,4.5-1.7c3.9-0.1,7.4,1.1,10.2,3.9c4.3,4.3,5.3,8.7,2.3,13.8c-0.5,0.9-1.1,1.8-1.6,2.6
	c0.4,0.5,0.5,0.7,0.7,0.9c2.3,1.6,4.7,3,6.9,4.7c1.4,1,2.8,2.2,3.7,3.6c2.1,3.2,2,4.7-0.6,7.2c-1,1-1.8,2.2-2.7,3.2
	c0.4,0.7,0.6,1.3,0.9,1.8c3.1,5.6,1.7,8.8-2.4,12.4c-3.1,2.7-6.7,4.1-10.4,5.5c-2.6,1-5.5,1.7-8.5,1c-3.4-0.7-6.7,0-10,0.8
	c-1.3,0.3-2,1.1-2,2.5c0.1,1.3,0.1,2.5,0.3,3.8c1,6.5,0.2,12.9-0.4,19.3c-0.1,0.6-0.8,1.4-1.3,1.5c-1,0.2-1.6-0.5-1.7-1.5
	c0-1.3,0-2.7,0.1-4c0.1-2.8,0.6-5.6,0.4-8.3c-0.3-4.8-0.8-9.6-1.3-14.4c-0.5-4.7-1.6-9.1-5.3-12.5c-0.2-0.2-0.2-0.7-0.4-1.4
	c1,0.2,1.8,0.2,2.4,0.6c3.8,2,4.8,6,6.5,9.7c0.7-0.5,1.3-0.9,1.7-1.4c2.7-3.1,6.2-5.2,9.5-7.5c0.8-0.5,1.7-0.8,2.7-1
	c0.3-0.1,1,0.3,1.1,0.6c0.2,0.3,0,1-0.2,1.3c-0.6,0.6-1.4,1-2.1,1.5C651.2,251.9,647.9,254.1,645,257.8z"/>
<path class="st0" d="M107.1,461.3c-9.9,0.1-20,0.1-30.1,0.5c-5.1,0.2-9.7-1.5-14.5-2.5c-0.7-0.1-1.3-0.5-2-0.5
	c-6.1-0.5-11.7-3.1-17.6-4.7c-1.1-0.3-2.1-0.8-3.2-1.4c-1.9-0.9-3.8-1.8-5.6-3c-1.9-1.2-3.7-2.7-5.5-4.1c-0.2-0.2-0.4-0.4-0.6-0.6
	c-4.3-3.9-7-8.8-10.2-13.6c-3.6-5.5-5.7-11.4-7.5-17.5c-1.2-4.3-1.5-8.9-2.6-13.3c-1.4-6.1-1-12.2-0.7-18.4c0.2-3.8,0-7.5,0.1-11.3
	c0.1-5.8,0.4-11.6,0.5-17.3c0.1-5.4,0.1-10.8,0.2-16.2c0.3-9.8,0.6-19.7,1-29.5c0.1-2.5,0.8-5,1.1-7.4c0.5-4.8,0.9-9.6,1.5-14.4
	c0.8-5.8,1.8-11.6,2.8-17.4c0.4-2.4,0.9-4.7,1.3-7.1c1.1-6.4,3.7-12.2,6.5-17.9c2.7-5.5,6.8-10.3,10.9-14.9c1.2-1.3,2-2.9,3.3-3.9
	c3.1-2.3,6.3-4.4,9.5-6.5c1.9-1.2,3.9-2.1,5.7-3.4c5.5-3.7,11.9-5.4,18-7.8c6.1-2.4,12.3-4.4,18.8-5.6c6.2-1.1,12.3-2.5,18.5-3.4
	c4.6-0.7,9.3-1.2,13.8,0.3c2.6,0.9,5.3,1.9,7.7,3.3c1.9,1.1,3.8,2.6,4.9,4.4c2.5,3.8,4.5,7.9,5.5,12.4c1,4.6,1.8,9.3,3.1,13.8
	c3,9.9,7.3,19.3,12.4,28.3c4.2,7.5,8.4,14.9,12.9,22.3c2.4,4,5.2,7.6,7.8,11.5c6.8,10.2,15.4,18.7,23.8,27.6
	c6.7,7.2,12.3,15.4,15.1,25.1c0.9,3.1,1,6.3,0.3,9.5c-1.6,7.7-3.5,15.3-6.7,22.4c-3.2,7-6.9,13.8-11.9,19.7
	c-4.8,5.7-9.5,11.4-14.3,17.1c-0.5,0.6-1,1.2-1.5,1.7c-6.4,6.1-12.3,12.8-18,19.6c-1.8,2.1-4.1,3.8-6.1,5.7
	c-4.8,4.4-10,8.2-15.9,10.9c-4.1,1.9-8.4,3.3-12.8,4.6c-4.1,1.2-8.3,1.9-12.4,2.6C112.2,461.1,109.8,461.1,107.1,461.3z M91,459.4
	c8.3-0.4,15.7-0.5,23.1-1.3c5.7-0.6,11.5-1.7,17-3.4c12.4-3.6,22.2-11.6,30.9-20.8c5-5.2,9.5-10.9,14.6-16
	c4.5-4.5,8.4-9.6,12.5-14.4c2.6-3,5.3-5.9,7.6-9.1c7.3-10.2,12-21.5,14.8-33.7c2.1-9,0.4-17.2-4.9-24.7c-1.9-2.8-3.8-5.6-5.8-8.3
	c-1.2-1.6-2.5-3.2-3.8-4.7c-3.1-3.3-6.4-6.4-9.6-9.7c-7.9-8-13.8-17.4-19.9-26.6c-2.6-3.9-4.7-8.2-7.1-12.3c-2.6-4.5-5.7-8.8-8-13.4
	c-3.4-6.6-6.5-13.4-9.3-20.2c-1.8-4.4-3.2-9.1-4.1-13.8c-1.1-5.7-2.3-11.3-5.3-16.4c-1.1-1.8-1.9-4.1-3.5-5.3
	c-3.9-2.9-8.2-5.1-13.2-5.4c-6.2-0.3-12.4,0.1-18.4,1.5c-10.3,2.4-20.7,4.5-30.6,8.5c-6.8,2.8-13.7,5.3-19.8,9.4
	c-5.1,3.4-10.8,6-14.5,11.2c-2.8,3.9-6,7.6-8.6,11.6c-4.2,6.5-6.1,13.9-7.9,21.4c-2.4,10.3-3.4,20.9-4.7,31.5
	c-0.4,3.3-1.1,6.5-1.3,9.8c-0.6,10-1.2,20-1.6,30c-0.3,8.1-0.4,16.2-0.5,24.3c-0.1,6.7-0.1,13.3-0.1,20c0,4.5-0.6,9.1-0.2,13.6
	c1.1,9.9,2.2,19.8,6.4,29c3.7,8.1,7.9,15.8,14.6,22c3.8,3.5,8.3,6,13,8.1c3.1,1.4,6.6,2.1,9.9,3c5.2,1.4,10.5,2.7,15.7,3.9
	c1.9,0.4,3.8,0.7,5.7,0.8C80.1,459.4,86,459.4,91,459.4z"/>
<path class="st0" d="M246.2,357.9c-0.1,0.9-0.2,1.8-0.4,3c0.7-0.3,1.3-0.5,1.8-0.9c1-0.7,2-1.5,3-2.3c4.9-4.1,10.8-5.3,16.9-5.5
	c8.1-0.2,16.2-0.3,24.3-0.2c7.1,0.1,14.2,0.5,21.4,0.9c6.7,0.3,13.5,0.7,20.2,1c7.1,0.3,13.8,2.1,20.5,4.5c5.1,1.8,9.5,4.8,13.8,7.7
	c5,3.5,8.8,8.1,11.6,13.8c4,8.4,6,17.3,7.9,26.2c0.7,3.6,0.5,7.3,0.9,10.9c0.5,4.1-0.2,8.1-0.4,12.1c-0.2,4.1-0.1,8.3-0.5,12.4
	c-0.8,8.6-1.7,17.3-2.9,25.8c-0.7,5.4-2.7,10.6-4.8,15.7c-2.4,6-6.3,11-9.8,16.3c-1.3,1.9-3.2,3.3-4.8,5c-3.3,3.5-6.8,6.5-11,8.8
	c-1,0.5-2,1.3-3.1,1.6c-4,1.1-7.7,2.9-11.9,3.5c-7.9,1.2-15.7,2.9-23.7,4.1c-4.7,0.7-9.4,0.9-14.1,1.3c-2.8,0.2-5.6,0.5-8.4,0.6
	c-8.1,0.3-16.2,0-24.2-0.8c-3.8-0.4-7.7-0.3-11.5-0.8c-5.3-0.7-10.7-1.3-16-2.6c-7.3-1.8-14.4-4.3-21.6-6.5c-3.1-1-5.5-3.2-8-5.1
	c-4.3-3.3-7.3-7.6-9.5-12.5c-2.4-5.3-5-10.5-7-15.8c-2.6-6.8-4.3-13.7-4.1-21.1c0.2-6.7,2.2-12.9,4.2-19.1c2.2-7,5.6-13.3,9.7-19.3
	c3.2-4.7,6.2-9.6,9.3-14.3c2-3,4.1-5.8,6-8.8c2.9-4.5,5.7-9.1,8.7-13.6c1.3-2,3-3.7,4.5-5.6c0.5-0.6,1-1.2,1.3-1.9
	c1.7-4.5,4.5-8.3,7.1-12.2c1.4-2.1,2.6-4.4,3.9-6.5C245.8,357.8,246,357.9,246.2,357.9z M286.5,522.5c0,0.1,0,0.3,0,0.4
	c5.8-0.3,11.6-0.5,17.3-1c5.5-0.5,10.9-1.4,16.3-2.3c6.9-1.1,13.9-2.1,20.8-3.6c7.7-1.7,14.4-5.1,19.9-11.1c2.7-3,5.9-5.5,8.1-9
	c0.8-1.2,1.8-2.3,2.5-3.5c1.8-3,3.8-5.8,5.3-9c4.5-9.6,6.3-19.8,7.2-30.2c0.6-6.8,0.8-13.7,1.3-20.5c0.7-7.7,0.4-15.4-0.2-23.1
	c-0.2-2.4-0.6-4.8-1.1-7.1c-1.2-4.6-2.3-9.2-3.9-13.6c-1.5-4-3.5-7.9-5.3-11.8c-0.2-0.5-0.7-0.9-1.1-1.4
	c-7.8-9.7-18.4-14.8-30.1-17.7c-5.9-1.5-12.2-1.8-18.3-2.2c-6.9-0.4-13.9-0.4-20.8-0.6c-8-0.2-16-0.4-24-0.5
	c-4.5-0.1-9.1-0.1-13.6,0.1c-4.6,0.2-9.1,0.9-12.9,3.8c-4.1,3.2-8.1,6.5-12.1,9.8c-0.7,0.5-1.2,1.2-1.7,2c-1.5,2.5-2.8,5-4.4,7.5
	c-2.2,3.4-4.5,6.7-6.7,10.1c-6.4,9.8-12.7,19.5-19,29.4c-2.6,4.1-5.4,8.2-7.6,12.6c-3.9,8.1-6.9,16.6-8.4,25.5
	c-0.2,1-0.3,2.1-0.3,3.2c0.1,5.6,0.4,11.2,2.5,16.5c0.9,2.4,1.5,5,2.4,7.4c1.2,2.9,2.7,5.8,4,8.7c1.9,4.4,3.9,8.7,6.9,12.3
	c4.6,5.4,10.3,9.2,17.3,10.9c0.6,0.1,1.1,0.4,1.6,0.5c5.1,1.4,10,3.3,15.4,4c7.3,1,14.6,2.6,22.1,2.6c3.4,0,6.9,0.8,10.4,1
	C279.7,522.7,283.1,522.5,286.5,522.5z"/>
<path class="st0" d="M834.5,73.1c0,5.4-0.1,11.4,0,17.3c0.1,6.1,0.6,12.1,0.8,18.1c0.1,5,0,10-0.2,15c-0.5,10.7-1.3,21.4-1.7,32.1
	c-0.4,9.5-2.4,18.5-5.4,27.4c-1.3,3.9-2.9,7.8-5.8,10.9c-3.4,3.6-7.5,5.7-12.3,6.5c-7.8,1.2-15.4-0.2-23-1.4c-2.5-0.4-5-0.7-7.4-1.2
	c-3.9-0.9-7.8-2-11.7-3c-6.8-1.7-13.2-4.7-18.6-9.1c-6.3-5.1-12-10.8-15.2-18.6c-2.1-5.2-4.6-10.2-6.7-15.4
	c-1.1-2.6-1.9-5.3-2.8-7.9c-1.9-5.6-3.9-11.1-5.5-16.8c-1.9-6.6-1.6-13.3-0.8-20.1c1-8.1,2.9-15.9,4.9-23.8
	c1.5-5.9,2.7-11.9,4.6-17.6c2.3-7.1,5.2-14.1,7.9-21.1c0.5-1.3,1.4-2.5,2.1-3.8c1.5-2.6,3.2-5.1,4.5-7.7c0.7-1.3,0.9-2.9,1.1-4.4
	c0.3-2.1,1.1-3.7,3-4.6c1.5-0.8,3.1-1.6,4.7-2.3c3.8-1.7,7.6-3.3,11.4-4.9c0.9-0.4,1.8-0.7,2.6-1.2c4.3-3,9.1-3.5,14.1-3.2
	c4.3,0.3,8.7,0.2,12.9,1.1c4.2,0.9,8.4,1.8,12.4,3.7c5,2.4,9.3,5.5,13.2,9.2c0.1,0.1,0.3,0.2,0.4,0.4c2.6,3.5,5.3,6.8,7.6,10.5
	c1.5,2.5,2.5,5.4,3.5,8.2c1.9,5.8,3.9,11.5,4.3,17.6C833.6,66.2,834.1,69.3,834.5,73.1z M720.5,114.9c0.6,4.3,0.6,8.7,1.8,12.8
	c2.5,9.1,5.7,18,9.8,26.6c1.1,2.4,2.5,4.6,3.2,7.1c2.1,7.6,6.5,13.7,12,19.2c1.1,1.1,2.1,2.3,3.4,3.1c5.8,4,11.9,7.3,18.8,9.3
	c6.7,1.9,13.5,3.3,20.3,4.3c3.2,0.5,6.5,0.5,9.7,1.1c3.4,0.6,6.8,0.7,10.1,0c5.1-1.1,9.2-3.7,11.9-8.4c1.9-3.4,3.1-7,4.4-10.6
	c2.2-6.2,3.8-12.6,4.4-19.1c0.9-11.2,1.4-22.3,2-33.5c0.2-3.4,0.4-6.7,0.4-10.1c-0.1-6.5-0.4-12.9-0.5-19.4
	c-0.2-9.1-0.3-18.1-0.8-27.2c-0.2-4.4-0.7-8.9-1.8-13.2c-1.5-5.8-3.2-11.5-5.8-16.9c-5.6-11.8-14.7-19-27.2-22.3
	c-5.4-1.4-10.8-2.1-16.3-2.4c-4.8-0.3-9.4,0.3-13.7,2.6c-3.6,1.9-7.3,3.5-11,5c-3.1,1.3-5.8,2.9-7.6,5.9c-3.2,5.3-6.7,10.4-9.5,15.9
	c-2.5,5.1-4.4,10.5-6.3,15.8c-1.6,4.3-3,8.7-4.1,13.2c-1.5,5.8-2.6,11.7-3.9,17.5C722.2,98.9,721,106.8,720.5,114.9z"/>
<path class="st0" d="M46.7,474c5.4-0.7,10.2,0.6,15.2,1.2c4.5,0.5,9,0.8,13.6,0.9c6.2,0.1,12.3,0.4,18.5-0.1
	c6.5-0.5,13-1.7,19.5-2.6c1.7-0.2,3.4-0.4,5.1-0.7c2-0.4,3.9-0.9,5.9-1.2c2.1-0.4,4.2-0.7,6.3-0.9c3.2-0.3,6.5-0.9,9.8-0.7
	c3.2,0.2,6.4,1.1,9.6,1.9c1,0.3,1.9,1.3,2.8,2c1.7,1.4,3.5,2.7,5.1,4.3c0.6,0.6,1.2,1.7,1.1,2.5c-0.3,1.6,0.5,2.5,1.3,3.6
	c3.1,4.4,6.3,8.8,9.3,13.2c1.5,2.3,2.8,4.8,4,7.4c1.1,2.4,1.1,5,0.1,7.6c-1.8,4.5-5,8.1-8.3,11.3c-1.1,1.1-3.1,1.4-4.8,1.6
	c-5,0.7-10.1,1.4-15.1,1.6c-4.4,0.2-8.9-0.2-13.3-0.6c-10.7-1.1-21.4-1-32.1-1c-5.4,0-10.8,0-16.2,0.2c-4.1,0.1-8.3,0.5-12.4,0.8
	c-7.1,0.6-14.2,0.6-21.4-0.2c-2.8-0.3-5.6-0.4-8.3-1c-5.3-1.2-10.1-3.5-13.4-7.9c-1.5-2.1-2.6-4.8-3.2-7.3
	c-1.8-7.7-2.2-15.4-0.4-23.2c1.1-4.9,3.7-8.4,8.6-10.4C37.9,474.5,42.3,473.3,46.7,474z M141.9,524.5c6.2,0.1,12.3-0.5,18.4-1.8
	c1.9-0.4,3.4-1.2,4.8-2.5c2.8-2.6,4.8-5.7,6.4-9.2c1.1-2.4,1.1-4.7-0.1-7c-2.9-5.6-5.9-11-9.9-15.9c-3.2-3.9-6.3-7.8-9.5-11.6
	c-0.5-0.6-1.3-1.2-2-1.6c-4.6-2.7-9.7-2.7-14.7-2c-7.5,1.1-15,2.8-22.5,4c-4.9,0.8-9.9,1.3-14.9,1.8c-2.3,0.2-4.6,0.2-6.9,0.3
	c-1.9,0-3.9-0.1-5.8,0c-7.2,0.5-14.2-0.4-21.4-0.9c-4.5-0.3-9-0.9-13.5-1.2c-1.1-0.1-2.3,0.2-3.5,0c-4.9-0.6-9.3,0.7-13.6,2.8
	c-2.4,1.2-4.1,2.9-5,5.3c-1.4,3.7-2.1,7.6-2.1,11.6c0,5.5,0.6,11,2.4,16.2c0.6,1.9,1.5,3.6,3.1,4.8c3.8,2.8,7.9,4.9,12.7,5.2
	c6.3,0.4,12.7,0.8,19.1,0.9c3.9,0.1,7.9-0.2,11.8-0.4c6.9-0.4,13.9-1.1,20.8-1.1c9.2,0,18.5,0.5,27.7,0.9
	C129.8,523.5,135.8,524.1,141.9,524.5z"/>
<path class="st0" d="M444.6,244.2c-0.1,7.8-1.3,15.3-3.9,22.7c-1.6,4.6-2.8,9.4-4.2,14.1c-0.5,1.8-1.1,3.5-1.7,5.2
	c-1.9,6.3-3.6,12.6-5.6,18.8c-2,6.2-4.1,12.4-6.3,18.6c-0.5,1.5-1.2,3.1-1.8,4.6c-2.5,6.4-6.2,12.2-9.9,17.9
	c-0.6,0.9-1.2,1.8-1.7,2.7c-2.1,4.1-5.6,6.8-9.1,9.6c-0.7,0.6-2,0.6-3,0.7c-4.3,0.3-8.4-1.3-12.4-2.4c-5.5-1.4-10.5-3.9-15.2-6.9
	c-2.1-1.3-4.3-2.5-6.6-3.6c-4.4-2-8.3-4.9-11.9-8.1c-1.6-1.4-2.8-3.4-4.2-5.1c-1.8-2.3-1.3-4.8-0.2-7.1c0.8-1.7,1.9-3.3,3.2-4.8
	c2.6-3.2,5.5-6.2,8.7-8.9c2.6-2.2,4.9-4.9,7.3-7.4c6.1-6.3,12.2-12.6,18.1-19.1c4.9-5.3,9.3-11.1,14.1-16.5
	c6.7-7.5,13.7-14.9,20.5-22.4c3.4-3.7,6.6-7.5,9.9-11.3c0.6-0.7,1.3-1.4,2-2.1c3.4-3.4,6.5-3.2,10.3-1.3c1,0.5,1.8,1.7,2.3,2.8
	c1,2.2,1.7,4.5,1.3,7C444.5,242.9,444.6,243.6,444.6,244.2z M442.1,246c-0.4-3.1-0.5-6.4-1.1-9.4c-0.8-3.4-3.9-4.4-6.7-2.3
	c-1.2,0.8-2.3,1.8-3.3,2.8c-5.5,6-10.9,11.9-16.4,18c-4.5,5-9,10-13.5,15.1c-1,1.1-2.1,2.3-2.8,3.6c-2.6,4.9-6.3,9-10.2,12.8
	c-7.4,7.3-14.9,14.5-22.3,21.8c-2.1,2-4,4.2-6.2,6c-3.8,3.2-6.9,7-9.5,11.2c-1.3,2-1.3,4.1-0.2,6.3c2.1,4.1,5.6,6.9,9.3,9.3
	c5.8,3.6,11.8,7,17.9,10.1c5.7,2.9,11.7,5,18.1,5.8c1.9,0.2,3.4-0.2,4.8-1.5c2.4-2.2,4.9-4.3,6.6-7.2c3.1-4.9,6.5-9.6,9.3-14.6
	c2.2-3.9,3.8-8.2,5.3-12.5c2.4-6.8,4.5-13.7,6.6-20.7c0.8-2.7,1.3-5.4,2.1-8.1c2.6-8.2,5.4-16.3,8-24.5
	C440.2,261,442.1,253.7,442.1,246z"/>
<path class="st0" d="M702.3,396.9c0.5,0.1,1.1,0.2,1.5,0.4c6.2,3.4,12.4,6.6,18.5,10.2c8.7,5.2,17.2,10.7,25.8,16
	c6.3,3.9,12.8,7.5,19.2,11.2c5.1,2.9,10.2,5.8,15.3,8.7c6.7,3.8,13.3,7.8,20,11.6c6.2,3.5,11.4,8.3,16.4,13.2
	c0.8,0.8,2.1,1.7,0.9,2.9c-1.1,1.1-2.1-0.2-2.9-0.9c-2.6-2.3-4.9-5-7.7-6.9c-6.1-4.3-12.2-8.4-18.6-12.3c-6.6-4-13.4-7.5-20.1-11.3
	c-4.8-2.7-9.6-5.4-14.2-8.3c-5.1-3.1-10-6.5-15.1-9.7c-9.2-5.8-18.5-11.6-27.8-17.2c-3.1-1.9-6.5-3.3-9.7-5.1
	c-0.7-0.4-1.3-1.2-1.9-1.7C701.9,397.4,702.1,397.2,702.3,396.9z"/>
<path class="st0" d="M761.5,230.7c2-0.5,3.3,0.1,4.6,0.8c1.7,1,3.5,2.1,5,3.4c4.4,3.5,9.2,6.3,13.9,9.2c2.2,1.4,4.3,2.9,6.5,4.3
	c0.8,0.5,1.6,1.1,2.4,1.5c6.8,3.6,13.7,7,20.5,10.7c3.1,1.7,5.9,3.9,8.9,5.9c1.3,0.9,2.6,1.7,3.9,2.5c0.5,0.3,1.1,0.5,1.4,1
	c0.3,0.4,0.5,1.2,0.2,1.5c-0.2,0.4-1,0.7-1.4,0.5c-0.9-0.3-1.7-0.8-2.5-1.4c-5.3-4-10.9-7.6-16.8-10.7c-5.5-2.9-11.1-5.8-16.5-8.9
	c-3.6-2.1-6.9-4.6-10.3-6.9c-3-2-6.1-4.1-9.1-6.1C768.8,235.7,765.4,233.4,761.5,230.7z"/>
<path class="st0" d="M759.3,229.9c-1.3-0.9-2.5-1.7-4.2-2.9c2.2-0.2,2.6,0,4.6,2.3C759.6,229.6,759.5,229.7,759.3,229.9z"/>
<path class="st0" d="M522.5,60.3c0.3,0.4,0.6,0.7,0.7,1c0,0.1-0.4,0.5-0.5,0.4c-0.2,0-0.5-0.3-0.6-0.5C522,61,522.3,60.8,522.5,60.3
	z"/>
<path class="st0" d="M77.3,94.3c0.7,1.4,1.2,2.5,1.7,3.6c0.7,1.5,1.4,2.9,2,4.5c1.8,5.5-1.2,8.1-5.7,8.9c-3.5,0.7-6.9,0.2-10.1-1.5
	c-1.9-1-3.7-2-5.6-3c-0.7-0.3-1.4-0.5-2.5-0.9c-0.4,1.6-0.8,3-1,4.3c-0.6,5.3-1.2,10.5-1.8,15.8c-0.3,2.8-0.8,5.5-1.2,8.3
	c-0.1,0.6-0.3,1.5-0.7,1.8c-0.6,0.5-1.6,0.8-2.3,0.7c-0.4-0.1-1-1.1-1.1-1.7c-0.1-0.8,0.1-1.7,0.3-2.6c1.4-7.5,2.3-15,2.6-22.6
	c0.1-1.3-0.2-2.6-0.3-4.3c-1,0.5-1.6,0.8-2.1,1.1c-3.1,1.8-6.1,3.7-9.3,5.2c-2,0.9-4.2,1.3-6.4,1.7c-0.8,0.2-1.7-0.2-2.5-0.4
	c-1.8-0.6-2.4-1.6-1.9-3.3c0.6-2.1,1.3-4.2,2.3-6.2c1.9-3.8,4-7.5,6-11.2c0.3-0.7,0.6-1.4,1.1-2.3c-1-0.1-1.7-0.1-2.5-0.1
	c-0.9,0-1.8,0.1-2.6-0.1c-1.8-0.3-2.3-1.3-1.3-2.9c3.2-5.3,6.5-10.5,9.7-15.8c0.4-0.6,0.7-1.3,1.2-2.2c-0.9-0.2-1.5-0.5-2.1-0.5
	c-0.7-0.1-1.4,0-2-0.1c-3.4-0.4-4.6-3-2.7-5.7c3.1-4.3,6.1-8.7,9.3-12.9c2.2-2.8,4.6-5.4,7-8.1c1-1.1,2.3-1.1,3.4-0.4
	c3,1.9,6.1,3.7,8.9,5.9c1.9,1.5,3.5,3.6,5.1,5.5c4.1,4.8,7.6,9.9,11,15.2c0.4,0.6,0.7,1.2,0.9,1.8c0.7,1.9,0.5,2.7-1.3,3.9
	c-0.4,0.3-0.8,0.5-1.5,1c2.3,3.5,4.6,7,7.2,10.7c0.4-5.5,4.2-9.3,6.5-13.6C90,69.5,88.9,65,90,61.3c1.1-3.7,3.1-6.9,5.3-9.9
	c1.7-2.4,3.9-4.5,5.9-6.7c1.4-1.6,2.8-3.1,4.3-4.7c1-1.1,1.9-2.2,3-3.1c2.6-2.2,5-2.3,7.5,0.1c2,1.9,3.9,3.8,5.5,6
	c3.5,4.7,6.1,9.8,8.3,15.2c0.4,1.1,0.8,2.2,1,3.3c0.4,2.6-0.7,4.1-3.2,4.6c-0.7,0.1-1.5,0.2-2.7,0.4c0.8,1.3,1.5,2.4,2.2,3.4
	c2.4,3.4,4.8,6.8,6.1,10.8c0.1,0.5,0.3,0.9,0.5,1.4c0.8,3.2,0.1,4.7-3,5.9c-0.6,0.2-1.2,0.5-2,0.8c0.2,0.7,0.3,1.3,0.5,2
	c1.3,4.2,2.8,8.4,3.9,12.7c0.7,2.6,0.1,3.2-2.3,4.2c-0.7,0.3-1.4,0.6-2.2,0.7c-5.9,0.7-11.5,0-16.7-3.3c-0.9-0.6-2-1-3.5-1.7
	c-0.2,1.5-0.5,2.6-0.5,3.7c-0.3,4.7-0.4,9.4-0.7,14.2c-0.1,2.2-0.8,3-2,2.9c-1.3-0.1-1.7-0.8-1.6-3.1c0.2-4.3,0.5-8.7,0.7-13
	c0-1.1-0.1-2.3-0.3-3.7c-1.2,0.6-2.2,0.9-3.1,1.4c-3.4,2-7.1,2.8-10.9,3.6c-0.6,0.1-1.4,0.1-2,0c-1.9-0.3-2.6-1.1-2.1-3
	c1.1-4.6,2.4-9.1,5-13.2c0.7-1.1,1.1-2.4,1.8-3.9c-1.7-0.6-3-1.1-4.4-1.4c-0.4-0.1-1.3,0.3-1.4,0.7C85.1,92.4,81.5,93.4,77.3,94.3z
	 M36.5,86.9c0.8,0,1.5,0.2,2.1,0.1c1.2-0.2,2.4-0.7,3.7-0.8c0.7-0.1,1.6,0.1,2,0.5c0.3,0.3,0.2,1.3-0.1,1.8c-1.4,2.6-3,5.1-4.5,7.7
	c-2,3.6-4,7.2-6,10.8c-0.3,0.5-0.6,1.1-0.6,1.6c0.1,0.7,0.4,1.7,0.8,1.9c0.8,0.4,1.9,0.6,2.7,0.3c2.4-0.9,4.9-1.8,7.2-3
	c3-1.7,5.8-3.8,8.7-5.7c2.6-1.8,3.9-1.7,6.6,0c2.5,1.6,5,3.2,7.6,4.8c2.7,1.6,5.7,2.3,8.9,1.9c2-0.3,2.8-1.3,2.3-3.2
	c-0.5-1.7-1.1-3.3-1.9-4.8c-1.4-2.7-3-5.4-4.4-8.1c-0.2-0.3,0-0.7,0-1.5c1.1-0.1,2.2-0.2,3.3-0.2c1.2,0.1,2.5,0.4,3.7,0.4
	c3.4,0,4.8-2.1,3.3-5.1c-2.3-4.8-5.6-9-9.9-12.3c-1.2-1-2.8-1.7-3.3-3.4c1.3-1.5,2.7-1.6,4.2-0.9c1.3,0.5,2.6,1.2,4.5,0.5
	c-1.7-2.6-3.2-5.2-4.9-7.6c-1.4-2-3.3-3.8-4.6-5.9c-2.5-4.2-6.3-7-10.1-9.8c-2.4-1.8-3.8-1.5-5.8,0.7c-2.7,3-5.4,6-7.9,9.2
	c-1.5,1.9-2.9,3.8-4.1,5.9c-1.1,1.8-0.4,3,1.7,3.2c1.1,0.1,2.3,0,3.5,0c1.6,0.1,2.2,1,1.8,2.6c-0.2,0.6-0.5,1.3-0.9,1.8
	c-3.4,4.9-6.4,10-9.1,15.3C36.8,85.9,36.7,86.3,36.5,86.9z M127.2,62.6c-0.3-1.2-0.5-2.3-0.9-3.2c-1.8-3.5-3.8-6.9-5.6-10.5
	c-1.7-3.4-4.3-5.9-6.9-8.5c-1.9-1.7-2.6-1.6-4.3,0.2c-2.2,2.4-4.5,4.7-6.8,7.1c-3.6,3.7-6.7,7.8-8.3,12.7c-0.6,1.9-0.6,4-0.5,6
	c0.1,2,0.9,2.4,2.9,2.1c1.1-0.2,2.2-0.7,3.3,0.3c0.1,1.9-1.4,2.7-2.4,3.8c-1.4,1.6-3,3-4.2,4.8c-1,1.5-1.8,3.2-2.4,4.9
	c-0.7,2.1,0.1,3.1,2.4,3c0.8,0,1.5-0.3,2.3-0.5c0.6-0.2,1.3-0.5,1.9-0.6c1.5-0.2,2.4,0.9,1.8,2.3c-0.2,0.4-0.5,0.8-0.9,1.1
	c-4.1,3.5-5.9,8.3-7.5,13.1c-0.5,1.5-1.6,3.6-0.1,4.5c1.1,0.7,3.2,0.1,4.6-0.4c3.4-1.2,6.3-3.2,8.9-5.8c1-0.9,1.9-1.7,3.3-0.9
	c2.5,1.4,5.1,2.7,7.6,4.2c3.3,2,6.9,3,10.7,2.9c2.7-0.1,3.2-0.5,2.6-3.1c-1.2-5.4-2.5-10.7-6.7-14.8c-0.5-0.5-0.9-1.5-0.7-2
	c0.2-0.5,1.2-1,1.8-1.1c1.2,0,2.5,0.3,3.7,0.5c2.9,0.5,3.6-0.4,2.7-3.1c-1.6-4.7-4.5-8.7-7.6-12.6c-1.4-1.8-3.2-3.3-3.9-5.7
	C120.6,60.9,123.9,63.8,127.2,62.6z"/>
<path class="st0" d="M184.2,84.6c0.1,2.1,1.5,3.4,2.4,4.9c2.2,4,4.6,8,6.5,12.2c1.4,3.2,0.5,4.5-2.9,5.4c-0.4,0.1-0.7,0.2-1,0.3
	c-0.9,1.1-0.3,2,0.1,3c0.9,2.2,1.7,4.5,2.4,6.8c0.3,0.8,0.3,1.7,0.3,2.6c-0.2,4.2-1.6,5.5-5.7,6.3c-3,0.6-5.8-0.4-8.6-0.9
	c-4-0.8-7.9-1.9-11.8-2.7c-0.7-0.1-1.7,0.2-2.3,0.6c-1.5,1.2-1.6,3-1.7,4.7c-0.1,2.3-0.2,4.6-0.5,6.9c-0.2,1.1-0.8,2.1-1.4,3
	c-0.2,0.3-1.1,0.5-1.5,0.3c-0.4-0.2-0.6-0.9-0.6-1.4c0.1-2.2,0.3-4.4,0.4-6.6c0.2-2.9-1.3-4-4.1-3c-1.9,0.6-3.8,1.3-5.8,1.8
	c-1.8,0.4-3.8,1.1-5.2-0.5c-1.4-1.6-0.1-3.3,0.5-4.9c1.6-4.3,2.9-8.6,5.7-12.3c0.2-0.2,0.1-0.5,0.2-0.8c-0.2-0.2-0.3-0.6-0.5-0.7
	c-4.1-1.9-4.5-5.6-4.1-9.3c0.4-3.6,1.2-7.2,3.1-10.4c0.9-1.5,1.3-3.1,0.6-5c-1.3-3.6,0.6-6.6,2-9.7c1.3-2.8,2.7-5.5,3.7-8.4
	c0.9-2.6,2.9-4.7,4.5-7c1.1-1.6,2.3-3.1,3.6-4.5c1.5-1.5,3.3-1.6,5.3-0.9c3.8,1.3,6.3,4.2,8.4,7.3c3.7,5.5,6.9,11.4,10.3,17.1
	c0.2,0.3,0.4,0.7,0.5,1c1,2.1,0.8,2.8-1.2,4C185.2,84.1,184.7,84.4,184.2,84.6z M189.4,103.8c-0.3-1.3-0.2-2.7-0.8-3.6
	c-2.5-4.3-5-8.7-7.9-12.8c-1.3-1.9-3.5-3.3-5.2-4.9c-0.5-0.5-1-1.4-0.9-1.8c0.2-0.5,1.2-1.1,1.8-1.1c0.9,0,1.8,0.4,2.7,0.7
	c1,0.3,2.1,0.7,3.6,1.3c-0.3-1.2-0.4-1.9-0.7-2.4c-1.5-2.6-2.9-5.3-4.5-7.7c-2.4-3.7-5-7.3-7.6-10.9c-0.7-1-1.7-1.8-2.7-2.6
	c-1.3-0.9-2.7-0.8-3.3,0.3c-1.7,2.9-3.3,5.9-4.9,8.8c-0.5,0.8-0.8,1.8-1.5,2.4c-3,3-4,7-5.4,10.7c-0.6,1.6-0.7,3.2,0.9,4.4
	c1.1,0.8,0.9,1.8,0.1,2.7c-3.2,3.4-4.2,7.7-4.9,12.1c-0.2,1.2,0.1,2.5,0.3,3.7c0.5,2.7,1.8,3.7,4.6,3.9c2.3,0.2,2.8,1,1.6,2.8
	c-0.5,0.8-1.2,1.5-1.8,2.3c-2.4,3-4,6.4-5.2,10c-0.3,1.1-0.5,2.2-0.8,3.7c1.5,0,2.7,0.3,3.7-0.1c3.6-1.6,7.3-3.2,10.6-5.3
	c2.1-1.4,4-1.5,6.3-1c2.3,0.6,4.6,1.3,7,1.8c3.4,0.7,6.8,1.4,10.2,1.9c2.3,0.4,3-0.3,3.2-2.6c0.3-2.8-0.3-5.4-1.7-7.8
	c-1.5-2.8-3.4-5.3-5.9-7.4c-0.8-0.7-1.4-1.6-2.1-2.5c2.5-1.5,2.7-1.5,5.1-0.5C185.2,103.1,186.9,104.3,189.4,103.8z"/>
<path class="st0" d="M635.4,457.1c0.6,1.6-0.2,2.4-0.8,3.2c-1.7,2.2-4.3,3.3-6.7,4.4c-5.4,2.3-11.1,4-17.1,3.4
	c-6.4-0.6-12.8-1.6-18.6-4.9c-2.7-1.6-2.9-1.6-5.6,0.4c-4.8,3.6-9.6,7-15.3,9.1c-6.6,2.4-13.2,2.2-19.9,0.6c-6-1.4-10.7-5.1-15.3-9
	c-2.9-2.5-2.8-2.5-5.9,0c-3.9,3.3-8.3,5.7-13.5,6.2c-3.4,0.3-7,0.5-10.3-0.1c-6.5-1.1-13-2.8-19.4-4.4c-2.1-0.5-4.1-1.3-4.8-3.9
	c-0.8,0.2-1.4,0.3-2,0.6c-1.9,1.2-3.7,2.4-5.6,3.6c-6.1,3.7-12.7,6.1-20,5.8c-4.8-0.2-9.2-1.9-13-5c-0.4-0.4-1-0.8-1.2-1.2
	c-0.2-0.4-0.2-1.2,0.1-1.5c0.3-0.3,1-0.3,1.5-0.2c0.3,0,0.7,0.4,1,0.6c7.5,6,15.6,6.1,24.2,2.7c4.9-1.9,9.1-5,13.5-7.7
	c0.4-0.3,0.8-0.6,1.2-0.8c1.3-0.7,2.2-0.6,2.5,0.8c0.6,2.5,2.3,3.4,4.4,4c3.1,0.9,6.1,1.7,9.2,2.3c4.9,1,9.8,2.1,14.8,2.2
	c6.1,0.1,11.3-2,16-5.7c1.2-0.9,2.6-1.7,3.8-2.6c1.2-0.9,2.2-0.6,3.3,0.4c2.7,2.3,5.5,4.5,8.3,6.7c4.7,3.6,10.1,4.9,16,5.1
	c7.4,0.2,13.8-2.3,19.7-6.4c2.7-1.9,5.4-3.8,8-5.7c1.4-1,2.6-1.1,4.2-0.2c8.5,5,17.7,7.3,27.4,5.1c4.2-0.9,8.1-2.9,12.1-4.6
	C633,459.7,634,458.4,635.4,457.1z"/>
<path class="st0" d="M588,416.4c-0.7,0.8-1.4,1.3-1.9,2c-3.2,4.5-7.5,7.3-12.9,8.6c-3.9,0.9-7.8,1.4-11.7,1.3
	c-2.5-0.1-5-0.8-7.3-1.7c-5.9-2.4-11.4-5.6-16.6-9.4c-0.6-0.4-1.3-0.9-2.1-1.5c-0.9,1-2,1.9-2.7,3c-2.8,3.9-6.5,6.9-10.6,9.2
	c-2,1.2-4.5,1.9-6.8,2.3c-3.8,0.6-7.7,1.1-11.5,1c-2.8-0.1-5.7-0.9-8.4-1.8c-5.3-1.7-10.6-3.7-14.9-7.5c-1-0.9-1.9-1.9-2.8-2.9
	c-0.7-0.8-1.3-1.6-1.9-2.3c-0.4,0.1-0.7,0-0.8,0.1c-6,5.4-13.1,8.3-20.9,9.7c-2.9,0.5-5.5-0.3-8.2-1.1c-1-0.3-1-0.6-0.9-2.4
	c0.6,0.1,1.1,0.2,1.6,0.4c4.2,1.6,8.3,1.5,12.4-0.1c2.8-1.1,5.6-2.2,8.2-3.7c2.3-1.3,4.5-3,6.4-4.8c2.5-2.3,3-2.3,4.7,0.4
	c3.3,5.1,8.1,8.2,13.5,10.4c2.1,0.9,4.3,1.7,6.5,2.4c4.7,1.6,9.6,0.7,14.3,0.3c8-0.7,13.8-5,18.5-11.1c0.9-1.2,2-2.3,3.1-3.4
	c1.4-1.3,2-1.3,3.5-0.2c2.4,1.8,4.8,3.7,7.3,5.2c3.7,2.1,7.4,4.1,11.3,5.8c1.6,0.7,3.5,1,5.3,1c3.2,0,6.4-0.1,9.5-0.4
	c5.2-0.6,9.5-3.1,12.7-7.2c1.1-1.4,2.3-2.6,3.5-3.8c0.9-0.8,1.8-1,2.8,0c0.7,0.7,1.7,1.3,2.4,2.1c2.6,2.9,6,4.2,9.6,4.9
	c4.7,0.9,9.5,2,14.3,0.4c2.6-0.8,5-1.9,7.5-2.9c0.6-0.2,1.2-0.6,2-0.9c0.6,1.8-0.5,2.4-1.5,3c-5.4,3.1-11.1,4.4-17.2,3.7
	c-5-0.6-10-1.1-14.2-4.3C591.5,419.2,589.9,417.9,588,416.4z"/>
<path class="st0" d="M608.4,376c-0.2,1.9-1.6,2.5-2.9,3c-7.2,2.6-14,2-20.2-2.9c-0.5-0.4-0.8-0.8-1.3-1.1c-2.3-1.8-2.5-1.7-5,0.1
	c-5.1,3.5-10.7,5.8-16.8,6.7c-4.2,0.6-8-1.1-11.6-3c-4.1-2.1-7.9-4.8-10.8-8.6c-0.3-0.4-0.7-0.7-1.2-1.2c-0.7,0.5-1.4,1-2,1.5
	c-6.6,5.1-14.2,7.3-22.4,7c-3.9-0.1-7.5-1.5-11-3.4c-2.3-1.2-4-3-5.2-5.3c-1.3-2.3-1.4-2.2-3.8-1c-3.6,1.7-7.1,3.4-10.7,5.1
	c-4,1.8-8.3,2.4-12.7,2.4c-2.9,0-5.5-0.8-8.1-2.1c-0.5-0.2-1.1-0.6-1.4-1c-0.3-0.4-0.2-1-0.3-1.5c0.5,0,1.2-0.2,1.5,0
	c4.1,3,8.7,3.4,13.5,2.6c1.7-0.3,3.4-0.8,5-1.4c5.1-2,10.2-4.2,14.8-7.1c0.5-0.3,1-0.8,1.5-0.8c0.7,0,1.3,0.4,1.9,0.7
	c0.1,0,0.1,0.2,0.1,0.3c1,4,3.4,6.7,7.3,8.4c3.6,1.5,7.3,2.4,11.2,2c7.3-0.7,13.9-3,19.4-8.1c0.3-0.3,0.8-0.6,1.2-0.8
	c1.5-0.8,2-0.7,3.1,0.9c2.4,3.7,5.6,6.7,9.5,8.7c2.3,1.2,4.7,2.2,7.2,3.1c2.5,0.9,5.2,0.7,7.7-0.1c5.1-1.7,10.2-3.6,14.4-7.2
	c2.2-1.9,2.5-1.8,4.5,0.4c4.7,4.9,10.4,7.3,17.2,6.1C604.2,377.9,606.2,376.9,608.4,376z"/>
<path class="st0" d="M532,322c0.5,0.6,0.8,0.9,0.9,1.2c1.4,4.4,4.7,6.8,8.7,8.2c7,2.5,13.9,1.8,20.4-1.5c1.1-0.5,2-1.5,3-2.2
	c0.4,1.7,0.4,2.1-1,3c-1.7,1.1-3.5,2-5.4,2.7c-6.5,2.2-13.1,2.4-19.5-0.5c-3.1-1.4-5.9-3.3-7.8-6.3c-0.9-1.4-1.8-1.4-3.1-0.8
	c-3.1,1.4-6.4,2.7-9.6,4c-6,2.5-16.7,0.3-21.3-5.8c-2.7-3.7-2.9-3.5-6.9-0.9c-3.2,2.1-6.4,4.3-9.8,6.1c-6,3.2-12.5,3.5-19.1,2.2
	c-1-0.2-1.8-0.8-2.7-1.3c0.6-1.3,1.4-1.1,2.1-0.9c4.1,1.3,8.1,1.2,12.3,0.5c3-0.5,5.8-1.6,8.3-3.2c4.2-2.7,8.4-5.5,12.5-8.3
	c1.7-1.2,2.5-1,3.3,0.8c3.5,7.9,14.6,12,21.5,8.9c3.1-1.4,6.2-2.7,9.3-4C529.5,323.3,530.6,322.7,532,322z"/>
<path class="st0" d="M564.8,283.8c-3.6,2.8-7.7,4.3-12.3,4.7c-4.8,0.4-8.7-1.3-11.7-5.3c-0.7,0.3-1.3,0.4-1.9,0.8
	c-2.3,1.4-4.6,2.8-6.8,4.3c-4.5,3.1-9.3,3.5-14.4,1.9c-5.3-1.7-10.2-4.1-13.5-8.9c-0.9-1.3-1.9-1-3-0.3c-3.6,2.2-7.2,4.5-11,6.5
	c-5.1,2.7-10.5,3.2-16,1.3c-0.8-0.3-1.6-0.9-2.3-1.4c0-0.2,0.1-0.4,0.1-0.6c0.6-0.1,1.3-0.5,1.7-0.3c5.1,2.8,10.1,1.9,14.9-0.5
	c4.8-2.4,9.3-5.4,13.9-8.2c1.9-1.2,2.9-1.2,3.5,0.9c1,3.2,3.3,4.8,5.8,6.5c3.9,2.6,8.1,4.6,13,4c1.1-0.1,2.3-0.4,3.3-0.9
	c4.3-2,8.3-4.5,12-7.5c1.5-1.3,2.6-1,3.3,0.9c1.2,3.1,3.5,4.3,6.6,4.8c4.6,0.6,8.7-0.9,12.8-2.6c0.5-0.2,1-0.4,1.5-0.6
	C564.5,283.3,564.7,283.5,564.8,283.8z"/>
<path class="st0" d="M566.7,256c-0.4,0.2-0.7,0.6-1.1,0.7c-7.8,2.2-15,1.9-21.4-3.9c-3.5-3.2-3.6-3.3-7.3-0.6
	c-4.4,3.1-9.2,4.3-14.4,4.2c-2.6-0.1-5.5-0.5-7.9-1.5c-2.4-1-4.3-3.1-6.8-5c-1.4,0.8-3.2,2.1-5.3,2.8c-3.6,1.3-7.3,2.5-11,3.4
	c-1.9,0.5-2.7,0.1-4.9-0.9c1.1-0.3,1.7-0.6,2.4-0.6c7.2-0.8,13.6-3.3,19-8.3c0.6-0.5,1.6-0.9,2.3-0.7c0.4,0.1,1,1.2,1,1.8
	c0.2,3.2,2.3,4.8,4.8,5.9c4.6,1.9,9.3,1.7,13.8,0c2.3-0.9,4.4-2.3,6.6-3.6c1-0.6,1.9-1.3,2.9-1.9c2.1-1.3,2.5-1.2,4.2,0.6
	c1.2,1.2,2.4,2.2,3.6,3.4c4.3,4.3,9.6,4.8,15.3,4c1.3-0.2,2.6-0.3,3.9-0.4C566.6,255.5,566.7,255.8,566.7,256z"/>
<path class="st0" d="M692.6,282.8c1.4,0.9,2.7,1.7,3.8,2.5c5.3,3.7,7.1,10.3,4.4,16.1c-0.9,1.9-2.1,3.7-3.2,5.4
	c-0.6,0.9-0.9,1.6-0.6,2.6c0.7,2.8,0.3,4.3-2.3,5.5c-5.2,2.4-10.4,4.6-16.4,3.7c-1-0.1-2.1-0.1-3.5-0.2c-0.4,2.8-0.8,5.3-1.2,7.9
	c-0.2,1.3-0.4,2.7-0.7,4c-0.2,0.9-0.9,1.5-1.7,1.1c-0.6-0.3-1.2-1.1-1.2-1.6c0.1-1.6,0.4-3.2,0.7-4.9c0.6-3.4,1.2-6.8,1.7-10.3
	c0.3-1.8-0.1-3.5-0.4-5.3c-0.5-4.1-2.2-7.5-4.2-10.9c1.7-1.3,2.5-1.2,3.5,0.3c0.9,1.3,1.7,2.8,2.6,4.4c0.5-0.5,0.9-0.8,1.2-1.2
	c1.5-2.2,3.1-4.5,4.6-6.7c0.7-1.1,1.7-1.5,3-1c0.8,1.1,0,2-0.5,2.9c-1.5,2.5-3,5-4.6,7.3c-2.1,3.1-2.1,6.6-2.2,10
	c0,1.1,0.8,1.3,1.7,1.6c3.1,0.8,6.1,0.6,9.1-0.3c1.8-0.5,3.5-1.1,5.3-1.6c3.2-0.9,3.7-2,2.6-5.1c-0.2-0.4-0.4-0.9-0.6-1.4
	c0.2-0.3,0.4-0.7,0.7-0.9c4.8-4.3,6-9.6,4.6-15.7c-0.2-0.8-0.7-1.6-1.3-2.1c-1.6-1.4-3.3-2.6-5.1-3.8c-2.9-1.9-3.1-2.6-1.4-5.5
	c0.3-0.6,0.7-1.1,1.1-1.7c1.3-2.1,2.1-4.2,1.3-6.8c-0.7-2-0.9-4.1-1.4-6.2c-0.8-3.2-3.3-4.4-6-5.2c-1.5-0.5-2.6,0.6-3.5,1.6
	c-3,3.6-6.2,6.9-8.3,11c-0.3,0.5-0.5,1-0.8,1.5c-1.6,2.8-2.3,2.9-4.8,0.8c-2.2-1.8-4.6-2.4-7.2-0.8c-1.6,1-3.2,1.8-4.8,2.7
	c-3.9,2.5-5.5,7.3-3.7,11.6c0.9,2.1,2,4.2,3,6.3c1.4,2.8,1.3,3.3-1.3,5c-2.2,1.4-3.1,3.7-4.3,5.7c-0.3,0.4,0,1.6,0.5,2
	c1.6,1.3,3.3,2.8,5.2,3.6c3.1,1.3,6.3,2.4,9.7,2.5c0.3,0,0.6,0.3,1.1,0.6c-0.5,1.4-1.7,1.5-2.6,1.3c-6-0.8-11.8-2.3-16.3-6.6
	c-1.4-1.4-1.5-2.2-0.5-3.8c1.4-2.5,2.6-5.2,5.2-6.8c1-0.6,1.1-1.5,0.6-2.5c-0.7-1.5-1.3-3-2.1-4.5c-1.8-3.7-1.9-7.4-0.7-11.2
	c0.3-1,1-2.1,1.9-2.8c3.1-2.8,6.8-4.8,10.9-5.8c1.4-0.3,3,0.2,4.5,0.6c0.9,0.2,1.7,0.8,2.8,1.3c0.7-1.2,1.2-2.4,2-3.3
	c2.6-3.2,5.2-6.5,8-9.5c2.8-3,4.9-3.1,8.6-1.3c3.8,1.9,6.3,4.7,6.7,9.1c0.2,2,0.7,4,0.8,6c0.2,2.1-0.5,4-1.7,5.7
	C693.8,280.4,693.3,281.6,692.6,282.8z"/>
<path class="st0" d="M677.2,309.3c0.9-0.9,1.5-1.9,2.4-2.5c1.9-1.3,4-2.3,6-3.5c0.3-0.2,0.7-0.4,1.1-0.4c0.5,0,1,0.2,1.6,0.3
	c-0.2,0.6-0.2,1.3-0.6,1.7c-0.5,0.5-1.3,0.8-1.9,1.3c-1.7,1.1-3.4,2.1-5.1,3.2C679.7,309.9,678.9,310.5,677.2,309.3z"/>
<path class="st0" d="M89,287.8c2.2,1.2,4.2,0.4,6.4-0.2c4.2-1.3,8.6-2.1,12.8-3.2c1.7-0.4,3.7-0.3,4.9-2.1c-0.4-1.6-1.7-2.2-2.8-2.9
	c-4.8-3.4-9.2-7.4-12.6-12.2c-0.6-0.8-1.5-1.6-0.4-3c0.5,0.3,1.2,0.4,1.6,0.9c5.1,6.1,11.6,10.8,17.2,16.3c0.7,0.7,1.4,1.4,1.8,2.2
	c0.3,0.6,0.4,1.6,0.1,2.1c-1.2,2-1,4.1-0.9,6.2c0.3,4.8,0.8,9.6,1.2,14.4c0.1,0.7,0.1,1.3,0.1,2c0,3.7-0.4,4.1-4,5.2
	c-4.5,1.4-9,2.9-13.5,4.3c-2.1,0.7-4.3,1.1-6.4,1.7c-1,0.3-2,0.8-2.9,1.3c-2.4,1.1-2.4,1.1-4.1-1.1c-0.6-0.8-1.6-1.4-2.6-1.6
	c-3.1-0.7-6.2-1.2-9.4-1.8c-7.5-1.5-14.9-3.1-22.3-4.7c-1.9-0.4-2.2-0.9-2-3.2c0.9-7.4-0.3-14.8,0.1-22.3c0.1-2.2-0.2-4-3-4.4
	c-1.4-0.2-1.5-1.3-0.4-2.7c2.7-3.4,5.4-6.8,8.1-10.2c3.1-3.9,6.6-7.3,10.5-10.3c1.2-0.9,2.4-1.1,3.8-0.8c3.5,0.8,7,1.5,10.4,2.4
	c3.1,0.8,6.1,1.7,9.2,2.5c1.4,0.3,2.8,0.4,4.3,0.6c1.4,0.2,1.9,0.9,1.5,2.2c-1.7,5.6-3.4,11.2-5.1,16.9C90,284.1,89.5,286,89,287.8
	c-2.2-0.2-2.3-0.2-1.9-2c0.1-0.5,0.2-0.9,0.4-1.4c1.6-5.8,3.2-11.7,4.9-17.5c0.1-0.2-0.1-0.6-0.2-1.1c-0.9-0.3-1.9-0.6-2.9-0.9
	c-6.7-1.6-13.3-3.1-20-4.7c-1.2-0.3-2.1,0.1-2.9,0.9c-2.1,2.1-4.4,4.1-6.3,6.3c-2.8,3.2-5.3,6.6-8,9.9c-0.3,0.4-0.4,1-0.7,1.8
	c1.3,0.6,2.5,1.2,3.7,1.6c4.2,1.5,8.3,3,12.5,4.4c4.4,1.4,8.8,2.7,13.3,4c1.7,0.5,3.4,0.6,5.1,0.9C87.7,290.3,88.7,289.5,89,287.8z
	 M90.7,318.6c1.7-0.6,3.2-1,4.6-1.5c5.9-1.8,11.8-3.5,17.6-5.4c2.9-0.9,3.1-1.6,2.9-4.7c-0.4-6.1-0.7-12.3-1-18.4
	c-0.1-1-0.2-2-0.4-3.1c-0.9,0.1-1.5,0.2-2.1,0.3c-3.5,0.8-6.9,1.5-10.4,2.5c-3.1,0.9-6.2,2-9.3,3c-1.6,0.5-2,1.7-2.1,3.4
	c-0.2,5.3-0.6,10.6-0.6,15.9C90.1,313,89.7,315.7,90.7,318.6z M54.3,283.8c-0.2,0.6-0.4,0.9-0.4,1.2c-0.1,7.6-0.1,15.2-0.2,22.8
	c0,1.2,0.6,1.8,1.6,2c2.2,0.5,4.5,1.1,6.8,1.5c0.5,0.1,1.1-0.2,1.8-0.4c-0.1-1.1,0-2-0.2-2.9c-0.4-2.9-0.8-5.7-1.1-8.6
	c-0.3-2.8,0.9-4.5,3.7-4.9c1.9-0.3,3.8-0.1,5.7-0.1c1.3,0,1.9,0.9,2,2.1c0,0.8-0.1,1.5-0.1,2.3c-0.2,4.3-0.7,8.6,0.1,13
	c0.3,1.6,0.9,2.1,2.3,2.4c2.8,0.5,5.5,1.1,8.2,1.5c2.4,0.4,2.9-0.1,3.1-2.5c0.3-6,0.4-11.9,0.6-17.9c0-1.2-0.4-1.8-1.5-2
	c-4.3-1-8.6-2-12.9-3.1c-1.9-0.5-3.7-1.1-5.5-1.8c-4-1.4-8-2.9-11.9-4.2C55.8,283.8,55.1,283.9,54.3,283.8z M64.9,297.8
	c0.5,4.8,1,9.5,1.5,14.3c1.6,0.5,3,1.3,4.5,0.4c0-3.9,0-7.8,0-11.6c0-3.9-0.8-4.5-4.7-3.7C65.9,297.3,65.7,297.4,64.9,297.8z"/>
<path class="st0" d="M110.9,390.2c-0.9,0.5-1.7,0.9-2.6,1.2c-2.1,0.8-2.3,1.3-2.2,3.4c0.3,4.5,0.5,9,0.6,13.6
	c0.1,2.3-0.4,2.5-2.7,3.4c-4.3,1.6-8.6,3.4-12.9,5.1c-3.1,1.3-6.2,2.5-9.4,3.8c-3.8,1.6-7.6,3.1-11.5,4.6c-1,0.4-2.2,0.8-3.3,0.9
	c-4.3,0.6-8.5-0.1-12.6-1.1c-2.3-0.6-4.7-1-7-1.6c-1.9-0.5-2.3-1.3-2.3-3.1c0-6-0.1-12-0.1-17.9c0-0.9-0.1-1.7,0-2.6
	c0.2-2,0-3.6-2.1-4.5c-1.2-0.5-1.3-1.6-0.6-2.7c1-1.5,2.1-3,3-4.5c2-3.2,3.9-6.4,5.9-9.6c0.6-1,1.3-1.9,2.1-2.8
	c0.4-0.4,1.2-0.9,1.7-0.8c2.8,0.6,5.3-0.6,7.9-1.1c5.3-1,10.6-2.1,15.9-2.8c3.5-0.4,7.1-0.1,10.7-0.1c2.1,0,3.7,0.9,5.3,2.5
	c3.7,3.8,7.7,7.3,11.6,10.8C108.1,386,109.9,387.6,110.9,390.2z M107.7,388.9c-1.2-1.4-1.9-2.4-2.8-3.3c-3.7-3.4-7.5-6.6-11.1-10.1
	c-1.5-1.4-3.2-1.9-5.2-2c-6.3-0.2-12.5,0.5-18.7,1.6c-2.7,0.5-5.3,1.1-7.9,1.7c-0.6,0.1-1.1,0.6-2,1c0.9,1.2,1.5,2.3,2.3,3.2
	c4.4,4.5,9.1,8.9,12.2,14.6c0.7,1.3,1.8,1.6,3.2,1.1c2.3-0.7,4.6-1.6,6.9-1.9c6.8-1,13.4-2.8,19.9-4.7
	C105.4,389.8,106.2,389.5,107.7,388.9z M71.3,420.8c0.9,0.5,2.1-0.1,3.2-0.5c3.5-1.3,7-2.7,10.5-4.1c5.6-2.2,11.3-4.5,17-6.6
	c1.6-0.6,2.2-1.2,2.2-2.8c-0.1-3.7-0.1-7.3-0.3-11c-0.1-2.4-0.8-2.8-3.1-2.1c-3.2,0.9-6.5,1.7-9.8,2.4c-5,1-10,1.9-14.8,3.9
	c-0.8,0.3-1.7,0.3-2.5,0.3c-2.4-0.1-2.6,0.1-2.6,2.6C71.1,408.7,71.2,414.5,71.3,420.8z M61.5,422.4c-1.9,0.2-2.5-0.6-2.5-1.8
	c-0.1-1.4,0.1-2.9,0.2-4.3c0.1-1.2,0.2-2.3,0.1-3.5c-0.1-1.3-1.1-2-2.4-1.9c-1.3,0.1-1.5,1-1.5,2c-0.1,2.7-0.1,5.4-0.2,8.1
	c0,1.8,0.3,2.5,2.2,2.7c2.1,0.3,4.2,0.3,6.3,0.3c3,0,3.7-0.6,4.1-3.6c0.9-6.1,0.9-12.3,0.2-18.4c-0.1-1.1-0.6-1.8-1.7-2.1
	c-4.6-1.2-9.1-2.5-13.7-3.5c-1.4-0.3-3-0.1-4.5-0.1c-0.2,0.8-0.3,1.1-0.3,1.5c0,7,0,14.1,0,21.1c0,2.7,1,3.3,4,3
	c1.7-4.2-0.4-9,1.6-13.3c1.5,0.1,3,0.4,4.4,0.3c2.8-0.3,4,0.9,4.1,3.9C62.1,416,61.7,419.1,61.5,422.4z M72.3,396.7
	c-0.8-1.3-1.2-2.3-1.8-3.1c-3.5-5.1-7.8-9.6-12.2-13.9c-0.7-0.7-1.9-1-3.2-1.6c-2.9,4.6-5.7,8.9-8.3,13.2c-0.9,1.4-0.3,2.4,1.5,2.5
	c5.4,0.3,10.4,2.1,15.5,3.3C66.5,397.7,69.1,397.8,72.3,396.7z"/>
<path class="st0" d="M154.6,345c0.1,0.6,0,1.1,0.2,1.5c0.6,1.9-0.1,3.4-1.4,4.7c-1,1-2.1,2-3.3,2.8c-1.6,1.2-2.5,2.5-2.1,4.7
	c0.6,3.1,0.9,6.3,1.4,9.4c0.1,0.9,0.2,1.7,0.3,2.6c0.1,2.7-0.8,3.9-3.5,4.2c-2.7,0.3-5.4,0.3-8.1,0.4c-1.4,0.1-2.9,0.1-4.3,0.1
	c-1.9,0-2.5-0.6-2.2-2.4c0.3-2.4,0.9-4.7,1.1-7.1c0.3-2.5,0.4-5,0.5-7.5c0.1-1.1-0.2-2.2-1.4-2.5c-3.5-1-5.2-3.9-6.9-6.6
	c-2.1-3.4-3.1-7.3-3.2-11.3c-0.1-2.4,0.5-3.4,2.8-4.4c0.7-0.3,1.4-0.6,2.1-0.9c0.7-0.3,1.4-0.6,2-0.8c-1.1-3.6-2.3-7.1-3.2-10.6
	c-1.3-5.2-1.7-10.5,0.3-15.6c0.5-1.3,1.1-2.5,2.3-3.2c1-0.6,1.5-1.4,1.6-2.5c0.3-4.4,3.2-7,6.8-8.6c4.9-2.2,10.1-2.2,14.5,1.4
	c2.4,1.9,4.4,4.4,4,7.9c-0.2,1.6,0.2,2.8,1.7,3.9c6,4.6,6.4,12.2,4,17.5c-0.9,2.1-0.4,3.4,0.8,5c5.2,6.6,3.2,14.1-4.6,17.3
	C156.1,344.4,155.4,344.7,154.6,345z M142.3,292c-4.1,0.1-5.4,0.5-7.6,2.3c-2.5,2.1-3.3,4.7-2.2,7.6c0.7,1.7,0.2,2.4-1.8,2.4
	c-1.9,0-2.9,0.9-3.4,2.5c-0.5,1.5-1,3-1,4.5c0,7,0.8,13.9,5.6,19.6c1.2,1.5,0.9,2.3-1.1,2.8c-1.2,0.3-2.5,0.5-3.7,0.8
	c-2.7,0.7-3.5,1.8-3.3,4.6c0.2,3.6,1.7,6.7,3.5,9.7c1.3,2.1,3,3.6,5.2,4.3c4.2,1.3,8.5,2,12.8,0.3c2-0.8,4-1.9,5.7-3.3
	c1.9-1.6,1.7-2.3-0.4-3.6c-1.6-0.9-1.6-2.1,0-3c0.7-0.4,1.4-0.6,2.1-0.9c1.9-0.9,4-1.6,5.8-2.7c3-1.8,3.9-4.6,3.1-8
	c-0.6-2.4-2.3-4-3.8-5.7c-1.1-1.2-1.2-2.1-0.4-3.5c3.5-6.2,1.8-15-4.5-18.2c-1-0.5-1.8-1.4-1.2-2.6c1.1-2,0.3-3.6-0.6-5.2
	c-0.9-1.7-2-3.4-3.9-4.1C145.6,292.2,143.9,292.2,142.3,292z M145.4,356.8c-3,0-5.6,0-8.3,0c-1.2,0-1.5,1-1.6,2c-0.4,4-0.8,8-1.1,12
	c-0.1,1.7,0.3,2.1,1.9,2.2c2.7,0,5.4,0,8.1-0.2c2.4-0.2,2.9-0.8,2.6-3.1C146.4,365.4,145.9,361.2,145.4,356.8z"/>
<path class="st0" d="M64.3,363.3c-1.5-0.2-3.1-0.1-4.5-0.6c-1.3-0.4-2.2-0.1-3.1,0.8c-2.2,2.2-4.4,4.3-6.6,6.5
	c-2.8,2.8-4.4,3.2-8,1.4c-3.4-1.7-6.5-3.7-9.4-6.2c-1.6-1.4-3.8-2.1-5.8-3.1c-3-1.6-5.7-3.5-7.2-6.8c-0.7-1.4-0.8-2.7-0.3-4.2
	c0.8-2.6,1.5-5.2,2.5-7.7c1.3-3.4,1.5-6.9,2-10.4c0.1-0.9,0.4-1.9,0.7-2.8c0.4-1.5,1.4-2.5,3-2.8c0.9-0.2,1.9-0.4,2.8-0.8
	c3.3-1.5,6.7-1.2,9.9-0.4c3,0.7,5.8,2,8.6,3.3c1.8,0.8,3.2,2.1,3.2,4.4c0,0.7,0.3,1.5,0.6,2.2c1.4,2.5,1.8,3,4.4,1.7
	c2.4-1.2,4.9-1.5,7.5-0.5c2.9,1.1,5,2.8,5.4,6.1c0.2,1.9,1,3.2,2.9,3.8c1.2,0.4,2.4,1.3,3.4,2.2c2.6,2.3,2.8,5,0.6,7.7
	C73.8,361,69.7,363.6,64.3,363.3z M63.1,360.4c4.8,0.4,8.4-1.2,11.3-4.6c2.4-2.9,1.5-5.7-2.3-6.6c-3.6-0.9-3.9-1.2-4.5-5
	c-0.6-4.5-3.9-6.2-8-4.1c-1.3,0.7-2.5,1.5-3.8,2.2c-1.7,0.9-3.3,0.4-4-1.3c-1.1-2.6-2-5.2-3.1-7.8c-0.4-0.8-1.1-1.7-1.8-2.1
	c-4.2-2.1-8.6-3.4-13.4-2c-0.7,0.2-1.5,0.6-2.2,0.6c-4.2,0.2-4.7,2.5-4.9,5.8c0,0.4,0,0.8,0,1.2c-0.2,2.7,0.5,5.6-2,7.8
	c-0.2,0.2-0.2,0.7-0.3,1.1c-0.6,2-0.9,4.2-1.7,6.1c-0.8,2-0.3,3.6,0.9,5.1c1.1,1.2,2.3,2.4,3.7,3.1c1.9,1.1,4.1,1.7,6.1,2.6
	c1,0.5,2.4,0.9,2.8,1.8c1.3,2.3,3.3,3.4,5.5,4.4c3.1,1.3,4,1.2,6.4-1.2c2.5-2.4,5-4.8,7.4-7.3c0.8-0.8,1.6-1.5,2.7-0.8
	C59.8,360.5,61.6,360.6,63.1,360.4z"/>
<path class="st0" d="M245.4,411.7c1.5,5.7,3,11,4.4,16.4c0.7,2.7,1.4,5.4,2.1,8.1c0.2,0.8,0.5,1.7-0.5,1.9c-0.5,0.1-1.2-0.6-1.7-1.2
	c-0.3-0.4-0.4-1.1-0.5-1.6c-1.7-6.3-3.3-12.7-5-19c-0.2-0.7-0.4-1.5-0.4-2.3C243.6,413,243.7,413,245.4,411.7z"/>
<path class="st0" d="M277.1,470.5c0.6,1.3,1.2,2.6,1.6,3.9c1.3,3.7,2,7.6,2.2,11.6c0.1,2.2,0.5,4.4,0.7,6.6c0.1,0.7,0.5,1.7-0.6,1.9
	c-1.1,0.3-1.4-0.8-1.6-1.6c-0.3-1.5-0.6-3-0.7-4.6c-0.3-5.1-1.2-10.1-3.1-14.9C275.1,471.6,275.2,471.6,277.1,470.5z"/>
<path class="st0" d="M271.8,370.2c1.5-0.1,1.9,0.9,2.3,1.7c2.6,5.2,4.2,10.7,5.2,16.4c0,0.3,0.2,0.6,0.1,0.8c-0.2,0.5-0.6,1-0.9,1.6
	c-0.4-0.3-0.9-0.6-1.2-1.1c-0.3-0.5-0.3-1.1-0.5-1.6c-1.5-4.6-3-9.1-4.4-13.7C271.9,373.1,270.9,371.8,271.8,370.2z"/>
<path class="st0" d="M284.4,395.3c-0.1-0.5-0.4-1.1-0.3-1.6c0.8-7.1,1.7-14.3,2.6-21.4c0-0.3,0.4-0.6,0.7-0.9
	c1.4,0.9,1.2,2.3,1.1,3.4c-0.2,3.2-0.5,6.3-0.9,9.5c-0.3,3-0.8,5.9-1.2,8.8C286.2,394.7,286.2,394.7,284.4,395.3z"/>
<path class="st0" d="M217.5,484.3c-0.4-1.1-0.8-2-0.9-2.8c-0.3-1.7-0.6-3.4-0.7-5.2c-0.3-5.3-2-10.1-4.5-14.8
	c-0.4-0.8-1.3-1.7-0.3-2.6c0.7-0.6,1.5,0.2,2.4,1.9c2.7,5.4,3.9,11.2,4.6,17.2c0.1,1.2,0.4,2.5,0.6,3.7
	C218.9,482.5,219.1,483.4,217.5,484.3z"/>
<path class="st0" d="M241.6,458c-0.6,1.1-1.2,2.2-1.8,3.2c-3.6,5.7-7.1,11.4-10.7,17.2c-0.6,1-1.1,2.3-2.7,2.2
	c-0.1-0.4-0.3-0.7-0.2-0.9c2.9-5,5.6-10.1,8.7-14.9c1.7-2.6,4-4.9,6-7.3C241.1,457.7,241.4,457.8,241.6,458z"/>
<path class="st0" d="M261.1,403c0.2,0.3,0.4,0.5,0.3,0.6c-2.3,7.1-3.2,14.4-4.5,21.7c0,0.1-0.3,0.2-0.6,0.4
	c-1.3-0.4-1.2-1.5-1.1-2.5c0.6-4.1,1.3-8.2,2-12.2c0.3-1.7,0.7-3.4,1.3-5C259.1,404.7,259.6,403.4,261.1,403z"/>
<path class="st0" d="M285.3,421.3c2,0.9,2,2.1,2.2,3.2c0.5,3.9,1,7.8,1.5,11.7c0.2,1.5,0.6,3,0.8,4.5c0.1,0.5-0.4,1.1-0.7,1.6
	c-0.4-0.3-1.1-0.5-1.3-1c-0.5-1.5-1-3.1-1.2-4.7c-0.6-4-1-8-1.5-12C285.1,423.7,285.3,422.7,285.3,421.3z"/>
<path class="st0" d="M335.2,493.5c-0.3-0.3-0.5-0.5-0.6-0.6c-1.6-4.2-3.2-8.4-4.7-12.7c-0.4-1-1.3-2.4,0.1-3.1
	c1.6-0.8,1.8,1.1,2.1,2c1.5,3.6,3,7.3,4.3,11C337,491.4,337,492.7,335.2,493.5z"/>
<path class="st0" d="M344.5,449.9c0.1-1.1-0.1-2.2,0.2-3.2c1.9-5.1,4.4-9.8,7.4-14.2c0.8-1.1,1.6-2.3,3.9-2.3
	c-4.6,6.4-8.5,12.7-10.3,20.2C345.3,450.1,344.9,450,344.5,449.9z"/>
<path class="st0" d="M290.2,484.4c-1.6-2.1-0.8-3.9-0.8-5.5c0-1.6,0.4-3.3,0.4-4.9c0-1.7-0.3-3.5-0.4-5.2c-0.1-1.6-0.8-3.2-0.1-4.9
	c1.6,0,1.8,1.1,1.9,2.1c0.3,2.8,0.7,5.6,0.6,8.3c0,2.6-0.4,5.2-0.7,7.8C291,482.8,290.6,483.3,290.2,484.4z"/>
<path class="st0" d="M224.2,472c-1.9-1.6-1.8-3.1-1.7-4.5c0.3-2.9,0.7-5.7,1.2-8.5c0.4-2.2,0.8-4.3,1.4-6.5c0.2-1,0.7-1.9,1.1-2.8
	c0.2,0,0.4,0.1,0.6,0.1c0.1,0.6,0.4,1.2,0.3,1.8c-0.2,1.6-0.7,3.2-0.9,4.8c-0.5,3.9-1,7.8-1.4,11.7
	C224.6,469.2,224.4,470.3,224.2,472z"/>
<path class="st0" d="M339.2,451.4c-0.1,0.2-0.5,0.6-1,1.1c-0.4-0.4-1.1-0.8-1.2-1.3c-0.9-4.3-1.6-8.5-2.3-12.8
	c-0.1-0.6,0.4-1.6,0.9-1.8c0.9-0.4,1.4,0.4,1.6,1.2c0.3,1.4,0.6,2.8,0.8,4.3C338.4,444.9,338.8,447.9,339.2,451.4z"/>
<path class="st0" d="M272,411.4c-1.7,6.2-8.5,19.5-10.7,20.9c-0.3-2.9,1.6-4.9,2.6-7.1c1.1-2.4,2.4-4.6,3.6-6.9
	C268.5,415.9,269.4,413.5,272,411.4z"/>
<path class="st0" d="M351.1,476.3c-0.1,1.3-6.2,15.3-7.6,17.5c-0.3,0.5-0.9,0.9-1.4,1.3c-1.2-0.9-0.5-1.6-0.2-2.4
	C348.6,477.4,348.6,477.4,351.1,476.3z"/>
<path class="st0" d="M329.2,386.8c0.5,1.1,1.2,2,1.5,3.1c1,3.6,1.8,7.2,2.7,10.9c0.1,0.4,0.3,0.8,0.2,1.1c-0.2,0.5-0.5,1-0.9,1.2
	c-0.2,0.1-0.8-0.3-1.1-0.7c-0.3-0.5-0.5-1.1-0.6-1.6c-1.1-3.9-2.1-7.8-3.1-11.7C327.6,388.2,327.6,387.4,329.2,386.8z"/>
<path class="st0" d="M353.5,391c-3.6,5.3-7.2,10.5-10.8,15.7c-0.2,0.3-0.6,0.5-0.9,0.6c-0.2,0.1-0.5-0.1-1.2-0.2
	c2.5-5.8,6.2-10.7,10.4-15.2C351.7,391.2,352,391.2,353.5,391z"/>
<path class="st0" d="M308.9,469.9c-1.9,6.2-5.5,11.7-8.2,17.5c-0.2,0.5-0.9,0.9-1.6,1.6c-0.1-0.8-0.4-1.3-0.3-1.6
	C300.5,482.2,306.5,471.3,308.9,469.9z"/>
<path class="st0" d="M351.6,453.5c2.5-5.9,7-10.4,11-15.2c0.5-0.6,1.2-0.9,2.4-1.7c-0.1,1,0,1.5-0.2,1.7
	c-3.8,5.1-7.7,10.3-11.6,15.4c-0.2,0.2-0.7,0.2-1,0.3C352,453.9,351.8,453.7,351.6,453.5z"/>
<path class="st0" d="M343.8,380.2c0,0.5,0.2,0.9,0.1,1.3c-1.4,5.6-2.9,11.1-4.4,16.6c-0.1,0.3-0.5,0.5-1,0.9
	c-0.3-0.7-0.6-1.2-0.6-1.6c0.5-3,1-6.1,1.7-9c0.5-2.1,1.4-4.2,2.2-6.2C342.1,381.3,342.3,380.2,343.8,380.2z"/>
<path class="st0" d="M305.4,442.8c-0.1-0.2-0.3-0.6-0.3-0.7c2.2-5.3,4.4-10.7,6.7-16c0.2-0.4,0.6-0.7,1.1-0.9
	c-0.2,6-3.1,11.1-5.6,16.3C307,442.3,306.6,443.2,305.4,442.8z"/>
<path class="st0" d="M294.5,442.8c0.1-0.8,0.2-1.7,0.4-2.4c1.1-3.3,2.3-6.6,3.4-9.8c0.6-1.7,1.6-3,3.8-3.8c-1.1,3.1-2.1,5.9-3.3,8.7
	c-1.1,2.6-1.5,5.6-3.3,7.9C295.2,443.1,294.9,443,294.5,442.8z"/>
<path class="st0" d="M290.5,394.6c1.2-4.6,7.8-14.3,10.8-15.9c-0.6,2.2-1.8,3.8-2.9,5.5c-1.2,1.9-2.3,3.8-3.6,5.5
	C293.6,391.3,293.2,393.6,290.5,394.6z"/>
<path class="st0" d="M364.9,477.3c-0.4,3-6.1,11.6-9.2,13.5c0.5-3.2,2.7-5,4.1-7.3c1.4-2.3,3-4.4,4.5-6.6
	C364.5,477,364.7,477.1,364.9,477.3z"/>
<path class="st0" d="M772.3,120c-0.8,1.5-1.6,3-2.5,4.4c-2.4,3.6-4.1,7.6-5.5,11.7c-0.5,1.4-1,2.7-1.7,4c-0.3,0.5-1,0.6-1.6,1
	c-0.3-0.6-0.7-1.2-1-1.9c0-0.1,0-0.2,0-0.3c1.9-7.3,4.9-14,10.9-19c0.2-0.2,0.5-0.2,0.8-0.3C771.9,119.7,772.1,119.9,772.3,120z"/>
<path class="st0" d="M805.7,139.9c0.2,1.1,0.5,2.2,0.4,3.2c-0.5,4-1.1,8-1.6,12c-0.4,2.4-0.8,4.9-1.2,7.8c-0.7-0.5-1.5-0.8-1.6-1.2
	c-0.3-1.1-0.5-2.3-0.3-3.4c0.8-5.4,1.6-10.9,2.5-16.3c0.1-0.8,0.5-1.5,0.8-2.3C805,139.8,805.3,139.8,805.7,139.9z"/>
<path class="st0" d="M768.8,38.9c-0.2,1.1-0.3,1.9-0.5,2.5c-2.4,6-3.8,12.3-4.5,18.7c0,0.3,0,0.6-0.1,0.9c-0.3,0.5-0.7,1-1.1,1.5
	c-0.5-0.5-1.3-0.9-1.4-1.5c-0.2-1.1-0.2-2.3,0.1-3.4c1.3-5,2.7-10,4.1-15C765.9,41.1,766.6,39.6,768.8,38.9z"/>
<path class="st0" d="M785.8,150.4c1.6-0.8,2.5-0.3,3.1,0.9c0.7,1.5,1.4,2.9,2.1,4.4c1.6,3.8,3.6,7.5,4.2,11.6c0.1,1,1,2.6-0.5,3
	c-1.6,0.4-1.5-1.4-1.8-2.4c-1.4-4.7-3.1-9.3-5.4-13.6C786.8,153.1,786.3,151.7,785.8,150.4z"/>
<path class="st0" d="M796.2,81.1c-0.1,1.2-0.1,1.9-0.2,2.6c-0.7,5.1-2.1,10.2-1.5,15.4c0.1,0.6-0.6,1.3-0.9,1.9
	c-0.5-0.5-1.3-0.8-1.6-1.4c-1.1-2.4-0.7-4.9-0.4-7.4c0.3-2.7,1-5.3,1.6-7.9C793.5,83,794,81.7,796.2,81.1z"/>
<path class="st0" d="M763.7,109.8c-0.2,1.6-0.4,3.4-0.7,5.1c-0.7,3.8-1.5,7.5-2.2,11.3c-0.1,0.5-0.2,1-0.5,1.3
	c-0.4,0.4-1,0.8-1.4,0.7c-0.4-0.1-0.9-0.8-0.9-1.2c0-1.9,0.1-3.9,0.4-5.7c0.4-2.6,1.1-5.3,1.8-7.9c0.3-1,0.6-2,1.1-3
	C761.6,109.7,762.3,109.1,763.7,109.8z"/>
<path class="st0" d="M743.9,105.5c4.1,6.5,6.5,13.1,8.3,20c0.3,1.1,0.2,1.1-1.1,2.8c-0.5-1.1-1.1-2-1.3-2.9c-1-5.3-3.6-9.9-5.7-14.8
	c-0.4-1-0.8-2-1.1-3C743,107.1,743.4,106.5,743.9,105.5z"/>
<path class="st0" d="M745.7,55.2c1,1,2,1.7,2.6,2.7c1.1,1.9,2.1,3.9,2.8,6c1,2.7,1.8,5.5,2.7,8.2c0.3,0.9,0.3,1.6-0.5,1.9
	c-1,0.4-1.4-0.3-1.7-1.1c-0.7-1.9-1.2-3.9-2-5.7c-1.2-2.9-2.6-5.8-4-8.7C745.2,57.7,744.3,56.9,745.7,55.2z"/>
<path class="st0" d="M786.7,109.3c-0.2,0.3-0.5,0.8-0.8,0.9c-0.5,0.1-1.3,0-1.5-0.3c-0.6-0.6-0.9-1.5-1.3-2.2
	c-1.8-3.6-3.6-7.2-5.3-10.8c-0.2-0.5,0-1.2,0-1.8c0.7,0.1,1.7-0.1,2.1,0.3c1.3,1.5,2.5,3.2,3.4,5c1.3,2.6,2.2,5.3,3.3,8
	C786.6,108.5,786.6,108.8,786.7,109.3z"/>
<path class="st0" d="M779.7,54.5c-1.4,1.7-3,3.4-4.3,5.3c-1.5,2.1-2.9,4.3-4.3,6.4c-0.3,0.5-0.5,1-0.9,1.5c-0.5,0.7-1.3,1.4-2.1,0.7
	c-0.4-0.3-0.5-1.5-0.2-2c2.2-4.3,4.8-8.3,8.7-11.4c0.7-0.6,1.8-0.8,2.7-1.2C779.4,54,779.6,54.2,779.7,54.5z"/>
<path class="st0" d="M807.7,163.8c2.5-6.6,5.3-12.2,9.9-16.7c0.2,0.1,0.4,0.1,0.6,0.2c-0.1,0.6,0.1,1.3-0.2,1.8
	c-2.8,4.8-5.6,9.7-8.4,14.5C809.5,163.8,808.9,163.7,807.7,163.8z"/>
<path class="st0" d="M798.9,103.9c0.1-5.2,4.9-12.6,9.4-14.6c-1,3-2.8,5.2-4.2,7.5C802.7,99.2,802,102.1,798.9,103.9z"/>
<path class="st0" d="M131.1,495.7c-2.7,0.5-6.2-3.4-6-6.9c0.2-3.4,2.1-6,5.4-6.8c0.6-0.2,1.3-0.3,1.9-0.7c3.6-2.3,8,1.3,7.8,5.5
	C140.2,490.9,135.2,496.1,131.1,495.7z M137.6,485.8c-0.3-0.4-0.6-1.3-1.3-1.8c-0.4-0.3-1.4,0.1-2,0.5c-0.9,0.5-1.6,1.4-2.5,2
	c-0.7,0.5-1.4,0.9-2.1,1.1c-1.4,0.4-2.1,1.7-1.7,3.7c0.2,1.2,1.4,2.1,2.7,2.1C133.3,493.1,137.5,488.9,137.6,485.8z"/>
<path class="st0" d="M89.6,500.8c1.1,0.2,2.4,0.4,3.7,0.8c3.8,1.4,5,4.2,3.2,7.8c-1.5,2.9-3.8,5.3-7.2,6.2c-3.1,0.9-5.7,0-8-2
	c-1.8-1.7-2.7-3.7-1.7-6.2c0.4-0.9,0.6-1.8,1-2.7c0.8-1.8,2.1-3,4.1-3.2C86.3,501.3,87.8,501.1,89.6,500.8z M90,503.6
	c-3.8,0-5.9,1.4-7.4,4.8c-1.5,3.3,0.1,5.5,3.8,5.3c2.9-0.2,5.2-1.5,7-3.6c1.2-1.4,2-3,1.3-4.8c-0.7-1.6-2.5-1.5-4-1.7
	C90.4,503.5,90.2,503.6,90,503.6z"/>
<path class="st0" d="M113.6,508.8c0.4-1.4,0.8-2.8,1.3-4.1c0.2-0.6,0.8-1.4,1.3-1.4c3.2-0.4,6.4-2,9.7,0c3.2,2,3.9,5.6,1.2,8.6
	c-1.5,1.7-3.6,2.9-5.6,4c-1.9,1-5.6-1-6.7-3.3C114.2,511.3,114,510.1,113.6,508.8z M116.7,507.1c-0.2,1.4-0.4,2.1-0.4,2.9
	c0,2.5,1.9,4,4.3,3.2c2.2-0.7,4.1-2,5.3-4.1c0.7-1.3,0.4-2.4-0.6-3.3c-1.6-1.4-3-1.2-5,0.7C119.3,507.5,118.5,508.5,116.7,507.1z"/>
<path class="st0" d="M42.1,488.1c-0.2-2.9,1.8-6.7,3.6-7c1.3-0.2,3,0.1,4.1,0.8c2.8,1.7,4.8,4.2,4.4,7.8c-0.4,4.1-3.1,6.3-6.6,7.6
	c-3.2,1.2-6,0.1-8.5-2.1c-1.1-1-1.5-2.3-1.2-3.7c0.3-1.5,1-2.7,3-3.1c-0.3,1.2-0.4,2.1-0.8,3.1c-0.9,2.6,1.1,4.5,3.7,4.4
	c3.4-0.1,7.6-3.1,7.8-7.1c0.1-1-0.1-2.2-0.6-3c-1.2-2.3-3.2-2.7-5.3-1C44.7,485.7,43.6,486.7,42.1,488.1z"/>
<path class="st0" d="M159.6,504.5c-0.1,3.4-3.5,7.7-6,8.3c-2.7,0.7-6.1-2.5-5.9-5.5c0.1-1,0.3-2.1,0.4-3.1c0.2-2.3,1.2-4.1,3.3-5
	c2.3-0.9,4.4-0.2,6,1.6C158.4,502,159.1,503.6,159.6,504.5z M152.7,505.7c-0.6,0.8-0.9,1.2-1.2,1.5c-0.6,0.7-1.4,1.4-0.7,2.5
	c0.6,0.9,1.8,0.9,3.1,0.1c1.6-1,2.5-2.6,3.1-4.4c0.4-1.2,0-2.3-1-3.1c-1-0.8-2.8-1-3.8-0.2c-0.7,0.5-1.2,1.2-2.2,2.2
	C151.1,504.8,151.9,505.2,152.7,505.7z"/>
<path class="st0" d="M69.3,503.1c-0.4,1.8-0.9,4.1-2.9,5.6c-2.6,2.1-4.9,2-7.1-0.4c-2.1-2.3-2.1-4.9,0-7.2c1.3-1.4,2.8-2.3,4.7-2.7
	C66.9,497.8,69.2,499.7,69.3,503.1z M62.2,508.2c3.6-1.4,5-3.7,4.2-6.7c-1.1,0.2-2.4,0.1-3.3,0.7c-0.9,0.7-1.6,1.8-2.1,2.9
	C60.4,506.3,61,507.3,62.2,508.2z"/>
<path class="st0" d="M97.3,496.1c-1.8-0.2-3.8-1.2-5-3.2c-1-1.7-0.3-3.2,1.6-3.7c1.2-0.3,2.3-0.5,3-1.9c0.7-1.3,2.6-1.3,4-0.2
	c1.8,1.4,2.7,3.5,2.1,5.2C102.3,494.6,100.2,496.1,97.3,496.1z M100,489.2c-1.3,0.7-2.3,2-4,1.1c-0.3-0.1-1.4,0.6-1.4,1
	c0,0.6,0.3,1.6,0.8,1.9c1.2,0.8,2.6,0.6,3.7-0.4C100.3,491.9,100.8,490.8,100,489.2z"/>
<path class="st0" d="M367.2,327c0-2.6,0.5-3.3,2.9-4.3c0.9-0.4,1.6-1,2.4-1.5c2.2-1.5,5.2-1.6,6.8-0.3c1.4,1.2,1.7,4.1,0.5,6.5
	c-1.1,2.3-3.1,4-5.5,4.8C370.6,333.4,367.2,330.9,367.2,327z M378.1,324.5c0-1.9-1.4-2.9-3.1-1.9c-1.5,0.9-2.9,2.2-4.2,3.4
	c-1.1,1-1.2,2.1-0.4,3.3c0.8,1.2,2.2,1.7,3.5,1.2C375.9,329.8,378.1,326.7,378.1,324.5z"/>
<path class="st0" d="M403.6,299.6c-0.2,3.5-3.4,7.5-6.5,8.2c-1.7,0.4-3.3,0.2-4.5-1.2c-0.9-1-0.7-2.7,0.3-4.3c0.7-1.2,1.4-2.5,2-3.8
	c1.1-2.4,4.6-3.7,6.8-2.4C403.1,296.9,403.9,298.1,403.6,299.6z M401,299.9c-0.2-0.3-0.6-1.3-1.3-1.5c-0.7-0.2-1.9,0.2-2.2,0.8
	c-1,1.5-1.6,3.2-2.3,4.9c-0.2,0.4-0.1,1.1,0.2,1.3c0.4,0.3,1.1,0.4,1.6,0.3C398.6,305.3,400.9,302.2,401,299.9z"/>
<path class="st0" d="M419.7,272.7c4,0,6.2,3,5.2,6.3c-0.2,0.6-0.3,1.1-0.5,1.6c-1.8,4.4-7.9,5.5-11.1,2.1c-0.4-0.4-0.6-1.3-0.4-1.8
	c0.5-1.2,1.2-2.4,2-3.5c0.9-1.2,1.9-2.4,3-3.5C418.4,273.3,419.3,272.9,419.7,272.7z M422.5,277.6c0-2.4-1.1-3-3-2.2
	c-2.5,1-2.4,3.3-2.6,5.3c-0.2,1.9,1.3,2.7,3,1.8C422,281.3,422,279.2,422.5,277.6z"/>
<path class="st0" d="M404.2,318.7c4.8,0.4,6.8,2.4,6.6,6c-0.1,3.2-3.3,6.4-6.3,6.4c-2,0-3.5-0.9-4.5-2.6c-0.4-0.7-0.5-1.5,0.3-2
	c0.8-0.5,1.4-0.1,1.9,0.6c2,2.8,3.8,2.7,5.4-0.4c0.3-0.6,0.6-1.2,0.8-1.8c0.4-1.3,0.1-2.5-1-3.4c-1.1-0.8-2.2-0.7-3.2,0
	c-1,0.7-2,1.5-3.1,2.1c-0.5,0.3-1.2,0.2-1.8,0.3c0-0.7-0.3-1.8,0-2C401.1,320.4,402.7,318.7,404.2,318.7z"/>
<path class="st0" d="M427.3,257.8c0.1,1,0.1,1.7,0.2,2.3c1.3,0.8,2.2-0.2,3.1-3.3c-0.9-0.2-1.8-0.2-2.6-0.5
	c-0.5-0.2-0.9-0.7-1.4-1.1c0.5-0.3,1-0.9,1.6-0.9c2.5-0.3,4.4,0.9,4.7,2.7c0.3,2.2-1.7,4.9-4,5.3c-0.4,0.1-0.8,0.1-1.1,0.1
	c-1.6-0.1-2.6-0.8-2.8-1.9C424.6,259.4,425.1,258.8,427.3,257.8z"/>
<path class="st0" d="M79,406.4c-0.2-2.2-0.1-2.4,2.1-3c1.6-0.5,3.3-1.1,4.9-1.6c1.4-0.5,2.7-0.3,3.6,1c0.9,1.3,0.7,2.5-0.1,3.8
	c-1.8,2.7-4.4,3.9-7.5,4.4c-1.7,0.2-2.7-0.7-2.9-2.4C79,407.8,79,407.1,79,406.4z M81.8,407.2c2.4,0.7,3,0.5,4.1-2.1
	C84.3,405.1,82.7,405.1,81.8,407.2z"/>
</svg>
