<?xml version="1.0" encoding="utf-8"?>
<!-- Generator: Adobe Illustrator 24.1.2, SVG Export Plug-In . SVG Version: 6.00 Build 0)  -->
<svg version="1.1" id="Layer_1" xmlns="http://www.w3.org/2000/svg" xmlns:xlink="http://www.w3.org/1999/xlink" x="0px" y="0px"
	 viewBox="0 0 357.7 34.2" style="enable-background:new 0 0 357.7 34.2;" xml:space="preserve">
<style type="text/css">
	.st0{fill:#FFFFFF;stroke:#DDDDDD;stroke-miterlimit:10;}
	.st1{fill:#5FB49C;}
</style>
<path class="st0" d="M355.1,2.4h-4h-4h-4v4v2.2c0,1.6-1.3,2.9-2.9,2.9H188.4h-1.3l-1,0.7l-7.1,5l-7.1-5l-1-0.7h-1.3H17.9
	c-1.6,0-2.9-1.3-2.9-2.9V6.4v-4h-4h-4h-4v4v2.2c0,8.2,6.7,14.9,14.9,14.9h149.2l9.6,6.7l2.3,1.6l2.3-1.6l9.6-6.7h149.2
	c8.2,0,14.9-6.7,14.9-14.9V6.4V2.4L355.1,2.4z"/>
<path class="st1" d="M179.1,27l-10.6-7.4H17.9c-6,0-10.9-4.9-10.9-10.9V6.4h4v2.2c0,3.8,3.1,6.9,6.9,6.9h151.8l9.4,6.6l9.4-6.6
	h151.8c3.8,0,6.9-3.1,6.9-6.9V6.4h4v2.2c0,6-4.9,10.9-10.9,10.9H189.7L179.1,27z"/>
</svg>
